Sun Nov 20 01:40:53 2016<stderr>:[taurus-8.lyon.grid5000.fr:21129] MCW rank 0 bound to socket 0[core 0]: [B .][. .]
Sun Nov 20 01:40:53 2016<stderr>:[taurus-8.lyon.grid5000.fr:21129] MCW rank 1 bound to socket 0[core 1]: [. B][. .]
Sun Nov 20 01:40:53 2016<stderr>:[taurus-8.lyon.grid5000.fr:21129] MCW rank 2 bound to socket 1[core 0]: [. .][B .]
Sun Nov 20 01:40:53 2016<stderr>:[taurus-8.lyon.grid5000.fr:21129] MCW rank 3 bound to socket 1[core 1]: [. .][. B]
Sun Nov 20 01:40:53 2016<stderr>:[taurus-7.lyon.grid5000.fr:43229] MCW rank 4 bound to socket 0[core 0]: [B .][. .]
Sun Nov 20 01:40:53 2016<stderr>:[taurus-7.lyon.grid5000.fr:43229] MCW rank 5 bound to socket 0[core 1]: [. B][. .]
Sun Nov 20 01:40:53 2016<stderr>:[taurus-7.lyon.grid5000.fr:43229] MCW rank 6 bound to socket 1[core 0]: [. .][B .]
Sun Nov 20 01:40:53 2016<stderr>:[taurus-7.lyon.grid5000.fr:43229] MCW rank 7 bound to socket 1[core 1]: [. .][. B]
Sun Nov 20 01:40:53 2016<stderr>:[taurus-5.lyon.grid5000.fr:04599] MCW rank 12 bound to socket 0[core 0]: [B .][. .]
Sun Nov 20 01:40:53 2016<stderr>:[taurus-5.lyon.grid5000.fr:04599] MCW rank 13 bound to socket 0[core 1]: [. B][. .]
Sun Nov 20 01:40:53 2016<stderr>:[taurus-5.lyon.grid5000.fr:04599] MCW rank 14 bound to socket 1[core 0]: [. .][B .]
Sun Nov 20 01:40:53 2016<stderr>:[taurus-5.lyon.grid5000.fr:04599] MCW rank 15 bound to socket 1[core 1]: [. .][. B]
Sun Nov 20 01:40:53 2016<stderr>:[taurus-6.lyon.grid5000.fr:04513] MCW rank 10 bound to socket 1[core 0]: [. .][B .]
Sun Nov 20 01:40:53 2016<stderr>:[taurus-6.lyon.grid5000.fr:04513] MCW rank 11 bound to socket 1[core 1]: [. .][. B]
Sun Nov 20 01:40:53 2016<stderr>:[taurus-6.lyon.grid5000.fr:04513] MCW rank 8 bound to socket 0[core 0]: [B .][. .]
Sun Nov 20 01:40:53 2016<stderr>:[taurus-6.lyon.grid5000.fr:04513] MCW rank 9 bound to socket 0[core 1]: [. B][. .]
