[flyon.lyon.grid5000.fr:16354] System has detected external process binding to cores 0001
Mon Nov 21 07:17:46 2016<stderr>:[taurus-5.lyon.grid5000.fr:28077] MCW rank 3 bound to socket 0[core 0]: [B]
Mon Nov 21 07:17:46 2016<stderr>:[taurus-8.lyon.grid5000.fr:01791] MCW rank 0 bound to socket 0[core 0]: [B]
Mon Nov 21 07:17:46 2016<stderr>:[taurus-7.lyon.grid5000.fr:18179] MCW rank 1 bound to socket 0[core 0]: [B]
Mon Nov 21 07:17:46 2016<stderr>:[taurus-14.lyon.grid5000.fr:07172] MCW rank 7 bound to socket 0[core 0]: [B]
Mon Nov 21 07:17:46 2016<stderr>:[taurus-6.lyon.grid5000.fr:27990] MCW rank 2 bound to socket 0[core 0]: [B]
Mon Nov 21 07:17:46 2016<stderr>:[taurus-4.lyon.grid5000.fr:07327] MCW rank 4 bound to socket 0[core 0]: [B]
Mon Nov 21 07:17:46 2016<stderr>:[taurus-3.lyon.grid5000.fr:07274] MCW rank 5 bound to socket 0[core 0]: [B]
Mon Nov 21 07:17:46 2016<stderr>:[taurus-16.lyon.grid5000.fr:07013] MCW rank 6 bound to socket 0[core 0]: [B]
