[flyon.lyon.grid5000.fr:11887] System has detected external process binding to cores 0001
Sat Nov 19 20:38:47 2016<stderr>:[taurus-7.lyon.grid5000.fr:32658] MCW rank 1 bound to socket 0[core 0]: [B]
Sat Nov 19 20:38:47 2016<stderr>:[taurus-5.lyon.grid5000.fr:42835] MCW rank 3 bound to socket 0[core 0]: [B]
Sat Nov 19 20:38:47 2016<stderr>:[taurus-8.lyon.grid5000.fr:07208] MCW rank 0 bound to socket 0[core 0]: [B]
Sat Nov 19 20:38:47 2016<stderr>:[taurus-14.lyon.grid5000.fr:30855] MCW rank 7 bound to socket 0[core 0]: [B]
Sat Nov 19 20:38:47 2016<stderr>:[taurus-1.lyon.grid5000.fr:20037] MCW rank 11 bound to socket 0[core 0]: [B]
Sat Nov 19 20:38:47 2016<stderr>:[taurus-11.lyon.grid5000.fr:19026] MCW rank 9 bound to socket 0[core 0]: [B]
Sat Nov 19 20:38:47 2016<stderr>:[taurus-3.lyon.grid5000.fr:31003] MCW rank 5 bound to socket 0[core 0]: [B]
Sat Nov 19 20:38:47 2016<stderr>:[taurus-13.lyon.grid5000.fr:19059] MCW rank 8 bound to socket 0[core 0]: [B]
Sat Nov 19 20:38:47 2016<stderr>:[taurus-6.lyon.grid5000.fr:42758] MCW rank 2 bound to socket 0[core 0]: [B]
Sat Nov 19 20:38:47 2016<stderr>:[taurus-4.lyon.grid5000.fr:30873] MCW rank 4 bound to socket 0[core 0]: [B]
Sat Nov 19 20:38:47 2016<stderr>:[taurus-16.lyon.grid5000.fr:30876] MCW rank 6 bound to socket 0[core 0]: [B]
Sat Nov 19 20:38:47 2016<stderr>:[taurus-10.lyon.grid5000.fr:18996] MCW rank 10 bound to socket 0[core 0]: [B]
