Sat Nov 19 23:04:29 2016<stderr>:[taurus-1.lyon.grid5000.fr:39296] MCW rank 95 bound to socket 1[core 3]: [. . . .][. . . B]
Sat Nov 19 23:04:29 2016<stderr>:[taurus-1.lyon.grid5000.fr:39296] MCW rank 88 bound to socket 0[core 0]: [B . . .][. . . .]
Sat Nov 19 23:04:29 2016<stderr>:[taurus-1.lyon.grid5000.fr:39296] MCW rank 89 bound to socket 0[core 1]: [. B . .][. . . .]
Sat Nov 19 23:04:29 2016<stderr>:[taurus-1.lyon.grid5000.fr:39296] MCW rank 90 bound to socket 0[core 2]: [. . B .][. . . .]
Sat Nov 19 23:04:29 2016<stderr>:[taurus-1.lyon.grid5000.fr:39296] MCW rank 91 bound to socket 0[core 3]: [. . . B][. . . .]
Sat Nov 19 23:04:29 2016<stderr>:[taurus-1.lyon.grid5000.fr:39296] MCW rank 92 bound to socket 1[core 0]: [. . . .][B . . .]
Sat Nov 19 23:04:29 2016<stderr>:[taurus-1.lyon.grid5000.fr:39296] MCW rank 93 bound to socket 1[core 1]: [. . . .][. B . .]
Sat Nov 19 23:04:29 2016<stderr>:[taurus-1.lyon.grid5000.fr:39296] MCW rank 94 bound to socket 1[core 2]: [. . . .][. . B .]
Sat Nov 19 23:04:29 2016<stderr>:[taurus-8.lyon.grid5000.fr:14400] MCW rank 3 bound to socket 0[core 3]: [. . . B][. . . .]
Sat Nov 19 23:04:29 2016<stderr>:[taurus-8.lyon.grid5000.fr:14400] MCW rank 4 bound to socket 1[core 0]: [. . . .][B . . .]
Sat Nov 19 23:04:29 2016<stderr>:[taurus-8.lyon.grid5000.fr:14400] MCW rank 5 bound to socket 1[core 1]: [. . . .][. B . .]
Sat Nov 19 23:04:29 2016<stderr>:[taurus-8.lyon.grid5000.fr:14400] MCW rank 6 bound to socket 1[core 2]: [. . . .][. . B .]
Sat Nov 19 23:04:29 2016<stderr>:[taurus-8.lyon.grid5000.fr:14400] MCW rank 7 bound to socket 1[core 3]: [. . . .][. . . B]
Sat Nov 19 23:04:29 2016<stderr>:[taurus-8.lyon.grid5000.fr:14400] MCW rank 0 bound to socket 0[core 0]: [B . . .][. . . .]
Sat Nov 19 23:04:29 2016<stderr>:[taurus-8.lyon.grid5000.fr:14400] MCW rank 1 bound to socket 0[core 1]: [. B . .][. . . .]
Sat Nov 19 23:04:29 2016<stderr>:[taurus-8.lyon.grid5000.fr:14400] MCW rank 2 bound to socket 0[core 2]: [. . B .][. . . .]
Sat Nov 19 23:04:29 2016<stderr>:[taurus-5.lyon.grid5000.fr:48293] MCW rank 28 bound to socket 1[core 0]: [. . . .][B . . .]
Sat Nov 19 23:04:29 2016<stderr>:[taurus-5.lyon.grid5000.fr:48293] MCW rank 29 bound to socket 1[core 1]: [. . . .][. B . .]
Sat Nov 19 23:04:29 2016<stderr>:[taurus-5.lyon.grid5000.fr:48293] MCW rank 30 bound to socket 1[core 2]: [. . . .][. . B .]
Sat Nov 19 23:04:29 2016<stderr>:[taurus-5.lyon.grid5000.fr:48293] MCW rank 31 bound to socket 1[core 3]: [. . . .][. . . B]
Sat Nov 19 23:04:29 2016<stderr>:[taurus-5.lyon.grid5000.fr:48293] MCW rank 24 bound to socket 0[core 0]: [B . . .][. . . .]
Sat Nov 19 23:04:29 2016<stderr>:[taurus-5.lyon.grid5000.fr:48293] MCW rank 25 bound to socket 0[core 1]: [. B . .][. . . .]
Sat Nov 19 23:04:29 2016<stderr>:[taurus-5.lyon.grid5000.fr:48293] MCW rank 26 bound to socket 0[core 2]: [. . B .][. . . .]
Sat Nov 19 23:04:29 2016<stderr>:[taurus-5.lyon.grid5000.fr:48293] MCW rank 27 bound to socket 0[core 3]: [. . . B][. . . .]
Sat Nov 19 23:04:29 2016<stderr>:[taurus-14.lyon.grid5000.fr:34636] MCW rank 60 bound to socket 1[core 0]: [. . . .][B . . .]
Sat Nov 19 23:04:29 2016<stderr>:[taurus-14.lyon.grid5000.fr:34636] MCW rank 61 bound to socket 1[core 1]: [. . . .][. B . .]
Sat Nov 19 23:04:29 2016<stderr>:[taurus-14.lyon.grid5000.fr:34636] MCW rank 62 bound to socket 1[core 2]: [. . . .][. . B .]
Sat Nov 19 23:04:29 2016<stderr>:[taurus-14.lyon.grid5000.fr:34636] MCW rank 63 bound to socket 1[core 3]: [. . . .][. . . B]
Sat Nov 19 23:04:29 2016<stderr>:[taurus-14.lyon.grid5000.fr:34636] MCW rank 56 bound to socket 0[core 0]: [B . . .][. . . .]
Sat Nov 19 23:04:29 2016<stderr>:[taurus-14.lyon.grid5000.fr:34636] MCW rank 57 bound to socket 0[core 1]: [. B . .][. . . .]
Sat Nov 19 23:04:29 2016<stderr>:[taurus-14.lyon.grid5000.fr:34636] MCW rank 58 bound to socket 0[core 2]: [. . B .][. . . .]
Sat Nov 19 23:04:29 2016<stderr>:[taurus-14.lyon.grid5000.fr:34636] MCW rank 59 bound to socket 0[core 3]: [. . . B][. . . .]
Sat Nov 19 23:04:29 2016<stderr>:[taurus-7.lyon.grid5000.fr:38174] MCW rank 12 bound to socket 1[core 0]: [. . . .][B . . .]
Sat Nov 19 23:04:29 2016<stderr>:[taurus-7.lyon.grid5000.fr:38174] MCW rank 13 bound to socket 1[core 1]: [. . . .][. B . .]
Sat Nov 19 23:04:29 2016<stderr>:[taurus-7.lyon.grid5000.fr:38174] MCW rank 14 bound to socket 1[core 2]: [. . . .][. . B .]
Sat Nov 19 23:04:29 2016<stderr>:[taurus-7.lyon.grid5000.fr:38174] MCW rank 15 bound to socket 1[core 3]: [. . . .][. . . B]
Sat Nov 19 23:04:29 2016<stderr>:[taurus-7.lyon.grid5000.fr:38174] MCW rank 8 bound to socket 0[core 0]: [B . . .][. . . .]
Sat Nov 19 23:04:29 2016<stderr>:[taurus-7.lyon.grid5000.fr:38174] MCW rank 9 bound to socket 0[core 1]: [. B . .][. . . .]
Sat Nov 19 23:04:29 2016<stderr>:[taurus-7.lyon.grid5000.fr:38174] MCW rank 10 bound to socket 0[core 2]: [. . B .][. . . .]
Sat Nov 19 23:04:29 2016<stderr>:[taurus-7.lyon.grid5000.fr:38174] MCW rank 11 bound to socket 0[core 3]: [. . . B][. . . .]
Sat Nov 19 23:04:29 2016<stderr>:[taurus-4.lyon.grid5000.fr:34792] MCW rank 36 bound to socket 1[core 0]: [. . . .][B . . .]
Sat Nov 19 23:04:29 2016<stderr>:[taurus-4.lyon.grid5000.fr:34792] MCW rank 37 bound to socket 1[core 1]: [. . . .][. B . .]
Sat Nov 19 23:04:29 2016<stderr>:[taurus-4.lyon.grid5000.fr:34792] MCW rank 38 bound to socket 1[core 2]: [. . . .][. . B .]
Sat Nov 19 23:04:29 2016<stderr>:[taurus-4.lyon.grid5000.fr:34792] MCW rank 39 bound to socket 1[core 3]: [. . . .][. . . B]
Sat Nov 19 23:04:29 2016<stderr>:[taurus-4.lyon.grid5000.fr:34792] MCW rank 32 bound to socket 0[core 0]: [B . . .][. . . .]
Sat Nov 19 23:04:29 2016<stderr>:[taurus-4.lyon.grid5000.fr:34792] MCW rank 33 bound to socket 0[core 1]: [. B . .][. . . .]
Sat Nov 19 23:04:29 2016<stderr>:[taurus-4.lyon.grid5000.fr:34792] MCW rank 34 bound to socket 0[core 2]: [. . B .][. . . .]
Sat Nov 19 23:04:29 2016<stderr>:[taurus-4.lyon.grid5000.fr:34792] MCW rank 35 bound to socket 0[core 3]: [. . . B][. . . .]
Sat Nov 19 23:04:29 2016<stderr>:[taurus-13.lyon.grid5000.fr:21195] MCW rank 68 bound to socket 1[core 0]: [. . . .][B . . .]
Sat Nov 19 23:04:29 2016<stderr>:[taurus-13.lyon.grid5000.fr:21195] MCW rank 69 bound to socket 1[core 1]: [. . . .][. B . .]
Sat Nov 19 23:04:29 2016<stderr>:[taurus-13.lyon.grid5000.fr:21195] MCW rank 70 bound to socket 1[core 2]: [. . . .][. . B .]
Sat Nov 19 23:04:29 2016<stderr>:[taurus-13.lyon.grid5000.fr:21195] MCW rank 71 bound to socket 1[core 3]: [. . . .][. . . B]
Sat Nov 19 23:04:29 2016<stderr>:[taurus-6.lyon.grid5000.fr:48223] MCW rank 17 bound to socket 0[core 1]: [. B . .][. . . .]
Sat Nov 19 23:04:29 2016<stderr>:[taurus-13.lyon.grid5000.fr:21195] MCW rank 64 bound to socket 0[core 0]: [B . . .][. . . .]
Sat Nov 19 23:04:29 2016<stderr>:[taurus-6.lyon.grid5000.fr:48223] MCW rank 18 bound to socket 0[core 2]: [. . B .][. . . .]
Sat Nov 19 23:04:29 2016<stderr>:[taurus-13.lyon.grid5000.fr:21195] MCW rank 65 bound to socket 0[core 1]: [. B . .][. . . .]
Sat Nov 19 23:04:29 2016<stderr>:[taurus-6.lyon.grid5000.fr:48223] MCW rank 19 bound to socket 0[core 3]: [. . . B][. . . .]
Sat Nov 19 23:04:29 2016<stderr>:[taurus-13.lyon.grid5000.fr:21195] MCW rank 66 bound to socket 0[core 2]: [. . B .][. . . .]
Sat Nov 19 23:04:29 2016<stderr>:[taurus-6.lyon.grid5000.fr:48223] MCW rank 20 bound to socket 1[core 0]: [. . . .][B . . .]
Sat Nov 19 23:04:29 2016<stderr>:[taurus-13.lyon.grid5000.fr:21195] MCW rank 67 bound to socket 0[core 3]: [. . . B][. . . .]
Sat Nov 19 23:04:29 2016<stderr>:[taurus-6.lyon.grid5000.fr:48223] MCW rank 21 bound to socket 1[core 1]: [. . . .][. B . .]
Sat Nov 19 23:04:29 2016<stderr>:[taurus-6.lyon.grid5000.fr:48223] MCW rank 22 bound to socket 1[core 2]: [. . . .][. . B .]
Sat Nov 19 23:04:29 2016<stderr>:[taurus-6.lyon.grid5000.fr:48223] MCW rank 23 bound to socket 1[core 3]: [. . . .][. . . B]
Sat Nov 19 23:04:29 2016<stderr>:[taurus-6.lyon.grid5000.fr:48223] MCW rank 16 bound to socket 0[core 0]: [B . . .][. . . .]
Sat Nov 19 23:04:29 2016<stderr>:[taurus-3.lyon.grid5000.fr:34796] MCW rank 44 bound to socket 1[core 0]: [. . . .][B . . .]
Sat Nov 19 23:04:29 2016<stderr>:[taurus-3.lyon.grid5000.fr:34796] MCW rank 45 bound to socket 1[core 1]: [. . . .][. B . .]
Sat Nov 19 23:04:29 2016<stderr>:[taurus-3.lyon.grid5000.fr:34796] MCW rank 46 bound to socket 1[core 2]: [. . . .][. . B .]
Sat Nov 19 23:04:29 2016<stderr>:[taurus-3.lyon.grid5000.fr:34796] MCW rank 47 bound to socket 1[core 3]: [. . . .][. . . B]
Sat Nov 19 23:04:29 2016<stderr>:[taurus-3.lyon.grid5000.fr:34796] MCW rank 40 bound to socket 0[core 0]: [B . . .][. . . .]
Sat Nov 19 23:04:29 2016<stderr>:[taurus-3.lyon.grid5000.fr:34796] MCW rank 41 bound to socket 0[core 1]: [. B . .][. . . .]
Sat Nov 19 23:04:29 2016<stderr>:[taurus-3.lyon.grid5000.fr:34796] MCW rank 42 bound to socket 0[core 2]: [. . B .][. . . .]
Sat Nov 19 23:04:29 2016<stderr>:[taurus-3.lyon.grid5000.fr:34796] MCW rank 43 bound to socket 0[core 3]: [. . . B][. . . .]
Sat Nov 19 23:04:29 2016<stderr>:[taurus-11.lyon.grid5000.fr:21126] MCW rank 76 bound to socket 1[core 0]: [. . . .][B . . .]
Sat Nov 19 23:04:29 2016<stderr>:[taurus-11.lyon.grid5000.fr:21126] MCW rank 77 bound to socket 1[core 1]: [. . . .][. B . .]
Sat Nov 19 23:04:29 2016<stderr>:[taurus-11.lyon.grid5000.fr:21126] MCW rank 78 bound to socket 1[core 2]: [. . . .][. . B .]
Sat Nov 19 23:04:29 2016<stderr>:[taurus-11.lyon.grid5000.fr:21126] MCW rank 79 bound to socket 1[core 3]: [. . . .][. . . B]
Sat Nov 19 23:04:29 2016<stderr>:[taurus-11.lyon.grid5000.fr:21126] MCW rank 72 bound to socket 0[core 0]: [B . . .][. . . .]
Sat Nov 19 23:04:29 2016<stderr>:[taurus-11.lyon.grid5000.fr:21126] MCW rank 73 bound to socket 0[core 1]: [. B . .][. . . .]
Sat Nov 19 23:04:29 2016<stderr>:[taurus-11.lyon.grid5000.fr:21126] MCW rank 74 bound to socket 0[core 2]: [. . B .][. . . .]
Sat Nov 19 23:04:29 2016<stderr>:[taurus-11.lyon.grid5000.fr:21126] MCW rank 75 bound to socket 0[core 3]: [. . . B][. . . .]
Sat Nov 19 23:04:29 2016<stderr>:[taurus-16.lyon.grid5000.fr:34660] MCW rank 52 bound to socket 1[core 0]: [. . . .][B . . .]
Sat Nov 19 23:04:29 2016<stderr>:[taurus-16.lyon.grid5000.fr:34660] MCW rank 53 bound to socket 1[core 1]: [. . . .][. B . .]
Sat Nov 19 23:04:29 2016<stderr>:[taurus-16.lyon.grid5000.fr:34660] MCW rank 54 bound to socket 1[core 2]: [. . . .][. . B .]
Sat Nov 19 23:04:29 2016<stderr>:[taurus-16.lyon.grid5000.fr:34660] MCW rank 55 bound to socket 1[core 3]: [. . . .][. . . B]
Sat Nov 19 23:04:29 2016<stderr>:[taurus-16.lyon.grid5000.fr:34660] MCW rank 48 bound to socket 0[core 0]: [B . . .][. . . .]
Sat Nov 19 23:04:29 2016<stderr>:[taurus-16.lyon.grid5000.fr:34660] MCW rank 49 bound to socket 0[core 1]: [. B . .][. . . .]
Sat Nov 19 23:04:29 2016<stderr>:[taurus-16.lyon.grid5000.fr:34660] MCW rank 50 bound to socket 0[core 2]: [. . B .][. . . .]
Sat Nov 19 23:04:29 2016<stderr>:[taurus-16.lyon.grid5000.fr:34660] MCW rank 51 bound to socket 0[core 3]: [. . . B][. . . .]
Sat Nov 19 23:04:29 2016<stderr>:[taurus-10.lyon.grid5000.fr:21076] MCW rank 84 bound to socket 1[core 0]: [. . . .][B . . .]
Sat Nov 19 23:04:29 2016<stderr>:[taurus-10.lyon.grid5000.fr:21076] MCW rank 85 bound to socket 1[core 1]: [. . . .][. B . .]
Sat Nov 19 23:04:29 2016<stderr>:[taurus-10.lyon.grid5000.fr:21076] MCW rank 86 bound to socket 1[core 2]: [. . . .][. . B .]
Sat Nov 19 23:04:29 2016<stderr>:[taurus-10.lyon.grid5000.fr:21076] MCW rank 87 bound to socket 1[core 3]: [. . . .][. . . B]
Sat Nov 19 23:04:29 2016<stderr>:[taurus-10.lyon.grid5000.fr:21076] MCW rank 80 bound to socket 0[core 0]: [B . . .][. . . .]
Sat Nov 19 23:04:29 2016<stderr>:[taurus-10.lyon.grid5000.fr:21076] MCW rank 81 bound to socket 0[core 1]: [. B . .][. . . .]
Sat Nov 19 23:04:29 2016<stderr>:[taurus-10.lyon.grid5000.fr:21076] MCW rank 82 bound to socket 0[core 2]: [. . B .][. . . .]
Sat Nov 19 23:04:29 2016<stderr>:[taurus-10.lyon.grid5000.fr:21076] MCW rank 83 bound to socket 0[core 3]: [. . . B][. . . .]
