[0.000000] [xbt_cfg/INFO] Configuration change: Set 'surf/precision' to '1e-9'
[0.000000] [xbt_cfg/INFO] Configuration change: Set 'network/model' to 'SMPI'
[0.000000] [xbt_cfg/INFO] Configuration change: Set 'network/TCP-gamma' to '4194304'
[0.000000] [xbt_cfg/INFO] Configuration change: Set 'tracing' to 'yes'
[0.000000] [xbt_cfg/INFO] Configuration change: Set 'tracing/filename' to '/tmp/tracing'
[0.000000] [xbt_cfg/INFO] Configuration change: Set 'tracing/smpi' to '1'
[0.000000] [xbt_cfg/INFO] Configuration change: Set 'tracing/smpi/computing' to 'yes'
[0.000000] [xbt_cfg/INFO] Configuration change: Set 'smpi/privatize-global-variables' to 'yes'
[0.000000] [xbt_cfg/INFO] Configuration change: Set 'plugin' to 'Energy'
[0.000000] [xbt_cfg/INFO] Configuration change: Set 'smpi/or' to '0:3.51809764924934e-06:3.01847204118237e-10;1420:8.16124874852713e-06:2.66840481979518e-10;33500:1.49347740713389e-05:1.97645004617501e-10;65536:5.88893263987424e-05:1.29160163208845e-09;320000:0:0'
[0.000000] [xbt_cfg/INFO] Configuration change: Set 'smpi/os' to '0:3.79946267082783e-06:1.09809596167633e-10;1420:4.06752467953734e-06:8.98782555257323e-11;33500:6.01204627458251e-06:7.10122202865045e-11;65536:7.28270630967833e-05:1.9683266729216e-10;320000:0:0'
[0.000000] [surf_parse/INFO] The custom configuration 'smpi/privatize-global-variables' is already defined by user!
[0.000000] [xbt_cfg/INFO] Configuration change: Set 'smpi/ois' to '0:3.65848336553355e-06:1.33280621516301e-10;1420:3.83673729379869e-06:7.84867337035856e-11;33500:5.57232433176236e-06:6.5668893954931e-11;65536:4.17803219267394e-06:2.37460347640595e-12;320000:4.70677307448713e-06:3.38065421824938e-13'
[0.000000] [xbt_cfg/INFO] Configuration change: Set 'smpi/display-timing' to 'yes'
[0.000000] [surf_parse/INFO] The custom configuration 'surf/precision' is already defined by user!
[0.000000] [xbt_cfg/INFO] Configuration change: Set 'smpi/iprobe' to '3.49479752916953e-07'
[0.000000] [xbt_cfg/INFO] Configuration change: Set 'smpi/wtime' to '4.195637e-08'
[0.000000] [xbt_cfg/INFO] Configuration change: Set 'smpi/lat-factor' to '0:1;1420:2.16408517748122;33500:1.76905573216394;65536:2.9114462429055;320000:2.5981998109037'
[0.000000] [xbt_cfg/INFO] Configuration change: Set 'smpi/send-is-detached-thresh' to '320000'
[0.000000] [xbt_cfg/INFO] Configuration change: Set 'smpi/init' to '0.1'
[0.000000] [xbt_cfg/INFO] Option smpi/running-power has been renamed to smpi/host-speed. Consider switching.
[0.000000] [xbt_cfg/INFO] Configuration change: Set 'smpi/running-power' to '20000'
[0.000000] [xbt_cfg/INFO] Option smpi/running-power has been renamed to smpi/host-speed. Consider switching.
[0.000000] [xbt_cfg/INFO] Configuration change: Set 'smpi/bw-factor' to '0:0.0489825651012801;1420:0.824385608826111;33500:0.600278012183156;65536:1;320000:0.536759617074721'
[0.000000] [xbt_cfg/INFO] Configuration change: Set 'tracing/precision' to '9'
[0.000000] [xbt_cfg/INFO] Configuration change: Set 'smpi/async-small-thresh' to '65536'
[0.000000] [xbt_cfg/INFO] Configuration change: Set 'smpi/test' to '2.46327639751553e-07'
[0.000000] /home/cheinrich/src/simgrid/src/surf/xml/surfxml_sax_cb.cpp:105: [surf_parse/WARNING] Deprecated unit-less value '20000' for speed of host taurus-1.lyon.grid5000.fr. Append 'f' or 'flops' to your speed to get flop per second
[0.000000] /home/cheinrich/src/simgrid/src/surf/xml/surfxml_sax_cb.cpp:105: [surf_parse/WARNING] Deprecated unit-less value '20000' for speed of host taurus-2.lyon.grid5000.fr. Append 'f' or 'flops' to your speed to get flop per second
[0.000000] /home/cheinrich/src/simgrid/src/surf/xml/surfxml_sax_cb.cpp:105: [surf_parse/WARNING] Deprecated unit-less value '20000' for speed of host taurus-3.lyon.grid5000.fr. Append 'f' or 'flops' to your speed to get flop per second
[0.000000] /home/cheinrich/src/simgrid/src/surf/xml/surfxml_sax_cb.cpp:105: [surf_parse/WARNING] Deprecated unit-less value '20000' for speed of host taurus-4.lyon.grid5000.fr. Append 'f' or 'flops' to your speed to get flop per second
[0.000000] /home/cheinrich/src/simgrid/src/surf/xml/surfxml_sax_cb.cpp:105: [surf_parse/WARNING] Deprecated unit-less value '20000' for speed of host taurus-5.lyon.grid5000.fr. Append 'f' or 'flops' to your speed to get flop per second
[0.000000] /home/cheinrich/src/simgrid/src/surf/xml/surfxml_sax_cb.cpp:105: [surf_parse/WARNING] Deprecated unit-less value '20000' for speed of host taurus-6.lyon.grid5000.fr. Append 'f' or 'flops' to your speed to get flop per second
[0.000000] /home/cheinrich/src/simgrid/src/surf/xml/surfxml_sax_cb.cpp:105: [surf_parse/WARNING] Deprecated unit-less value '20000' for speed of host taurus-7.lyon.grid5000.fr. Append 'f' or 'flops' to your speed to get flop per second
[0.000000] /home/cheinrich/src/simgrid/src/surf/xml/surfxml_sax_cb.cpp:105: [surf_parse/WARNING] Deprecated unit-less value '20000' for speed of host taurus-8.lyon.grid5000.fr. Append 'f' or 'flops' to your speed to get flop per second
[0.000000] /home/cheinrich/src/simgrid/src/surf/xml/surfxml_sax_cb.cpp:105: [surf_parse/WARNING] Deprecated unit-less value '20000' for speed of host taurus-9.lyon.grid5000.fr. Append 'f' or 'flops' to your speed to get flop per second
[0.000000] /home/cheinrich/src/simgrid/src/surf/xml/surfxml_sax_cb.cpp:105: [surf_parse/WARNING] Deprecated unit-less value '20000' for speed of host taurus-10.lyon.grid5000.fr. Append 'f' or 'flops' to your speed to get flop per second
[0.000000] /home/cheinrich/src/simgrid/src/surf/xml/surfxml_sax_cb.cpp:105: [surf_parse/WARNING] Deprecated unit-less value '20000' for speed of host taurus-11.lyon.grid5000.fr. Append 'f' or 'flops' to your speed to get flop per second
[0.000000] /home/cheinrich/src/simgrid/src/surf/xml/surfxml_sax_cb.cpp:105: [surf_parse/WARNING] Deprecated unit-less value '20000' for speed of host taurus-12.lyon.grid5000.fr. Append 'f' or 'flops' to your speed to get flop per second
[0.000000] /home/cheinrich/src/simgrid/src/surf/xml/surfxml_sax_cb.cpp:105: [surf_parse/WARNING] Deprecated unit-less value '20000' for speed of host taurus-13.lyon.grid5000.fr. Append 'f' or 'flops' to your speed to get flop per second
[0.000000] /home/cheinrich/src/simgrid/src/surf/xml/surfxml_sax_cb.cpp:105: [surf_parse/WARNING] Deprecated unit-less value '20000' for speed of host taurus-14.lyon.grid5000.fr. Append 'f' or 'flops' to your speed to get flop per second
[0.000000] /home/cheinrich/src/simgrid/src/surf/xml/surfxml_sax_cb.cpp:105: [surf_parse/WARNING] Deprecated unit-less value '20000' for speed of host taurus-15.lyon.grid5000.fr. Append 'f' or 'flops' to your speed to get flop per second
[0.000000] /home/cheinrich/src/simgrid/src/surf/xml/surfxml_sax_cb.cpp:105: [surf_parse/WARNING] Deprecated unit-less value '20000' for speed of host taurus-16.lyon.grid5000.fr. Append 'f' or 'flops' to your speed to get flop per second
================================================================================
HPLinpack 2.2  --  High-Performance Linpack benchmark  --   February 24, 2016
Written by A. Petitet and R. Clint Whaley,  Innovative Computing Laboratory, UTK
Modified by Piotr Luszczek, Innovative Computing Laboratory, UTK
Modified by Julien Langou, University of Colorado Denver
================================================================================

An explanation of the input/output parameters follows:
T/V    : Wall time / encoded variant.
N      : The order of the coefficient matrix A.
NB     : The partitioning blocking factor.
P      : The number of process rows.
Q      : The number of process columns.
Time   : Time in seconds to solve the linear system.
Gflops : Rate of execution for solving the linear system.

The following parameter values will be used:

N      :   20000 
NB     :     120 
PMAP   : Row-major process mapping
P      :      12 
Q      :       8 
PFACT  :    Left    Crout    Right 
NBMIN  :       2        4 
NDIV   :       2 
RFACT  :    Left    Crout    Right 
BCAST  :   1ring 
DEPTH  :       0 
SWAP   : Mix (threshold = 64)
L1     : transposed form
U      : transposed form
EQUIL  : yes
ALIGN  : 8 double precision words

--------------------------------------------------------------------------------

- The matrix A is randomly generated for each test.
- The following scaled residual check will be computed:
      ||Ax-b||_oo / ( eps * ( || x ||_oo * || A ||_oo + || b ||_oo ) * N )
- The relative machine precision (eps) is taken to be               1.110223e-16
- Computational tests pass if scaled residuals are less than                16.0

================================================================================
T/V                N    NB     P     Q               Time                 Gflops
--------------------------------------------------------------------------------
WR00L2L2       20000   120    12     8              19.59              2.723e+02
HPL_pdgesv() start time Wed Jan 18 03:53:08 2017

HPL_pdgesv() end time   Wed Jan 18 04:09:28 2017

--------------------------------------------------------------------------------
||Ax-b||_oo/(eps*(||A||_oo*||x||_oo+||b||_oo)*N)= 1826861880.9281399 ...... FAILED
||Ax-b||_oo  . . . . . . . . . . . . . . . . . =         318.733805
||A||_oo . . . . . . . . . . . . . . . . . . . =        5077.970709
||A||_1  . . . . . . . . . . . . . . . . . . . =        5073.290150
||x||_oo . . . . . . . . . . . . . . . . . . . =          15.473524
||x||_1  . . . . . . . . . . . . . . . . . . . =       61502.859694
||b||_oo . . . . . . . . . . . . . . . . . . . =           0.499989
[20.053859] [smpi_kernel/INFO] Simulated time: 20.0539 seconds. 

The simulation took 1013.68 seconds (after parsing and platform setup)
797.004 seconds were actual computation of the application
[20.053859] [smpi_kernel/INFO] More than 75% of the time was spent inside the application code.
You may want to use sampling functions or trace replay to reduce this.
[20.053859] [surf_energy/INFO] Total energy of host taurus-10.lyon.grid5000.fr: 2306.193735 Joules
[20.053859] [surf_energy/INFO] Total energy of host taurus-14.lyon.grid5000.fr: 2306.193735 Joules
[20.053859] [surf_energy/INFO] Total energy of host taurus-2.lyon.grid5000.fr: 1900.103099 Joules
[20.053859] [surf_energy/INFO] Total energy of host taurus-6.lyon.grid5000.fr: 3070.417660 Joules
[20.053859] [surf_energy/INFO] Total energy of host taurus-11.lyon.grid5000.fr: 2306.193735 Joules
[20.053859] [surf_energy/INFO] Total energy of host taurus-15.lyon.grid5000.fr: 2306.193735 Joules
[20.053859] [surf_energy/INFO] Total energy of host taurus-3.lyon.grid5000.fr: 3112.951430 Joules
[20.053859] [surf_energy/INFO] Total energy of host taurus-7.lyon.grid5000.fr: 3132.227150 Joules
[20.053859] [surf_energy/INFO] Total energy of host taurus-12.lyon.grid5000.fr: 3277.076184 Joules
[20.053859] [surf_energy/INFO] Total energy of host taurus-16.lyon.grid5000.fr: 3184.712706 Joules
[20.053859] [surf_energy/INFO] Total energy of host taurus-4.lyon.grid5000.fr: 3118.644125 Joules
[20.053859] [surf_energy/INFO] Total energy of host taurus-8.lyon.grid5000.fr: 3059.176234 Joules
[20.053859] [surf_energy/INFO] Total energy of host taurus-13.lyon.grid5000.fr: 2306.193735 Joules
[20.053859] [surf_energy/INFO] Total energy of host taurus-1.lyon.grid5000.fr: 2306.193735 Joules
[20.053859] [surf_energy/INFO] Total energy of host taurus-5.lyon.grid5000.fr: 3087.228126 Joules
[20.053859] [surf_energy/INFO] Total energy of host taurus-9.lyon.grid5000.fr: 2306.193735 Joules
