--------------------------------------------------------------------------
A deprecated MCA parameter value was specified in the environment or
on the command line.  Deprecated MCA parameters should be avoided;
they may disappear in future releases.

  Deprecated parameter: plm_rsh_agent
--------------------------------------------------------------------------
--------------------------------------------------------------------------
A deprecated MCA parameter value was specified in the environment or
on the command line.  Deprecated MCA parameters should be avoided;
they may disappear in future releases.

  Deprecated parameter: plm_rsh_agent
--------------------------------------------------------------------------
--------------------------------------------------------------------------
A deprecated MCA parameter value was specified in the environment or
on the command line.  Deprecated MCA parameters should be avoided;
they may disappear in future releases.

  Deprecated parameter: plm_rsh_agent
--------------------------------------------------------------------------
--------------------------------------------------------------------------
A deprecated MCA parameter value was specified in the environment or
on the command line.  Deprecated MCA parameters should be avoided;
they may disappear in future releases.

  Deprecated parameter: plm_rsh_agent
--------------------------------------------------------------------------
--------------------------------------------------------------------------
A deprecated MCA parameter value was specified in the environment or
on the command line.  Deprecated MCA parameters should be avoided;
they may disappear in future releases.

  Deprecated parameter: plm_rsh_agent
--------------------------------------------------------------------------
Sat Oct 15 00:14:28 2016<stddiag>:--------------------------------------------------------------------------
Sat Oct 15 00:14:28 2016<stddiag>:A deprecated MCA parameter value was specified in the environment or
Sat Oct 15 00:14:28 2016<stddiag>:on the command line.  Deprecated MCA parameters should be avoided;
Sat Oct 15 00:14:28 2016<stddiag>:they may disappear in future releases.
Sat Oct 15 00:14:28 2016<stddiag>:
Sat Oct 15 00:14:28 2016<stddiag>:  Deprecated parameter: plm_rsh_agent
Sat Oct 15 00:14:28 2016<stddiag>:--------------------------------------------------------------------------
Sat Oct 15 00:14:28 2016<stddiag>:--------------------------------------------------------------------------
Sat Oct 15 00:14:28 2016<stddiag>:A deprecated MCA parameter value was specified in the environment or
Sat Oct 15 00:14:28 2016<stddiag>:on the command line.  Deprecated MCA parameters should be avoided;
Sat Oct 15 00:14:28 2016<stddiag>:they may disappear in future releases.
Sat Oct 15 00:14:28 2016<stddiag>:
Sat Oct 15 00:14:28 2016<stddiag>:  Deprecated parameter: plm_rsh_agent
Sat Oct 15 00:14:28 2016<stddiag>:--------------------------------------------------------------------------
Sat Oct 15 00:14:28 2016<stddiag>:--------------------------------------------------------------------------
Sat Oct 15 00:14:28 2016<stddiag>:A deprecated MCA parameter value was specified in the environment or
Sat Oct 15 00:14:28 2016<stddiag>:on the command line.  Deprecated MCA parameters should be avoided;
Sat Oct 15 00:14:28 2016<stddiag>:they may disappear in future releases.
Sat Oct 15 00:14:28 2016<stddiag>:
Sat Oct 15 00:14:28 2016<stddiag>:  Deprecated parameter: plm_rsh_agent
Sat Oct 15 00:14:28 2016<stddiag>:--------------------------------------------------------------------------
Sat Oct 15 00:14:28 2016<stddiag>:--------------------------------------------------------------------------
Sat Oct 15 00:14:28 2016<stddiag>:A deprecated MCA parameter value was specified in the environment or
Sat Oct 15 00:14:28 2016<stddiag>:on the command line.  Deprecated MCA parameters should be avoided;
Sat Oct 15 00:14:28 2016<stddiag>:they may disappear in future releases.
Sat Oct 15 00:14:28 2016<stddiag>:
Sat Oct 15 00:14:28 2016<stddiag>:  Deprecated parameter: plm_rsh_agent
Sat Oct 15 00:14:28 2016<stddiag>:--------------------------------------------------------------------------
Sat Oct 15 00:14:28 2016<stddiag>:--------------------------------------------------------------------------
Sat Oct 15 00:14:28 2016<stddiag>:A deprecated MCA parameter value was specified in the environment or
Sat Oct 15 00:14:28 2016<stddiag>:on the command line.  Deprecated MCA parameters should be avoided;
Sat Oct 15 00:14:28 2016<stddiag>:they may disappear in future releases.
Sat Oct 15 00:14:28 2016<stddiag>:
Sat Oct 15 00:14:28 2016<stddiag>:  Deprecated parameter: plm_rsh_agent
Sat Oct 15 00:14:28 2016<stddiag>:--------------------------------------------------------------------------
Sat Oct 15 00:14:28 2016<stddiag>:--------------------------------------------------------------------------
Sat Oct 15 00:14:28 2016<stddiag>:A deprecated MCA parameter value was specified in the environment or
Sat Oct 15 00:14:28 2016<stddiag>:on the command line.  Deprecated MCA parameters should be avoided;
Sat Oct 15 00:14:28 2016<stddiag>:they may disappear in future releases.
Sat Oct 15 00:14:28 2016<stddiag>:
Sat Oct 15 00:14:28 2016<stddiag>:  Deprecated parameter: plm_rsh_agent
Sat Oct 15 00:14:28 2016<stddiag>:--------------------------------------------------------------------------
Sat Oct 15 00:14:28 2016<stddiag>:--------------------------------------------------------------------------
Sat Oct 15 00:14:28 2016<stddiag>:A deprecated MCA parameter value was specified in the environment or
Sat Oct 15 00:14:28 2016<stddiag>:on the command line.  Deprecated MCA parameters should be avoided;
Sat Oct 15 00:14:28 2016<stddiag>:they may disappear in future releases.
Sat Oct 15 00:14:28 2016<stddiag>:
Sat Oct 15 00:14:28 2016<stddiag>:  Deprecated parameter: plm_rsh_agent
Sat Oct 15 00:14:28 2016<stddiag>:--------------------------------------------------------------------------
Sat Oct 15 00:14:28 2016<stddiag>:--------------------------------------------------------------------------
Sat Oct 15 00:14:28 2016<stddiag>:A deprecated MCA parameter value was specified in the environment or
Sat Oct 15 00:14:28 2016<stddiag>:on the command line.  Deprecated MCA parameters should be avoided;
Sat Oct 15 00:14:28 2016<stddiag>:they may disappear in future releases.
Sat Oct 15 00:14:28 2016<stddiag>:
Sat Oct 15 00:14:28 2016<stddiag>:  Deprecated parameter: plm_rsh_agent
Sat Oct 15 00:14:28 2016<stddiag>:--------------------------------------------------------------------------
Sat Oct 15 00:14:28 2016<stddiag>:--------------------------------------------------------------------------
Sat Oct 15 00:14:28 2016<stddiag>:A deprecated MCA parameter value was specified in the environment or
Sat Oct 15 00:14:28 2016<stddiag>:on the command line.  Deprecated MCA parameters should be avoided;
Sat Oct 15 00:14:28 2016<stddiag>:they may disappear in future releases.
Sat Oct 15 00:14:28 2016<stddiag>:
Sat Oct 15 00:14:28 2016<stddiag>:  Deprecated parameter: plm_rsh_agent
Sat Oct 15 00:14:28 2016<stddiag>:--------------------------------------------------------------------------
Sat Oct 15 00:14:28 2016<stddiag>:--------------------------------------------------------------------------
Sat Oct 15 00:14:28 2016<stddiag>:A deprecated MCA parameter value was specified in the environment or
Sat Oct 15 00:14:28 2016<stddiag>:on the command line.  Deprecated MCA parameters should be avoided;
Sat Oct 15 00:14:28 2016<stddiag>:they may disappear in future releases.
Sat Oct 15 00:14:28 2016<stddiag>:
Sat Oct 15 00:14:28 2016<stddiag>:  Deprecated parameter: plm_rsh_agent
Sat Oct 15 00:14:28 2016<stddiag>:--------------------------------------------------------------------------
Sat Oct 15 00:14:28 2016<stddiag>:--------------------------------------------------------------------------
Sat Oct 15 00:14:28 2016<stddiag>:A deprecated MCA parameter value was specified in the environment or
Sat Oct 15 00:14:28 2016<stddiag>:on the command line.  Deprecated MCA parameters should be avoided;
Sat Oct 15 00:14:28 2016<stddiag>:they may disappear in future releases.
Sat Oct 15 00:14:28 2016<stddiag>:
Sat Oct 15 00:14:28 2016<stddiag>:  Deprecated parameter: plm_rsh_agent
Sat Oct 15 00:14:28 2016<stddiag>:--------------------------------------------------------------------------
Sat Oct 15 00:14:28 2016<stddiag>:--------------------------------------------------------------------------
Sat Oct 15 00:14:28 2016<stddiag>:A deprecated MCA parameter value was specified in the environment or
Sat Oct 15 00:14:28 2016<stddiag>:on the command line.  Deprecated MCA parameters should be avoided;
Sat Oct 15 00:14:28 2016<stddiag>:they may disappear in future releases.
Sat Oct 15 00:14:28 2016<stddiag>:
Sat Oct 15 00:14:28 2016<stddiag>:  Deprecated parameter: plm_rsh_agent
Sat Oct 15 00:14:28 2016<stddiag>:--------------------------------------------------------------------------
Sat Oct 15 00:14:28 2016<stddiag>:--------------------------------------------------------------------------
Sat Oct 15 00:14:28 2016<stddiag>:A deprecated MCA parameter value was specified in the environment or
Sat Oct 15 00:14:28 2016<stddiag>:on the command line.  Deprecated MCA parameters should be avoided;
Sat Oct 15 00:14:28 2016<stddiag>:they may disappear in future releases.
Sat Oct 15 00:14:28 2016<stddiag>:
Sat Oct 15 00:14:28 2016<stddiag>:  Deprecated parameter: plm_rsh_agent
Sat Oct 15 00:14:28 2016<stddiag>:--------------------------------------------------------------------------
Sat Oct 15 00:14:28 2016<stddiag>:--------------------------------------------------------------------------
Sat Oct 15 00:14:28 2016<stddiag>:A deprecated MCA parameter value was specified in the environment or
Sat Oct 15 00:14:28 2016<stddiag>:on the command line.  Deprecated MCA parameters should be avoided;
Sat Oct 15 00:14:28 2016<stddiag>:they may disappear in future releases.
Sat Oct 15 00:14:28 2016<stddiag>:
Sat Oct 15 00:14:28 2016<stddiag>:  Deprecated parameter: plm_rsh_agent
Sat Oct 15 00:14:28 2016<stddiag>:--------------------------------------------------------------------------
Sat Oct 15 00:14:28 2016<stddiag>:--------------------------------------------------------------------------
Sat Oct 15 00:14:28 2016<stddiag>:A deprecated MCA parameter value was specified in the environment or
Sat Oct 15 00:14:28 2016<stddiag>:on the command line.  Deprecated MCA parameters should be avoided;
Sat Oct 15 00:14:28 2016<stddiag>:they may disappear in future releases.
Sat Oct 15 00:14:28 2016<stddiag>:
Sat Oct 15 00:14:28 2016<stddiag>:  Deprecated parameter: plm_rsh_agent
Sat Oct 15 00:14:28 2016<stddiag>:--------------------------------------------------------------------------
Sat Oct 15 00:14:28 2016<stddiag>:--------------------------------------------------------------------------
Sat Oct 15 00:14:28 2016<stddiag>:A deprecated MCA parameter value was specified in the environment or
Sat Oct 15 00:14:28 2016<stddiag>:on the command line.  Deprecated MCA parameters should be avoided;
Sat Oct 15 00:14:28 2016<stddiag>:they may disappear in future releases.
Sat Oct 15 00:14:28 2016<stddiag>:
Sat Oct 15 00:14:28 2016<stddiag>:  Deprecated parameter: plm_rsh_agent
Sat Oct 15 00:14:28 2016<stddiag>:--------------------------------------------------------------------------
