Mon Nov 28 02:20:07 2016<stdout>:
Mon Nov 28 02:20:07 2016<stdout>: NAS Parallel Benchmarks 3.3 -- EP Benchmark
Mon Nov 28 02:20:07 2016<stdout>:
Mon Nov 28 02:20:07 2016<stdout>: Number of random numbers generated:      8589934592
Mon Nov 28 02:20:07 2016<stdout>: Number of active processes:                      12
Mon Nov 28 02:20:07 2016<stdout>:
Mon Nov 28 02:21:10 2016<stdout>:EP Benchmark Results:
Mon Nov 28 02:21:10 2016<stdout>:
Mon Nov 28 02:21:10 2016<stdout>:CPU Time =   62.4328
Mon Nov 28 02:21:10 2016<stdout>:N = 2^   32
Mon Nov 28 02:21:10 2016<stdout>:No. Gaussian Pairs =    3373275903.
Mon Nov 28 02:21:10 2016<stdout>:Sums =     4.764367927993350D+04   -8.084072988045315D+04
Mon Nov 28 02:21:10 2016<stdout>:Counts:
Mon Nov 28 02:21:10 2016<stdout>:  0    1572172634.
Mon Nov 28 02:21:10 2016<stdout>:  1    1501108549.
Mon Nov 28 02:21:10 2016<stdout>:  2     281805648.
Mon Nov 28 02:21:10 2016<stdout>:  3      17761221.
Mon Nov 28 02:21:10 2016<stdout>:  4        424017.
Mon Nov 28 02:21:10 2016<stdout>:  5          3821.
Mon Nov 28 02:21:10 2016<stdout>:  6            13.
Mon Nov 28 02:21:10 2016<stdout>:  7             0.
Mon Nov 28 02:21:10 2016<stdout>:  8             0.
Mon Nov 28 02:21:10 2016<stdout>:  9             0.
Mon Nov 28 02:21:10 2016<stdout>:
Mon Nov 28 02:21:10 2016<stdout>:
Mon Nov 28 02:21:10 2016<stdout>: EP Benchmark Completed.
Mon Nov 28 02:21:10 2016<stdout>: Class           =                        C
Mon Nov 28 02:21:10 2016<stdout>: Size            =               8589934592
Mon Nov 28 02:21:10 2016<stdout>: Iterations      =                        0
Mon Nov 28 02:21:10 2016<stdout>: Time in seconds =                    62.43
Mon Nov 28 02:21:10 2016<stdout>: Total processes =                       12
Mon Nov 28 02:21:10 2016<stdout>: Compiled procs  =                       12
Mon Nov 28 02:21:10 2016<stdout>: Mop/s total     =                   137.59
Mon Nov 28 02:21:10 2016<stdout>: Mop/s/process   =                    11.47
Mon Nov 28 02:21:10 2016<stdout>: Operation type  = Random numbers generated
Mon Nov 28 02:21:10 2016<stdout>: Verification    =               SUCCESSFUL
Mon Nov 28 02:21:10 2016<stdout>: Version         =                    3.3.1
Mon Nov 28 02:21:10 2016<stdout>: Compile date    =              21 Nov 2016
Mon Nov 28 02:21:10 2016<stdout>:
Mon Nov 28 02:21:10 2016<stdout>: Compile options:
Mon Nov 28 02:21:10 2016<stdout>:    MPIF77       = mpif77
Mon Nov 28 02:21:10 2016<stdout>:    FLINK        = $(MPIF77)
Mon Nov 28 02:21:10 2016<stdout>:    FMPI_LIB     = -L/usr/lib -lmpi -lmpif77
Mon Nov 28 02:21:10 2016<stdout>:    FMPI_INC     = -I/usr/include
Mon Nov 28 02:21:10 2016<stdout>:    FFLAGS       = -O2 -fsecond-underscore
Mon Nov 28 02:21:10 2016<stdout>:    FLINKFLAGS   = -O2
Mon Nov 28 02:21:10 2016<stdout>:    RAND         = randi8
Mon Nov 28 02:21:10 2016<stdout>:
Mon Nov 28 02:21:10 2016<stdout>:
Mon Nov 28 02:21:10 2016<stdout>: Please send feedbacks and/or the results of this run to:
Mon Nov 28 02:21:10 2016<stdout>:
Mon Nov 28 02:21:10 2016<stdout>: NPB Development Team 
Mon Nov 28 02:21:10 2016<stdout>: Internet: npb@nas.nasa.gov
Mon Nov 28 02:21:10 2016<stdout>:
Mon Nov 28 02:21:10 2016<stdout>:
