Tue Nov 22 22:31:01 2016<stderr>:[taurus-3.lyon.grid5000.fr:09719] MCW rank 1 bound to socket 0[core 1]: [. B . . . .][. . . . . .]
Tue Nov 22 22:31:01 2016<stderr>:[taurus-3.lyon.grid5000.fr:09719] MCW rank 2 bound to socket 0[core 2]: [. . B . . .][. . . . . .]
Tue Nov 22 22:31:01 2016<stderr>:[taurus-3.lyon.grid5000.fr:09719] MCW rank 3 bound to socket 0[core 3]: [. . . B . .][. . . . . .]
Tue Nov 22 22:31:01 2016<stderr>:[taurus-3.lyon.grid5000.fr:09719] MCW rank 4 bound to socket 0[core 4]: [. . . . B .][. . . . . .]
Tue Nov 22 22:31:01 2016<stderr>:[taurus-3.lyon.grid5000.fr:09719] MCW rank 5 bound to socket 0[core 5]: [. . . . . B][. . . . . .]
Tue Nov 22 22:31:01 2016<stderr>:[taurus-3.lyon.grid5000.fr:09719] MCW rank 6 bound to socket 1[core 0]: [. . . . . .][B . . . . .]
Tue Nov 22 22:31:01 2016<stderr>:[taurus-3.lyon.grid5000.fr:09719] MCW rank 7 bound to socket 1[core 1]: [. . . . . .][. B . . . .]
Tue Nov 22 22:31:01 2016<stderr>:[taurus-3.lyon.grid5000.fr:09719] MCW rank 8 bound to socket 1[core 2]: [. . . . . .][. . B . . .]
Tue Nov 22 22:31:01 2016<stderr>:[taurus-3.lyon.grid5000.fr:09719] MCW rank 9 bound to socket 1[core 3]: [. . . . . .][. . . B . .]
Tue Nov 22 22:31:01 2016<stderr>:[taurus-3.lyon.grid5000.fr:09719] MCW rank 10 bound to socket 1[core 4]: [. . . . . .][. . . . B .]
Tue Nov 22 22:31:01 2016<stderr>:[taurus-3.lyon.grid5000.fr:09719] MCW rank 11 bound to socket 1[core 5]: [. . . . . .][. . . . . B]
Tue Nov 22 22:31:01 2016<stderr>:[taurus-3.lyon.grid5000.fr:09719] MCW rank 0 bound to socket 0[core 0]: [B . . . . .][. . . . . .]
