Fri Oct 14 20:16:53 2016<stdout>:
Fri Oct 14 20:16:53 2016<stdout>:
Fri Oct 14 20:16:53 2016<stdout>: NAS Parallel Benchmarks 3.3 -- LU Benchmark
Fri Oct 14 20:16:53 2016<stdout>:
Fri Oct 14 20:16:53 2016<stdout>: Size:  162x 162x 162
Fri Oct 14 20:16:53 2016<stdout>: Iterations:  250
Fri Oct 14 20:16:53 2016<stdout>: Number of processes:   144
Fri Oct 14 20:16:53 2016<stdout>:
Fri Oct 14 20:16:53 2016<stdout>: Proc_grid for nprocs =   144:   12 x   12
Fri Oct 14 20:16:53 2016<stdout>: Time step    1
Fri Oct 14 20:16:54 2016<stdout>: Time step   20
Fri Oct 14 20:16:55 2016<stdout>: Time step   40
Fri Oct 14 20:16:57 2016<stdout>: Time step   60
Fri Oct 14 20:16:58 2016<stdout>: Time step   80
Fri Oct 14 20:16:59 2016<stdout>: Time step  100
Fri Oct 14 20:17:00 2016<stdout>: Time step  120
Fri Oct 14 20:17:01 2016<stdout>: Time step  140
Fri Oct 14 20:17:02 2016<stdout>: Time step  160
Fri Oct 14 20:17:04 2016<stdout>: Time step  180
Fri Oct 14 20:17:05 2016<stdout>: Time step  200
Fri Oct 14 20:17:06 2016<stdout>: Time step  220
Fri Oct 14 20:17:07 2016<stdout>: Time step  240
Fri Oct 14 20:17:08 2016<stdout>: Time step  250
Fri Oct 14 20:17:08 2016<stdout>:
Fri Oct 14 20:17:08 2016<stdout>: Verification being performed for class C
Fri Oct 14 20:17:08 2016<stdout>: Accuracy setting for epsilon =  0.1000000000000E-07
Fri Oct 14 20:17:08 2016<stdout>: Comparison of RMS-norms of residual
Fri Oct 14 20:17:08 2016<stdout>:           1   0.1037669803235E+05 0.1037669803235E+05 0.1752955899723E-15
Fri Oct 14 20:17:08 2016<stdout>:           2   0.8922124588010E+03 0.8922124588010E+03 0.1019370098233E-14
Fri Oct 14 20:17:08 2016<stdout>:           3   0.2562388145827E+04 0.2562388145827E+04 0.7098805099097E-15
Fri Oct 14 20:17:08 2016<stdout>:           4   0.2191943438578E+04 0.2191943438578E+04 0.2074630863566E-15
Fri Oct 14 20:17:08 2016<stdout>:           5   0.1780780572611E+05 0.1780780572611E+05 0.1021456226288E-14
Fri Oct 14 20:17:08 2016<stdout>: Comparison of RMS-norms of solution error
Fri Oct 14 20:17:08 2016<stdout>:           1   0.2159863997169E+03 0.2159863997169E+03 0.3947708207690E-15
Fri Oct 14 20:17:08 2016<stdout>:           2   0.1557895592399E+02 0.1557895592399E+02 0.1368274111360E-14
Fri Oct 14 20:17:08 2016<stdout>:           3   0.5413188630772E+02 0.5413188630772E+02 0.1575136839062E-14
Fri Oct 14 20:17:08 2016<stdout>:           4   0.4822626431540E+02 0.4822626431540E+02 0.7366761098404E-15
Fri Oct 14 20:17:08 2016<stdout>:           5   0.4559029100433E+03 0.4559029100433E+03 0.1870247511320E-14
Fri Oct 14 20:17:08 2016<stdout>: Comparison of surface integral
Fri Oct 14 20:17:08 2016<stdout>:               0.6664045535722E+02 0.6664045535722E+02 0.8529866513682E-15
Fri Oct 14 20:17:08 2016<stdout>: Verification Successful
Fri Oct 14 20:17:08 2016<stdout>:
Fri Oct 14 20:17:08 2016<stdout>:
Fri Oct 14 20:17:08 2016<stdout>: LU Benchmark Completed.
Fri Oct 14 20:17:08 2016<stdout>: Class           =                        C
Fri Oct 14 20:17:08 2016<stdout>: Size            =            162x 162x 162
Fri Oct 14 20:17:08 2016<stdout>: Iterations      =                      250
Fri Oct 14 20:17:08 2016<stdout>: Time in seconds =                    14.74
Fri Oct 14 20:17:08 2016<stdout>: Total processes =                      144
Fri Oct 14 20:17:08 2016<stdout>: Compiled procs  =                      144
Fri Oct 14 20:17:08 2016<stdout>: Mop/s total     =                138328.73
Fri Oct 14 20:17:08 2016<stdout>: Mop/s/process   =                   960.62
Fri Oct 14 20:17:08 2016<stdout>: Operation type  =           floating point
Fri Oct 14 20:17:08 2016<stdout>: Verification    =               SUCCESSFUL
Fri Oct 14 20:17:08 2016<stdout>: Version         =                    3.3.1
Fri Oct 14 20:17:08 2016<stdout>: Compile date    =              14 Oct 2016
Fri Oct 14 20:17:08 2016<stdout>:
Fri Oct 14 20:17:08 2016<stdout>: Compile options:
Fri Oct 14 20:17:08 2016<stdout>:    MPIF77       = mpif77
Fri Oct 14 20:17:08 2016<stdout>:    FLINK        = $(MPIF77)
Fri Oct 14 20:17:08 2016<stdout>:    FMPI_LIB     = -L/usr/lib -lmpi -lmpif77
Fri Oct 14 20:17:08 2016<stdout>:    FMPI_INC     = -I/usr/include
Fri Oct 14 20:17:08 2016<stdout>:    FFLAGS       = -O2 -fsecond-underscore
Fri Oct 14 20:17:08 2016<stdout>:    FLINKFLAGS   = -O2
Fri Oct 14 20:17:08 2016<stdout>:    RAND         = (none)
Fri Oct 14 20:17:08 2016<stdout>:
Fri Oct 14 20:17:08 2016<stdout>:
Fri Oct 14 20:17:08 2016<stdout>: Please send feedbacks and/or the results of this run to:
Fri Oct 14 20:17:08 2016<stdout>:
Fri Oct 14 20:17:08 2016<stdout>: NPB Development Team 
Fri Oct 14 20:17:08 2016<stdout>: Internet: npb@nas.nasa.gov
Fri Oct 14 20:17:08 2016<stdout>:
Fri Oct 14 20:17:08 2016<stdout>:
