--------------------------------------------------------------------------
A deprecated MCA parameter value was specified in the environment or
on the command line.  Deprecated MCA parameters should be avoided;
they may disappear in future releases.

  Deprecated parameter: plm_rsh_agent
--------------------------------------------------------------------------
--------------------------------------------------------------------------
A deprecated MCA parameter value was specified in the environment or
on the command line.  Deprecated MCA parameters should be avoided;
they may disappear in future releases.

  Deprecated parameter: plm_rsh_agent
--------------------------------------------------------------------------
--------------------------------------------------------------------------
A deprecated MCA parameter value was specified in the environment or
on the command line.  Deprecated MCA parameters should be avoided;
they may disappear in future releases.

  Deprecated parameter: plm_rsh_agent
--------------------------------------------------------------------------
--------------------------------------------------------------------------
A deprecated MCA parameter value was specified in the environment or
on the command line.  Deprecated MCA parameters should be avoided;
they may disappear in future releases.

  Deprecated parameter: plm_rsh_agent
--------------------------------------------------------------------------
--------------------------------------------------------------------------
A deprecated MCA parameter value was specified in the environment or
on the command line.  Deprecated MCA parameters should be avoided;
they may disappear in future releases.

  Deprecated parameter: plm_rsh_agent
--------------------------------------------------------------------------
Sat Nov 19 02:13:19 2016<stddiag>:--------------------------------------------------------------------------
Sat Nov 19 02:13:19 2016<stddiag>:A deprecated MCA parameter value was specified in the environment or
Sat Nov 19 02:13:19 2016<stddiag>:on the command line.  Deprecated MCA parameters should be avoided;
Sat Nov 19 02:13:19 2016<stddiag>:they may disappear in future releases.
Sat Nov 19 02:13:19 2016<stddiag>:
Sat Nov 19 02:13:19 2016<stddiag>:  Deprecated parameter: plm_rsh_agent
Sat Nov 19 02:13:19 2016<stddiag>:--------------------------------------------------------------------------
Sat Nov 19 02:13:19 2016<stddiag>:--------------------------------------------------------------------------
Sat Nov 19 02:13:19 2016<stddiag>:A deprecated MCA parameter value was specified in the environment or
Sat Nov 19 02:13:19 2016<stddiag>:on the command line.  Deprecated MCA parameters should be avoided;
Sat Nov 19 02:13:19 2016<stddiag>:they may disappear in future releases.
Sat Nov 19 02:13:19 2016<stddiag>:
Sat Nov 19 02:13:19 2016<stddiag>:  Deprecated parameter: plm_rsh_agent
Sat Nov 19 02:13:19 2016<stddiag>:--------------------------------------------------------------------------
Sat Nov 19 02:13:19 2016<stddiag>:--------------------------------------------------------------------------
Sat Nov 19 02:13:19 2016<stddiag>:A deprecated MCA parameter value was specified in the environment or
Sat Nov 19 02:13:19 2016<stddiag>:on the command line.  Deprecated MCA parameters should be avoided;
Sat Nov 19 02:13:19 2016<stddiag>:they may disappear in future releases.
Sat Nov 19 02:13:19 2016<stddiag>:
Sat Nov 19 02:13:19 2016<stddiag>:  Deprecated parameter: plm_rsh_agent
Sat Nov 19 02:13:19 2016<stddiag>:--------------------------------------------------------------------------
Sat Nov 19 02:13:19 2016<stddiag>:--------------------------------------------------------------------------
Sat Nov 19 02:13:19 2016<stddiag>:A deprecated MCA parameter value was specified in the environment or
Sat Nov 19 02:13:19 2016<stddiag>:on the command line.  Deprecated MCA parameters should be avoided;
Sat Nov 19 02:13:19 2016<stddiag>:they may disappear in future releases.
Sat Nov 19 02:13:19 2016<stddiag>:
Sat Nov 19 02:13:19 2016<stddiag>:  Deprecated parameter: plm_rsh_agent
Sat Nov 19 02:13:19 2016<stddiag>:--------------------------------------------------------------------------
Sat Nov 19 02:13:19 2016<stddiag>:--------------------------------------------------------------------------
Sat Nov 19 02:13:19 2016<stddiag>:A deprecated MCA parameter value was specified in the environment or
Sat Nov 19 02:13:19 2016<stddiag>:on the command line.  Deprecated MCA parameters should be avoided;
Sat Nov 19 02:13:19 2016<stddiag>:they may disappear in future releases.
Sat Nov 19 02:13:19 2016<stddiag>:
Sat Nov 19 02:13:19 2016<stddiag>:  Deprecated parameter: plm_rsh_agent
Sat Nov 19 02:13:19 2016<stddiag>:--------------------------------------------------------------------------
Sat Nov 19 02:13:19 2016<stddiag>:--------------------------------------------------------------------------
Sat Nov 19 02:13:19 2016<stddiag>:A deprecated MCA parameter value was specified in the environment or
Sat Nov 19 02:13:19 2016<stddiag>:on the command line.  Deprecated MCA parameters should be avoided;
Sat Nov 19 02:13:19 2016<stddiag>:they may disappear in future releases.
Sat Nov 19 02:13:19 2016<stddiag>:
Sat Nov 19 02:13:19 2016<stddiag>:  Deprecated parameter: plm_rsh_agent
Sat Nov 19 02:13:19 2016<stddiag>:--------------------------------------------------------------------------
Sat Nov 19 02:13:19 2016<stddiag>:--------------------------------------------------------------------------
Sat Nov 19 02:13:19 2016<stddiag>:A deprecated MCA parameter value was specified in the environment or
Sat Nov 19 02:13:19 2016<stddiag>:on the command line.  Deprecated MCA parameters should be avoided;
Sat Nov 19 02:13:19 2016<stddiag>:they may disappear in future releases.
Sat Nov 19 02:13:19 2016<stddiag>:
Sat Nov 19 02:13:19 2016<stddiag>:  Deprecated parameter: plm_rsh_agent
Sat Nov 19 02:13:19 2016<stddiag>:--------------------------------------------------------------------------
Sat Nov 19 02:13:19 2016<stddiag>:--------------------------------------------------------------------------
Sat Nov 19 02:13:19 2016<stddiag>:A deprecated MCA parameter value was specified in the environment or
Sat Nov 19 02:13:19 2016<stddiag>:on the command line.  Deprecated MCA parameters should be avoided;
Sat Nov 19 02:13:19 2016<stddiag>:they may disappear in future releases.
Sat Nov 19 02:13:19 2016<stddiag>:
Sat Nov 19 02:13:19 2016<stddiag>:  Deprecated parameter: plm_rsh_agent
Sat Nov 19 02:13:19 2016<stddiag>:--------------------------------------------------------------------------
Sat Nov 19 02:13:19 2016<stddiag>:--------------------------------------------------------------------------
Sat Nov 19 02:13:19 2016<stddiag>:A deprecated MCA parameter value was specified in the environment or
Sat Nov 19 02:13:19 2016<stddiag>:on the command line.  Deprecated MCA parameters should be avoided;
Sat Nov 19 02:13:19 2016<stddiag>:they may disappear in future releases.
Sat Nov 19 02:13:19 2016<stddiag>:
Sat Nov 19 02:13:19 2016<stddiag>:  Deprecated parameter: plm_rsh_agent
Sat Nov 19 02:13:19 2016<stddiag>:--------------------------------------------------------------------------
Sat Nov 19 02:13:19 2016<stddiag>:--------------------------------------------------------------------------
Sat Nov 19 02:13:19 2016<stddiag>:A deprecated MCA parameter value was specified in the environment or
Sat Nov 19 02:13:19 2016<stddiag>:on the command line.  Deprecated MCA parameters should be avoided;
Sat Nov 19 02:13:19 2016<stddiag>:they may disappear in future releases.
Sat Nov 19 02:13:19 2016<stddiag>:
Sat Nov 19 02:13:19 2016<stddiag>:  Deprecated parameter: plm_rsh_agent
Sat Nov 19 02:13:19 2016<stddiag>:--------------------------------------------------------------------------
Sat Nov 19 02:13:19 2016<stddiag>:--------------------------------------------------------------------------
Sat Nov 19 02:13:19 2016<stddiag>:A deprecated MCA parameter value was specified in the environment or
Sat Nov 19 02:13:19 2016<stddiag>:on the command line.  Deprecated MCA parameters should be avoided;
Sat Nov 19 02:13:19 2016<stddiag>:they may disappear in future releases.
Sat Nov 19 02:13:19 2016<stddiag>:
Sat Nov 19 02:13:19 2016<stddiag>:  Deprecated parameter: plm_rsh_agent
Sat Nov 19 02:13:19 2016<stddiag>:--------------------------------------------------------------------------
Sat Nov 19 02:13:19 2016<stddiag>:--------------------------------------------------------------------------
Sat Nov 19 02:13:19 2016<stddiag>:A deprecated MCA parameter value was specified in the environment or
Sat Nov 19 02:13:19 2016<stddiag>:on the command line.  Deprecated MCA parameters should be avoided;
Sat Nov 19 02:13:19 2016<stddiag>:they may disappear in future releases.
Sat Nov 19 02:13:19 2016<stddiag>:
Sat Nov 19 02:13:19 2016<stddiag>:  Deprecated parameter: plm_rsh_agent
Sat Nov 19 02:13:19 2016<stddiag>:--------------------------------------------------------------------------
Sat Nov 19 02:13:19 2016<stddiag>:--------------------------------------------------------------------------
Sat Nov 19 02:13:19 2016<stddiag>:A deprecated MCA parameter value was specified in the environment or
Sat Nov 19 02:13:19 2016<stddiag>:on the command line.  Deprecated MCA parameters should be avoided;
Sat Nov 19 02:13:19 2016<stddiag>:they may disappear in future releases.
Sat Nov 19 02:13:19 2016<stddiag>:
Sat Nov 19 02:13:19 2016<stddiag>:  Deprecated parameter: plm_rsh_agent
Sat Nov 19 02:13:19 2016<stddiag>:--------------------------------------------------------------------------
Sat Nov 19 02:13:19 2016<stddiag>:--------------------------------------------------------------------------
Sat Nov 19 02:13:19 2016<stddiag>:A deprecated MCA parameter value was specified in the environment or
Sat Nov 19 02:13:19 2016<stddiag>:on the command line.  Deprecated MCA parameters should be avoided;
Sat Nov 19 02:13:19 2016<stddiag>:they may disappear in future releases.
Sat Nov 19 02:13:19 2016<stddiag>:
Sat Nov 19 02:13:19 2016<stddiag>:  Deprecated parameter: plm_rsh_agent
Sat Nov 19 02:13:19 2016<stddiag>:--------------------------------------------------------------------------
Sat Nov 19 02:13:19 2016<stddiag>:--------------------------------------------------------------------------
Sat Nov 19 02:13:19 2016<stddiag>:A deprecated MCA parameter value was specified in the environment or
Sat Nov 19 02:13:19 2016<stddiag>:on the command line.  Deprecated MCA parameters should be avoided;
Sat Nov 19 02:13:19 2016<stddiag>:they may disappear in future releases.
Sat Nov 19 02:13:19 2016<stddiag>:
Sat Nov 19 02:13:19 2016<stddiag>:  Deprecated parameter: plm_rsh_agent
Sat Nov 19 02:13:19 2016<stddiag>:--------------------------------------------------------------------------
Sat Nov 19 02:13:19 2016<stddiag>:--------------------------------------------------------------------------
Sat Nov 19 02:13:19 2016<stddiag>:A deprecated MCA parameter value was specified in the environment or
Sat Nov 19 02:13:19 2016<stddiag>:on the command line.  Deprecated MCA parameters should be avoided;
Sat Nov 19 02:13:19 2016<stddiag>:they may disappear in future releases.
Sat Nov 19 02:13:19 2016<stddiag>:
Sat Nov 19 02:13:19 2016<stddiag>:  Deprecated parameter: plm_rsh_agent
Sat Nov 19 02:13:19 2016<stddiag>:--------------------------------------------------------------------------
Sat Nov 19 02:13:19 2016<stddiag>:--------------------------------------------------------------------------
Sat Nov 19 02:13:19 2016<stddiag>:A deprecated MCA parameter value was specified in the environment or
Sat Nov 19 02:13:19 2016<stddiag>:on the command line.  Deprecated MCA parameters should be avoided;
Sat Nov 19 02:13:19 2016<stddiag>:they may disappear in future releases.
Sat Nov 19 02:13:19 2016<stddiag>:
Sat Nov 19 02:13:19 2016<stddiag>:  Deprecated parameter: plm_rsh_agent
Sat Nov 19 02:13:19 2016<stddiag>:--------------------------------------------------------------------------
Sat Nov 19 02:13:19 2016<stddiag>:--------------------------------------------------------------------------
Sat Nov 19 02:13:19 2016<stddiag>:A deprecated MCA parameter value was specified in the environment or
Sat Nov 19 02:13:19 2016<stddiag>:on the command line.  Deprecated MCA parameters should be avoided;
Sat Nov 19 02:13:19 2016<stddiag>:they may disappear in future releases.
Sat Nov 19 02:13:19 2016<stddiag>:
Sat Nov 19 02:13:19 2016<stddiag>:  Deprecated parameter: plm_rsh_agent
Sat Nov 19 02:13:19 2016<stddiag>:--------------------------------------------------------------------------
Sat Nov 19 02:13:19 2016<stddiag>:--------------------------------------------------------------------------
Sat Nov 19 02:13:19 2016<stddiag>:A deprecated MCA parameter value was specified in the environment or
Sat Nov 19 02:13:19 2016<stddiag>:on the command line.  Deprecated MCA parameters should be avoided;
Sat Nov 19 02:13:19 2016<stddiag>:they may disappear in future releases.
Sat Nov 19 02:13:19 2016<stddiag>:
Sat Nov 19 02:13:19 2016<stddiag>:  Deprecated parameter: plm_rsh_agent
Sat Nov 19 02:13:19 2016<stddiag>:--------------------------------------------------------------------------
Sat Nov 19 02:13:19 2016<stddiag>:--------------------------------------------------------------------------
Sat Nov 19 02:13:19 2016<stddiag>:A deprecated MCA parameter value was specified in the environment or
Sat Nov 19 02:13:19 2016<stddiag>:on the command line.  Deprecated MCA parameters should be avoided;
Sat Nov 19 02:13:19 2016<stddiag>:they may disappear in future releases.
Sat Nov 19 02:13:19 2016<stddiag>:
Sat Nov 19 02:13:19 2016<stddiag>:  Deprecated parameter: plm_rsh_agent
Sat Nov 19 02:13:19 2016<stddiag>:--------------------------------------------------------------------------
Sat Nov 19 02:13:19 2016<stddiag>:--------------------------------------------------------------------------
Sat Nov 19 02:13:19 2016<stddiag>:A deprecated MCA parameter value was specified in the environment or
Sat Nov 19 02:13:19 2016<stddiag>:on the command line.  Deprecated MCA parameters should be avoided;
Sat Nov 19 02:13:19 2016<stddiag>:they may disappear in future releases.
Sat Nov 19 02:13:19 2016<stddiag>:
Sat Nov 19 02:13:19 2016<stddiag>:  Deprecated parameter: plm_rsh_agent
Sat Nov 19 02:13:19 2016<stddiag>:--------------------------------------------------------------------------
Sat Nov 19 02:13:19 2016<stddiag>:--------------------------------------------------------------------------
Sat Nov 19 02:13:19 2016<stddiag>:A deprecated MCA parameter value was specified in the environment or
Sat Nov 19 02:13:19 2016<stddiag>:on the command line.  Deprecated MCA parameters should be avoided;
Sat Nov 19 02:13:19 2016<stddiag>:they may disappear in future releases.
Sat Nov 19 02:13:19 2016<stddiag>:
Sat Nov 19 02:13:19 2016<stddiag>:  Deprecated parameter: plm_rsh_agent
Sat Nov 19 02:13:19 2016<stddiag>:--------------------------------------------------------------------------
Sat Nov 19 02:13:19 2016<stddiag>:--------------------------------------------------------------------------
Sat Nov 19 02:13:19 2016<stddiag>:A deprecated MCA parameter value was specified in the environment or
Sat Nov 19 02:13:19 2016<stddiag>:on the command line.  Deprecated MCA parameters should be avoided;
Sat Nov 19 02:13:19 2016<stddiag>:they may disappear in future releases.
Sat Nov 19 02:13:19 2016<stddiag>:
Sat Nov 19 02:13:19 2016<stddiag>:  Deprecated parameter: plm_rsh_agent
Sat Nov 19 02:13:19 2016<stddiag>:--------------------------------------------------------------------------
Sat Nov 19 02:13:19 2016<stddiag>:--------------------------------------------------------------------------
Sat Nov 19 02:13:19 2016<stddiag>:A deprecated MCA parameter value was specified in the environment or
Sat Nov 19 02:13:19 2016<stddiag>:on the command line.  Deprecated MCA parameters should be avoided;
Sat Nov 19 02:13:19 2016<stddiag>:they may disappear in future releases.
Sat Nov 19 02:13:19 2016<stddiag>:
Sat Nov 19 02:13:19 2016<stddiag>:  Deprecated parameter: plm_rsh_agent
Sat Nov 19 02:13:19 2016<stddiag>:--------------------------------------------------------------------------
Sat Nov 19 02:13:19 2016<stddiag>:--------------------------------------------------------------------------
Sat Nov 19 02:13:19 2016<stddiag>:A deprecated MCA parameter value was specified in the environment or
Sat Nov 19 02:13:19 2016<stddiag>:on the command line.  Deprecated MCA parameters should be avoided;
Sat Nov 19 02:13:19 2016<stddiag>:they may disappear in future releases.
Sat Nov 19 02:13:19 2016<stddiag>:
Sat Nov 19 02:13:19 2016<stddiag>:  Deprecated parameter: plm_rsh_agent
Sat Nov 19 02:13:19 2016<stddiag>:--------------------------------------------------------------------------
Sat Nov 19 02:13:19 2016<stddiag>:--------------------------------------------------------------------------
Sat Nov 19 02:13:19 2016<stddiag>:A deprecated MCA parameter value was specified in the environment or
Sat Nov 19 02:13:19 2016<stddiag>:on the command line.  Deprecated MCA parameters should be avoided;
Sat Nov 19 02:13:19 2016<stddiag>:they may disappear in future releases.
Sat Nov 19 02:13:19 2016<stddiag>:
Sat Nov 19 02:13:19 2016<stddiag>:  Deprecated parameter: plm_rsh_agent
Sat Nov 19 02:13:19 2016<stddiag>:--------------------------------------------------------------------------
Sat Nov 19 02:13:19 2016<stddiag>:--------------------------------------------------------------------------
Sat Nov 19 02:13:19 2016<stddiag>:A deprecated MCA parameter value was specified in the environment or
Sat Nov 19 02:13:19 2016<stddiag>:on the command line.  Deprecated MCA parameters should be avoided;
Sat Nov 19 02:13:19 2016<stddiag>:they may disappear in future releases.
Sat Nov 19 02:13:19 2016<stddiag>:
Sat Nov 19 02:13:19 2016<stddiag>:  Deprecated parameter: plm_rsh_agent
Sat Nov 19 02:13:19 2016<stddiag>:--------------------------------------------------------------------------
Sat Nov 19 02:13:19 2016<stddiag>:--------------------------------------------------------------------------
Sat Nov 19 02:13:19 2016<stddiag>:A deprecated MCA parameter value was specified in the environment or
Sat Nov 19 02:13:19 2016<stddiag>:on the command line.  Deprecated MCA parameters should be avoided;
Sat Nov 19 02:13:19 2016<stddiag>:they may disappear in future releases.
Sat Nov 19 02:13:19 2016<stddiag>:
Sat Nov 19 02:13:19 2016<stddiag>:  Deprecated parameter: plm_rsh_agent
Sat Nov 19 02:13:19 2016<stddiag>:--------------------------------------------------------------------------
Sat Nov 19 02:13:19 2016<stddiag>:--------------------------------------------------------------------------
Sat Nov 19 02:13:19 2016<stddiag>:A deprecated MCA parameter value was specified in the environment or
Sat Nov 19 02:13:19 2016<stddiag>:on the command line.  Deprecated MCA parameters should be avoided;
Sat Nov 19 02:13:19 2016<stddiag>:they may disappear in future releases.
Sat Nov 19 02:13:19 2016<stddiag>:
Sat Nov 19 02:13:19 2016<stddiag>:  Deprecated parameter: plm_rsh_agent
Sat Nov 19 02:13:19 2016<stddiag>:--------------------------------------------------------------------------
Sat Nov 19 02:13:19 2016<stddiag>:--------------------------------------------------------------------------
Sat Nov 19 02:13:19 2016<stddiag>:A deprecated MCA parameter value was specified in the environment or
Sat Nov 19 02:13:19 2016<stddiag>:on the command line.  Deprecated MCA parameters should be avoided;
Sat Nov 19 02:13:19 2016<stddiag>:they may disappear in future releases.
Sat Nov 19 02:13:19 2016<stddiag>:
Sat Nov 19 02:13:19 2016<stddiag>:  Deprecated parameter: plm_rsh_agent
Sat Nov 19 02:13:19 2016<stddiag>:--------------------------------------------------------------------------
Sat Nov 19 02:13:19 2016<stddiag>:--------------------------------------------------------------------------
Sat Nov 19 02:13:19 2016<stddiag>:A deprecated MCA parameter value was specified in the environment or
Sat Nov 19 02:13:19 2016<stddiag>:on the command line.  Deprecated MCA parameters should be avoided;
Sat Nov 19 02:13:19 2016<stddiag>:they may disappear in future releases.
Sat Nov 19 02:13:19 2016<stddiag>:
Sat Nov 19 02:13:19 2016<stddiag>:  Deprecated parameter: plm_rsh_agent
Sat Nov 19 02:13:19 2016<stddiag>:--------------------------------------------------------------------------
Sat Nov 19 02:13:19 2016<stddiag>:--------------------------------------------------------------------------
Sat Nov 19 02:13:19 2016<stddiag>:A deprecated MCA parameter value was specified in the environment or
Sat Nov 19 02:13:19 2016<stddiag>:on the command line.  Deprecated MCA parameters should be avoided;
Sat Nov 19 02:13:19 2016<stddiag>:they may disappear in future releases.
Sat Nov 19 02:13:19 2016<stddiag>:
Sat Nov 19 02:13:19 2016<stddiag>:  Deprecated parameter: plm_rsh_agent
Sat Nov 19 02:13:19 2016<stddiag>:--------------------------------------------------------------------------
Sat Nov 19 02:13:19 2016<stddiag>:--------------------------------------------------------------------------
Sat Nov 19 02:13:19 2016<stddiag>:A deprecated MCA parameter value was specified in the environment or
Sat Nov 19 02:13:19 2016<stddiag>:on the command line.  Deprecated MCA parameters should be avoided;
Sat Nov 19 02:13:19 2016<stddiag>:they may disappear in future releases.
Sat Nov 19 02:13:19 2016<stddiag>:
Sat Nov 19 02:13:19 2016<stddiag>:  Deprecated parameter: plm_rsh_agent
Sat Nov 19 02:13:19 2016<stddiag>:--------------------------------------------------------------------------
Sat Nov 19 02:13:19 2016<stddiag>:--------------------------------------------------------------------------
Sat Nov 19 02:13:19 2016<stddiag>:A deprecated MCA parameter value was specified in the environment or
Sat Nov 19 02:13:19 2016<stddiag>:on the command line.  Deprecated MCA parameters should be avoided;
Sat Nov 19 02:13:19 2016<stddiag>:they may disappear in future releases.
Sat Nov 19 02:13:19 2016<stddiag>:
Sat Nov 19 02:13:19 2016<stddiag>:  Deprecated parameter: plm_rsh_agent
Sat Nov 19 02:13:19 2016<stddiag>:--------------------------------------------------------------------------
Sat Nov 19 02:13:19 2016<stddiag>:--------------------------------------------------------------------------
Sat Nov 19 02:13:19 2016<stddiag>:A deprecated MCA parameter value was specified in the environment or
Sat Nov 19 02:13:19 2016<stddiag>:on the command line.  Deprecated MCA parameters should be avoided;
Sat Nov 19 02:13:19 2016<stddiag>:they may disappear in future releases.
Sat Nov 19 02:13:19 2016<stddiag>:
Sat Nov 19 02:13:19 2016<stddiag>:  Deprecated parameter: plm_rsh_agent
Sat Nov 19 02:13:19 2016<stddiag>:--------------------------------------------------------------------------
Sat Nov 19 02:13:19 2016<stddiag>:--------------------------------------------------------------------------
Sat Nov 19 02:13:19 2016<stddiag>:A deprecated MCA parameter value was specified in the environment or
Sat Nov 19 02:13:19 2016<stddiag>:on the command line.  Deprecated MCA parameters should be avoided;
Sat Nov 19 02:13:19 2016<stddiag>:they may disappear in future releases.
Sat Nov 19 02:13:19 2016<stddiag>:
Sat Nov 19 02:13:19 2016<stddiag>:  Deprecated parameter: plm_rsh_agent
Sat Nov 19 02:13:19 2016<stddiag>:--------------------------------------------------------------------------
Sat Nov 19 02:13:19 2016<stddiag>:--------------------------------------------------------------------------
Sat Nov 19 02:13:19 2016<stddiag>:A deprecated MCA parameter value was specified in the environment or
Sat Nov 19 02:13:19 2016<stddiag>:on the command line.  Deprecated MCA parameters should be avoided;
Sat Nov 19 02:13:19 2016<stddiag>:they may disappear in future releases.
Sat Nov 19 02:13:19 2016<stddiag>:
Sat Nov 19 02:13:19 2016<stddiag>:  Deprecated parameter: plm_rsh_agent
Sat Nov 19 02:13:19 2016<stddiag>:--------------------------------------------------------------------------
Sat Nov 19 02:13:19 2016<stddiag>:--------------------------------------------------------------------------
Sat Nov 19 02:13:19 2016<stddiag>:A deprecated MCA parameter value was specified in the environment or
Sat Nov 19 02:13:19 2016<stddiag>:on the command line.  Deprecated MCA parameters should be avoided;
Sat Nov 19 02:13:19 2016<stddiag>:they may disappear in future releases.
Sat Nov 19 02:13:19 2016<stddiag>:
Sat Nov 19 02:13:19 2016<stddiag>:  Deprecated parameter: plm_rsh_agent
Sat Nov 19 02:13:19 2016<stddiag>:--------------------------------------------------------------------------
Sat Nov 19 02:13:19 2016<stddiag>:--------------------------------------------------------------------------
Sat Nov 19 02:13:19 2016<stddiag>:A deprecated MCA parameter value was specified in the environment or
Sat Nov 19 02:13:19 2016<stddiag>:on the command line.  Deprecated MCA parameters should be avoided;
Sat Nov 19 02:13:19 2016<stddiag>:they may disappear in future releases.
Sat Nov 19 02:13:19 2016<stddiag>:
Sat Nov 19 02:13:19 2016<stddiag>:  Deprecated parameter: plm_rsh_agent
Sat Nov 19 02:13:19 2016<stddiag>:--------------------------------------------------------------------------
Sat Nov 19 02:13:19 2016<stddiag>:--------------------------------------------------------------------------
Sat Nov 19 02:13:19 2016<stddiag>:A deprecated MCA parameter value was specified in the environment or
Sat Nov 19 02:13:19 2016<stddiag>:on the command line.  Deprecated MCA parameters should be avoided;
Sat Nov 19 02:13:19 2016<stddiag>:they may disappear in future releases.
Sat Nov 19 02:13:19 2016<stddiag>:
Sat Nov 19 02:13:19 2016<stddiag>:  Deprecated parameter: plm_rsh_agent
Sat Nov 19 02:13:19 2016<stddiag>:--------------------------------------------------------------------------
Sat Nov 19 02:13:19 2016<stddiag>:--------------------------------------------------------------------------
Sat Nov 19 02:13:19 2016<stddiag>:A deprecated MCA parameter value was specified in the environment or
Sat Nov 19 02:13:19 2016<stddiag>:on the command line.  Deprecated MCA parameters should be avoided;
Sat Nov 19 02:13:19 2016<stddiag>:they may disappear in future releases.
Sat Nov 19 02:13:19 2016<stddiag>:
Sat Nov 19 02:13:19 2016<stddiag>:  Deprecated parameter: plm_rsh_agent
Sat Nov 19 02:13:19 2016<stddiag>:--------------------------------------------------------------------------
Sat Nov 19 02:13:19 2016<stddiag>:--------------------------------------------------------------------------
Sat Nov 19 02:13:19 2016<stddiag>:A deprecated MCA parameter value was specified in the environment or
Sat Nov 19 02:13:19 2016<stddiag>:on the command line.  Deprecated MCA parameters should be avoided;
Sat Nov 19 02:13:19 2016<stddiag>:they may disappear in future releases.
Sat Nov 19 02:13:19 2016<stddiag>:
Sat Nov 19 02:13:19 2016<stddiag>:  Deprecated parameter: plm_rsh_agent
Sat Nov 19 02:13:19 2016<stddiag>:--------------------------------------------------------------------------
Sat Nov 19 02:13:19 2016<stddiag>:--------------------------------------------------------------------------
Sat Nov 19 02:13:19 2016<stddiag>:A deprecated MCA parameter value was specified in the environment or
Sat Nov 19 02:13:19 2016<stddiag>:on the command line.  Deprecated MCA parameters should be avoided;
Sat Nov 19 02:13:19 2016<stddiag>:they may disappear in future releases.
Sat Nov 19 02:13:19 2016<stddiag>:
Sat Nov 19 02:13:19 2016<stddiag>:  Deprecated parameter: plm_rsh_agent
Sat Nov 19 02:13:19 2016<stddiag>:--------------------------------------------------------------------------
Sat Nov 19 02:13:19 2016<stddiag>:--------------------------------------------------------------------------
Sat Nov 19 02:13:19 2016<stddiag>:A deprecated MCA parameter value was specified in the environment or
Sat Nov 19 02:13:19 2016<stddiag>:on the command line.  Deprecated MCA parameters should be avoided;
Sat Nov 19 02:13:19 2016<stddiag>:they may disappear in future releases.
Sat Nov 19 02:13:19 2016<stddiag>:
Sat Nov 19 02:13:19 2016<stddiag>:  Deprecated parameter: plm_rsh_agent
Sat Nov 19 02:13:19 2016<stddiag>:--------------------------------------------------------------------------
Sat Nov 19 02:13:19 2016<stddiag>:--------------------------------------------------------------------------
Sat Nov 19 02:13:19 2016<stddiag>:A deprecated MCA parameter value was specified in the environment or
Sat Nov 19 02:13:19 2016<stddiag>:on the command line.  Deprecated MCA parameters should be avoided;
Sat Nov 19 02:13:19 2016<stddiag>:they may disappear in future releases.
Sat Nov 19 02:13:19 2016<stddiag>:
Sat Nov 19 02:13:19 2016<stddiag>:  Deprecated parameter: plm_rsh_agent
Sat Nov 19 02:13:19 2016<stddiag>:--------------------------------------------------------------------------
Sat Nov 19 02:13:19 2016<stddiag>:--------------------------------------------------------------------------
Sat Nov 19 02:13:19 2016<stddiag>:A deprecated MCA parameter value was specified in the environment or
Sat Nov 19 02:13:19 2016<stddiag>:on the command line.  Deprecated MCA parameters should be avoided;
Sat Nov 19 02:13:19 2016<stddiag>:they may disappear in future releases.
Sat Nov 19 02:13:19 2016<stddiag>:
Sat Nov 19 02:13:19 2016<stddiag>:  Deprecated parameter: plm_rsh_agent
Sat Nov 19 02:13:19 2016<stddiag>:--------------------------------------------------------------------------
Sat Nov 19 02:13:19 2016<stddiag>:--------------------------------------------------------------------------
Sat Nov 19 02:13:19 2016<stddiag>:A deprecated MCA parameter value was specified in the environment or
Sat Nov 19 02:13:19 2016<stddiag>:on the command line.  Deprecated MCA parameters should be avoided;
Sat Nov 19 02:13:19 2016<stddiag>:they may disappear in future releases.
Sat Nov 19 02:13:19 2016<stddiag>:
Sat Nov 19 02:13:19 2016<stddiag>:  Deprecated parameter: plm_rsh_agent
Sat Nov 19 02:13:19 2016<stddiag>:--------------------------------------------------------------------------
Sat Nov 19 02:13:19 2016<stddiag>:--------------------------------------------------------------------------
Sat Nov 19 02:13:19 2016<stddiag>:A deprecated MCA parameter value was specified in the environment or
Sat Nov 19 02:13:19 2016<stddiag>:on the command line.  Deprecated MCA parameters should be avoided;
Sat Nov 19 02:13:19 2016<stddiag>:they may disappear in future releases.
Sat Nov 19 02:13:19 2016<stddiag>:
Sat Nov 19 02:13:19 2016<stddiag>:  Deprecated parameter: plm_rsh_agent
Sat Nov 19 02:13:19 2016<stddiag>:--------------------------------------------------------------------------
