Sat Nov 19 02:25:43 2016<stdout>:
Sat Nov 19 02:25:43 2016<stdout>:
Sat Nov 19 02:25:43 2016<stdout>: NAS Parallel Benchmarks 3.3 -- LU Benchmark
Sat Nov 19 02:25:43 2016<stdout>:
Sat Nov 19 02:25:43 2016<stdout>: Size:  162x 162x 162
Sat Nov 19 02:25:43 2016<stdout>: Iterations:  250
Sat Nov 19 02:25:43 2016<stdout>: Number of processes:    12
Sat Nov 19 02:25:43 2016<stdout>:
Sat Nov 19 02:25:43 2016<stdout>: Proc_grid for nprocs =    12:    4 x    3
Sat Nov 19 02:25:45 2016<stdout>: Time step    1
Sat Nov 19 02:25:56 2016<stdout>: Time step   20
Sat Nov 19 02:26:08 2016<stdout>: Time step   40
Sat Nov 19 02:26:20 2016<stdout>: Time step   60
Sat Nov 19 02:26:32 2016<stdout>: Time step   80
Sat Nov 19 02:26:44 2016<stdout>: Time step  100
Sat Nov 19 02:26:56 2016<stdout>: Time step  120
Sat Nov 19 02:27:07 2016<stdout>: Time step  140
Sat Nov 19 02:27:19 2016<stdout>: Time step  160
Sat Nov 19 02:27:31 2016<stdout>: Time step  180
Sat Nov 19 02:27:43 2016<stdout>: Time step  200
Sat Nov 19 02:27:55 2016<stdout>: Time step  220
Sat Nov 19 02:28:07 2016<stdout>: Time step  240
Sat Nov 19 02:28:13 2016<stdout>: Time step  250
Sat Nov 19 02:28:13 2016<stdout>:
Sat Nov 19 02:28:13 2016<stdout>: Verification being performed for class C
Sat Nov 19 02:28:13 2016<stdout>: Accuracy setting for epsilon =  0.1000000000000E-07
Sat Nov 19 02:28:13 2016<stdout>: Comparison of RMS-norms of residual
Sat Nov 19 02:28:13 2016<stdout>:           1   0.1037669803235E+05 0.1037669803235E+05 0.1752955899723E-15
Sat Nov 19 02:28:13 2016<stdout>:           2   0.8922124588010E+03 0.8922124588010E+03 0.4204901655212E-14
Sat Nov 19 02:28:13 2016<stdout>:           3   0.2562388145827E+04 0.2562388145827E+04 0.1064820764864E-14
Sat Nov 19 02:28:13 2016<stdout>:           4   0.2191943438578E+04 0.2191943438578E+04 0.1659704690852E-14
Sat Nov 19 02:28:13 2016<stdout>:           5   0.1780780572611E+05 0.1780780572611E+05 0.1634329962061E-14
Sat Nov 19 02:28:13 2016<stdout>: Comparison of RMS-norms of solution error
Sat Nov 19 02:28:13 2016<stdout>:           1   0.2159863997169E+03 0.2159863997169E+03 0.1315902735897E-14
Sat Nov 19 02:28:13 2016<stdout>:           2   0.1557895592399E+02 0.1557895592399E+02 0.2622525380106E-14
Sat Nov 19 02:28:13 2016<stdout>:           3   0.5413188630772E+02 0.5413188630772E+02 0.1181352629297E-14
Sat Nov 19 02:28:13 2016<stdout>:           4   0.4822626431540E+02 0.4822626431540E+02 0.1768022663617E-14
Sat Nov 19 02:28:13 2016<stdout>:           5   0.4559029100433E+03 0.4559029100433E+03 0.2119613846163E-14
Sat Nov 19 02:28:13 2016<stdout>: Comparison of surface integral
Sat Nov 19 02:28:13 2016<stdout>:               0.6664045535722E+02 0.6664045535722E+02 0.6397399885262E-15
Sat Nov 19 02:28:13 2016<stdout>: Verification Successful
Sat Nov 19 02:28:13 2016<stdout>:
Sat Nov 19 02:28:13 2016<stdout>:
Sat Nov 19 02:28:13 2016<stdout>: LU Benchmark Completed.
Sat Nov 19 02:28:13 2016<stdout>: Class           =                        C
Sat Nov 19 02:28:13 2016<stdout>: Size            =            162x 162x 162
Sat Nov 19 02:28:13 2016<stdout>: Iterations      =                      250
Sat Nov 19 02:28:13 2016<stdout>: Time in seconds =                   148.52
Sat Nov 19 02:28:13 2016<stdout>: Total processes =                       12
Sat Nov 19 02:28:13 2016<stdout>: Compiled procs  =                       12
Sat Nov 19 02:28:13 2016<stdout>: Mop/s total     =                 13728.42
Sat Nov 19 02:28:13 2016<stdout>: Mop/s/process   =                  1144.04
Sat Nov 19 02:28:13 2016<stdout>: Operation type  =           floating point
Sat Nov 19 02:28:13 2016<stdout>: Verification    =               SUCCESSFUL
Sat Nov 19 02:28:13 2016<stdout>: Version         =                    3.3.1
Sat Nov 19 02:28:13 2016<stdout>: Compile date    =              19 Nov 2016
Sat Nov 19 02:28:13 2016<stdout>:
Sat Nov 19 02:28:13 2016<stdout>: Compile options:
Sat Nov 19 02:28:13 2016<stdout>:    MPIF77       = mpif77
Sat Nov 19 02:28:13 2016<stdout>:    FLINK        = $(MPIF77)
Sat Nov 19 02:28:13 2016<stdout>:    FMPI_LIB     = -L/usr/lib -lmpi -lmpif77
Sat Nov 19 02:28:13 2016<stdout>:    FMPI_INC     = -I/usr/include
Sat Nov 19 02:28:13 2016<stdout>:    FFLAGS       = -O2 -fsecond-underscore
Sat Nov 19 02:28:13 2016<stdout>:    FLINKFLAGS   = -O2
Sat Nov 19 02:28:13 2016<stdout>:    RAND         = (none)
Sat Nov 19 02:28:13 2016<stdout>:
Sat Nov 19 02:28:13 2016<stdout>:
Sat Nov 19 02:28:13 2016<stdout>: Please send feedbacks and/or the results of this run to:
Sat Nov 19 02:28:13 2016<stdout>:
Sat Nov 19 02:28:13 2016<stdout>: NPB Development Team 
Sat Nov 19 02:28:13 2016<stdout>: Internet: npb@nas.nasa.gov
Sat Nov 19 02:28:13 2016<stdout>:
Sat Nov 19 02:28:13 2016<stdout>:
