Sun Nov 20 00:09:29 2016<stderr>:[taurus-1.lyon.grid5000.fr:48716] MCW rank 44 bound to socket 0[core 0]: [B .][. .]
Sun Nov 20 00:09:29 2016<stderr>:[taurus-1.lyon.grid5000.fr:48716] MCW rank 45 bound to socket 0[core 1]: [. B][. .]
Sun Nov 20 00:09:29 2016<stderr>:[taurus-1.lyon.grid5000.fr:48716] MCW rank 46 bound to socket 1[core 0]: [. .][B .]
Sun Nov 20 00:09:29 2016<stderr>:[taurus-1.lyon.grid5000.fr:48716] MCW rank 47 bound to socket 1[core 1]: [. .][. B]
Sun Nov 20 00:09:29 2016<stderr>:[taurus-5.lyon.grid5000.fr:02052] MCW rank 12 bound to socket 0[core 0]: [B .][. .]
Sun Nov 20 00:09:29 2016<stderr>:[taurus-5.lyon.grid5000.fr:02052] MCW rank 13 bound to socket 0[core 1]: [. B][. .]
Sun Nov 20 00:09:29 2016<stderr>:[taurus-8.lyon.grid5000.fr:17813] MCW rank 2 bound to socket 1[core 0]: [. .][B .]
Sun Nov 20 00:09:29 2016<stderr>:[taurus-5.lyon.grid5000.fr:02052] MCW rank 14 bound to socket 1[core 0]: [. .][B .]
Sun Nov 20 00:09:29 2016<stderr>:[taurus-8.lyon.grid5000.fr:17813] MCW rank 3 bound to socket 1[core 1]: [. .][. B]
Sun Nov 20 00:09:29 2016<stderr>:[taurus-5.lyon.grid5000.fr:02052] MCW rank 15 bound to socket 1[core 1]: [. .][. B]
Sun Nov 20 00:09:29 2016<stderr>:[taurus-8.lyon.grid5000.fr:17813] MCW rank 0 bound to socket 0[core 0]: [B .][. .]
Sun Nov 20 00:09:29 2016<stderr>:[taurus-8.lyon.grid5000.fr:17813] MCW rank 1 bound to socket 0[core 1]: [. B][. .]
Sun Nov 20 00:09:29 2016<stderr>:[taurus-7.lyon.grid5000.fr:40766] MCW rank 5 bound to socket 0[core 1]: [. B][. .]
Sun Nov 20 00:09:29 2016<stderr>:[taurus-7.lyon.grid5000.fr:40766] MCW rank 6 bound to socket 1[core 0]: [. .][B .]
Sun Nov 20 00:09:29 2016<stderr>:[taurus-7.lyon.grid5000.fr:40766] MCW rank 7 bound to socket 1[core 1]: [. .][. B]
Sun Nov 20 00:09:29 2016<stderr>:[taurus-7.lyon.grid5000.fr:40766] MCW rank 4 bound to socket 0[core 0]: [B .][. .]
Sun Nov 20 00:09:29 2016<stderr>:[taurus-14.lyon.grid5000.fr:36384] MCW rank 28 bound to socket 0[core 0]: [B .][. .]
Sun Nov 20 00:09:29 2016<stderr>:[taurus-14.lyon.grid5000.fr:36384] MCW rank 29 bound to socket 0[core 1]: [. B][. .]
Sun Nov 20 00:09:29 2016<stderr>:[taurus-14.lyon.grid5000.fr:36384] MCW rank 30 bound to socket 1[core 0]: [. .][B .]
Sun Nov 20 00:09:29 2016<stderr>:[taurus-14.lyon.grid5000.fr:36384] MCW rank 31 bound to socket 1[core 1]: [. .][. B]
Sun Nov 20 00:09:29 2016<stderr>:[taurus-6.lyon.grid5000.fr:01982] MCW rank 8 bound to socket 0[core 0]: [B .][. .]
Sun Nov 20 00:09:29 2016<stderr>:[taurus-6.lyon.grid5000.fr:01982] MCW rank 9 bound to socket 0[core 1]: [. B][. .]
Sun Nov 20 00:09:29 2016<stderr>:[taurus-6.lyon.grid5000.fr:01982] MCW rank 10 bound to socket 1[core 0]: [. .][B .]
Sun Nov 20 00:09:29 2016<stderr>:[taurus-13.lyon.grid5000.fr:22121] MCW rank 34 bound to socket 1[core 0]: [. .][B .]
Sun Nov 20 00:09:29 2016<stderr>:[taurus-4.lyon.grid5000.fr:36545] MCW rank 18 bound to socket 1[core 0]: [. .][B .]
Sun Nov 20 00:09:29 2016<stderr>:[taurus-13.lyon.grid5000.fr:22121] MCW rank 35 bound to socket 1[core 1]: [. .][. B]
Sun Nov 20 00:09:29 2016<stderr>:[taurus-4.lyon.grid5000.fr:36545] MCW rank 19 bound to socket 1[core 1]: [. .][. B]
Sun Nov 20 00:09:29 2016<stderr>:[taurus-6.lyon.grid5000.fr:01982] MCW rank 11 bound to socket 1[core 1]: [. .][. B]
Sun Nov 20 00:09:29 2016<stderr>:[taurus-4.lyon.grid5000.fr:36545] MCW rank 16 bound to socket 0[core 0]: [B .][. .]
Sun Nov 20 00:09:29 2016<stderr>:[taurus-13.lyon.grid5000.fr:22121] MCW rank 32 bound to socket 0[core 0]: [B .][. .]
Sun Nov 20 00:09:29 2016<stderr>:[taurus-4.lyon.grid5000.fr:36545] MCW rank 17 bound to socket 0[core 1]: [. B][. .]
Sun Nov 20 00:09:29 2016<stderr>:[taurus-13.lyon.grid5000.fr:22121] MCW rank 33 bound to socket 0[core 1]: [. B][. .]
Sun Nov 20 00:09:29 2016<stderr>:[taurus-3.lyon.grid5000.fr:36545] MCW rank 22 bound to socket 1[core 0]: [. .][B .]
Sun Nov 20 00:09:29 2016<stderr>:[taurus-3.lyon.grid5000.fr:36545] MCW rank 23 bound to socket 1[core 1]: [. .][. B]
Sun Nov 20 00:09:29 2016<stderr>:[taurus-3.lyon.grid5000.fr:36545] MCW rank 20 bound to socket 0[core 0]: [B .][. .]
Sun Nov 20 00:09:29 2016<stderr>:[taurus-3.lyon.grid5000.fr:36545] MCW rank 21 bound to socket 0[core 1]: [. B][. .]
Sun Nov 20 00:09:29 2016<stderr>:[taurus-11.lyon.grid5000.fr:22058] MCW rank 38 bound to socket 1[core 0]: [. .][B .]
Sun Nov 20 00:09:29 2016<stderr>:[taurus-11.lyon.grid5000.fr:22058] MCW rank 39 bound to socket 1[core 1]: [. .][. B]
Sun Nov 20 00:09:29 2016<stderr>:[taurus-11.lyon.grid5000.fr:22058] MCW rank 36 bound to socket 0[core 0]: [B .][. .]
Sun Nov 20 00:09:29 2016<stderr>:[taurus-11.lyon.grid5000.fr:22058] MCW rank 37 bound to socket 0[core 1]: [. B][. .]
Sun Nov 20 00:09:29 2016<stderr>:[taurus-10.lyon.grid5000.fr:21995] MCW rank 42 bound to socket 1[core 0]: [. .][B .]
Sun Nov 20 00:09:29 2016<stderr>:[taurus-10.lyon.grid5000.fr:21995] MCW rank 43 bound to socket 1[core 1]: [. .][. B]
Sun Nov 20 00:09:29 2016<stderr>:[taurus-10.lyon.grid5000.fr:21995] MCW rank 40 bound to socket 0[core 0]: [B .][. .]
Sun Nov 20 00:09:29 2016<stderr>:[taurus-10.lyon.grid5000.fr:21995] MCW rank 41 bound to socket 0[core 1]: [. B][. .]
Sun Nov 20 00:09:29 2016<stderr>:[taurus-16.lyon.grid5000.fr:36414] MCW rank 26 bound to socket 1[core 0]: [. .][B .]
Sun Nov 20 00:09:29 2016<stderr>:[taurus-16.lyon.grid5000.fr:36414] MCW rank 27 bound to socket 1[core 1]: [. .][. B]
Sun Nov 20 00:09:29 2016<stderr>:[taurus-16.lyon.grid5000.fr:36414] MCW rank 24 bound to socket 0[core 0]: [B .][. .]
Sun Nov 20 00:09:29 2016<stderr>:[taurus-16.lyon.grid5000.fr:36414] MCW rank 25 bound to socket 0[core 1]: [. B][. .]
