Sun Oct  2 00:52:05 2016<stdout>:
Sun Oct  2 00:52:05 2016<stdout>:
Sun Oct  2 00:52:05 2016<stdout>: NAS Parallel Benchmarks 3.3 -- LU Benchmark
Sun Oct  2 00:52:05 2016<stdout>:
Sun Oct  2 00:52:05 2016<stdout>: Size:  162x 162x 162
Sun Oct  2 00:52:05 2016<stdout>: Iterations:  250
Sun Oct  2 00:52:05 2016<stdout>: Number of processes:   144
Sun Oct  2 00:52:05 2016<stdout>:
Sun Oct  2 00:52:05 2016<stdout>: Proc_grid for nprocs =   144:   12 x   12
Sun Oct  2 00:52:05 2016<stdout>: Time step    1
Sun Oct  2 00:52:07 2016<stdout>: Time step   20
Sun Oct  2 00:52:09 2016<stdout>: Time step   40
Sun Oct  2 00:52:11 2016<stdout>: Time step   60
Sun Oct  2 00:52:14 2016<stdout>: Time step   80
Sun Oct  2 00:52:16 2016<stdout>: Time step  100
Sun Oct  2 00:52:18 2016<stdout>: Time step  120
Sun Oct  2 00:52:20 2016<stdout>: Time step  140
Sun Oct  2 00:52:22 2016<stdout>: Time step  160
Sun Oct  2 00:52:24 2016<stdout>: Time step  180
Sun Oct  2 00:52:26 2016<stdout>: Time step  200
Sun Oct  2 00:52:28 2016<stdout>: Time step  220
Sun Oct  2 00:52:30 2016<stdout>: Time step  240
Sun Oct  2 00:52:31 2016<stdout>: Time step  250
Sun Oct  2 00:52:32 2016<stdout>:
Sun Oct  2 00:52:32 2016<stdout>: Verification being performed for class C
Sun Oct  2 00:52:32 2016<stdout>: Accuracy setting for epsilon =  0.1000000000000E-07
Sun Oct  2 00:52:32 2016<stdout>: Comparison of RMS-norms of residual
Sun Oct  2 00:52:32 2016<stdout>:           1   0.1037669803235E+05 0.1037669803235E+05 0.1752955899723E-15
Sun Oct  2 00:52:32 2016<stdout>:           2   0.8922124588010E+03 0.8922124588010E+03 0.1019370098233E-14
Sun Oct  2 00:52:32 2016<stdout>:           3   0.2562388145827E+04 0.2562388145827E+04 0.7098805099097E-15
Sun Oct  2 00:52:32 2016<stdout>:           4   0.2191943438578E+04 0.2191943438578E+04 0.2074630863566E-15
Sun Oct  2 00:52:32 2016<stdout>:           5   0.1780780572611E+05 0.1780780572611E+05 0.1021456226288E-14
Sun Oct  2 00:52:32 2016<stdout>: Comparison of RMS-norms of solution error
Sun Oct  2 00:52:32 2016<stdout>:           1   0.2159863997169E+03 0.2159863997169E+03 0.3947708207690E-15
Sun Oct  2 00:52:32 2016<stdout>:           2   0.1557895592399E+02 0.1557895592399E+02 0.1368274111360E-14
Sun Oct  2 00:52:32 2016<stdout>:           3   0.5413188630772E+02 0.5413188630772E+02 0.1575136839062E-14
Sun Oct  2 00:52:32 2016<stdout>:           4   0.4822626431540E+02 0.4822626431540E+02 0.7366761098404E-15
Sun Oct  2 00:52:32 2016<stdout>:           5   0.4559029100433E+03 0.4559029100433E+03 0.1870247511320E-14
Sun Oct  2 00:52:32 2016<stdout>: Comparison of surface integral
Sun Oct  2 00:52:32 2016<stdout>:               0.6664045535722E+02 0.6664045535722E+02 0.8529866513682E-15
Sun Oct  2 00:52:32 2016<stdout>: Verification Successful
Sun Oct  2 00:52:32 2016<stdout>:
Sun Oct  2 00:52:32 2016<stdout>:
Sun Oct  2 00:52:32 2016<stdout>: LU Benchmark Completed.
Sun Oct  2 00:52:32 2016<stdout>: Class           =                        C
Sun Oct  2 00:52:32 2016<stdout>: Size            =            162x 162x 162
Sun Oct  2 00:52:32 2016<stdout>: Iterations      =                      250
Sun Oct  2 00:52:32 2016<stdout>: Time in seconds =                    26.46
Sun Oct  2 00:52:32 2016<stdout>: Total processes =                      144
Sun Oct  2 00:52:32 2016<stdout>: Compiled procs  =                      144
Sun Oct  2 00:52:32 2016<stdout>: Mop/s total     =                 77049.87
Sun Oct  2 00:52:32 2016<stdout>: Mop/s/process   =                   535.07
Sun Oct  2 00:52:32 2016<stdout>: Operation type  =           floating point
Sun Oct  2 00:52:32 2016<stdout>: Verification    =               SUCCESSFUL
Sun Oct  2 00:52:32 2016<stdout>: Version         =                    3.3.1
Sun Oct  2 00:52:32 2016<stdout>: Compile date    =              02 Oct 2016
Sun Oct  2 00:52:32 2016<stdout>:
Sun Oct  2 00:52:32 2016<stdout>: Compile options:
Sun Oct  2 00:52:32 2016<stdout>:    MPIF77       = mpif77
Sun Oct  2 00:52:32 2016<stdout>:    FLINK        = $(MPIF77)
Sun Oct  2 00:52:32 2016<stdout>:    FMPI_LIB     = -L/usr/lib -lmpi -lmpif77
Sun Oct  2 00:52:32 2016<stdout>:    FMPI_INC     = -I/usr/include
Sun Oct  2 00:52:32 2016<stdout>:    FFLAGS       = -O2 -fsecond-underscore
Sun Oct  2 00:52:32 2016<stdout>:    FLINKFLAGS   = -O2
Sun Oct  2 00:52:32 2016<stdout>:    RAND         = (none)
Sun Oct  2 00:52:32 2016<stdout>:
Sun Oct  2 00:52:32 2016<stdout>:
Sun Oct  2 00:52:32 2016<stdout>: Please send feedbacks and/or the results of this run to:
Sun Oct  2 00:52:32 2016<stdout>:
Sun Oct  2 00:52:32 2016<stdout>: NPB Development Team 
Sun Oct  2 00:52:32 2016<stdout>: Internet: npb@nas.nasa.gov
Sun Oct  2 00:52:32 2016<stdout>:
Sun Oct  2 00:52:32 2016<stdout>:
