Fri Oct 14 22:07:02 2016<stdout>:
Fri Oct 14 22:07:02 2016<stdout>:
Fri Oct 14 22:07:02 2016<stdout>: NAS Parallel Benchmarks 3.3 -- LU Benchmark
Fri Oct 14 22:07:02 2016<stdout>:
Fri Oct 14 22:07:02 2016<stdout>: Size:  162x 162x 162
Fri Oct 14 22:07:02 2016<stdout>: Iterations:  250
Fri Oct 14 22:07:02 2016<stdout>: Number of processes:    64
Fri Oct 14 22:07:02 2016<stdout>:
Fri Oct 14 22:07:02 2016<stdout>: Time step    1
Fri Oct 14 22:07:05 2016<stdout>: Time step   20
Fri Oct 14 22:07:08 2016<stdout>: Time step   40
Fri Oct 14 22:07:11 2016<stdout>: Time step   60
Fri Oct 14 22:07:15 2016<stdout>: Time step   80
Fri Oct 14 22:07:18 2016<stdout>: Time step  100
Fri Oct 14 22:07:21 2016<stdout>: Time step  120
Fri Oct 14 22:07:24 2016<stdout>: Time step  140
Fri Oct 14 22:07:27 2016<stdout>: Time step  160
Fri Oct 14 22:07:30 2016<stdout>: Time step  180
Fri Oct 14 22:07:33 2016<stdout>: Time step  200
Fri Oct 14 22:07:36 2016<stdout>: Time step  220
Fri Oct 14 22:07:39 2016<stdout>: Time step  240
Fri Oct 14 22:07:40 2016<stdout>: Time step  250
Fri Oct 14 22:07:41 2016<stdout>:
Fri Oct 14 22:07:41 2016<stdout>: Verification being performed for class C
Fri Oct 14 22:07:41 2016<stdout>: Accuracy setting for epsilon =  0.1000000000000E-07
Fri Oct 14 22:07:41 2016<stdout>: Comparison of RMS-norms of residual
Fri Oct 14 22:07:41 2016<stdout>:           1   0.1037669803235E+05 0.1037669803235E+05 0.1051773539834E-14
Fri Oct 14 22:07:41 2016<stdout>:           2   0.8922124588010E+03 0.8922124588010E+03 0.1783897671908E-14
Fri Oct 14 22:07:41 2016<stdout>:           3   0.2562388145827E+04 0.2562388145827E+04 0.1242290892342E-14
Fri Oct 14 22:07:41 2016<stdout>:           4   0.2191943438578E+04 0.2191943438578E+04 0.4149261727131E-15
Fri Oct 14 22:07:41 2016<stdout>:           5   0.1780780572611E+05 0.1780780572611E+05 0.1634329962061E-14
Fri Oct 14 22:07:41 2016<stdout>: Comparison of RMS-norms of solution error
Fri Oct 14 22:07:41 2016<stdout>:           1   0.2159863997169E+03 0.2159863997169E+03 0.2631805471794E-15
Fri Oct 14 22:07:41 2016<stdout>:           2   0.1557895592399E+02 0.1557895592399E+02 0.1140228426133E-14
Fri Oct 14 22:07:41 2016<stdout>:           3   0.5413188630772E+02 0.5413188630772E+02 0.1837659645572E-14
Fri Oct 14 22:07:41 2016<stdout>:           4   0.4822626431540E+02 0.4822626431540E+02 0.1473352219681E-15
Fri Oct 14 22:07:41 2016<stdout>:           5   0.4559029100433E+03 0.4559029100433E+03 0.1870247511320E-14
Fri Oct 14 22:07:41 2016<stdout>: Comparison of surface integral
Fri Oct 14 22:07:41 2016<stdout>:               0.6664045535722E+02 0.6664045535722E+02 0.6397399885262E-15
Fri Oct 14 22:07:41 2016<stdout>: Verification Successful
Fri Oct 14 22:07:41 2016<stdout>:
Fri Oct 14 22:07:41 2016<stdout>:
Fri Oct 14 22:07:41 2016<stdout>: LU Benchmark Completed.
Fri Oct 14 22:07:41 2016<stdout>: Class           =                        C
Fri Oct 14 22:07:41 2016<stdout>: Size            =            162x 162x 162
Fri Oct 14 22:07:41 2016<stdout>: Iterations      =                      250
Fri Oct 14 22:07:41 2016<stdout>: Time in seconds =                    38.36
Fri Oct 14 22:07:41 2016<stdout>: Total processes =                       64
Fri Oct 14 22:07:41 2016<stdout>: Compiled procs  =                       64
Fri Oct 14 22:07:41 2016<stdout>: Mop/s total     =                 53154.29
Fri Oct 14 22:07:41 2016<stdout>: Mop/s/process   =                   830.54
Fri Oct 14 22:07:41 2016<stdout>: Operation type  =           floating point
Fri Oct 14 22:07:41 2016<stdout>: Verification    =               SUCCESSFUL
Fri Oct 14 22:07:41 2016<stdout>: Version         =                    3.3.1
Fri Oct 14 22:07:41 2016<stdout>: Compile date    =              14 Oct 2016
Fri Oct 14 22:07:41 2016<stdout>:
Fri Oct 14 22:07:41 2016<stdout>: Compile options:
Fri Oct 14 22:07:41 2016<stdout>:    MPIF77       = mpif77
Fri Oct 14 22:07:41 2016<stdout>:    FLINK        = $(MPIF77)
Fri Oct 14 22:07:41 2016<stdout>:    FMPI_LIB     = -L/usr/lib -lmpi -lmpif77
Fri Oct 14 22:07:41 2016<stdout>:    FMPI_INC     = -I/usr/include
Fri Oct 14 22:07:41 2016<stdout>:    FFLAGS       = -O2 -fsecond-underscore
Fri Oct 14 22:07:41 2016<stdout>:    FLINKFLAGS   = -O2
Fri Oct 14 22:07:41 2016<stdout>:    RAND         = (none)
Fri Oct 14 22:07:41 2016<stdout>:
Fri Oct 14 22:07:41 2016<stdout>:
Fri Oct 14 22:07:41 2016<stdout>: Please send feedbacks and/or the results of this run to:
Fri Oct 14 22:07:41 2016<stdout>:
Fri Oct 14 22:07:41 2016<stdout>: NPB Development Team 
Fri Oct 14 22:07:41 2016<stdout>: Internet: npb@nas.nasa.gov
Fri Oct 14 22:07:41 2016<stdout>:
Fri Oct 14 22:07:41 2016<stdout>:
