Mon Jan 16 05:43:25 2017<stdout>:================================================================================
Mon Jan 16 05:43:25 2017<stdout>:HPLinpack 2.2  --  High-Performance Linpack benchmark  --   February 24, 2016
Mon Jan 16 05:43:25 2017<stdout>:Written by A. Petitet and R. Clint Whaley,  Innovative Computing Laboratory, UTK
Mon Jan 16 05:43:25 2017<stdout>:Modified by Piotr Luszczek, Innovative Computing Laboratory, UTK
Mon Jan 16 05:43:25 2017<stdout>:Modified by Julien Langou, University of Colorado Denver
Mon Jan 16 05:43:25 2017<stdout>:================================================================================
Mon Jan 16 05:43:25 2017<stdout>:
Mon Jan 16 05:43:25 2017<stdout>:An explanation of the input/output parameters follows:
Mon Jan 16 05:43:25 2017<stdout>:T/V    : Wall time / encoded variant.
Mon Jan 16 05:43:25 2017<stdout>:N      : The order of the coefficient matrix A.
Mon Jan 16 05:43:25 2017<stdout>:NB     : The partitioning blocking factor.
Mon Jan 16 05:43:25 2017<stdout>:P      : The number of process rows.
Mon Jan 16 05:43:25 2017<stdout>:Q      : The number of process columns.
Mon Jan 16 05:43:25 2017<stdout>:Time   : Time in seconds to solve the linear system.
Mon Jan 16 05:43:25 2017<stdout>:Gflops : Rate of execution for solving the linear system.
Mon Jan 16 05:43:25 2017<stdout>:
Mon Jan 16 05:43:25 2017<stdout>:The following parameter values will be used:
Mon Jan 16 05:43:25 2017<stdout>:
Mon Jan 16 05:43:25 2017<stdout>:N      :   20000 
Mon Jan 16 05:43:25 2017<stdout>:NB     :     120 
Mon Jan 16 05:43:25 2017<stdout>:PMAP   : Row-major process mapping
Mon Jan 16 05:43:25 2017<stdout>:P      :       1 
Mon Jan 16 05:43:25 2017<stdout>:Q      :       1 
Mon Jan 16 05:43:25 2017<stdout>:PFACT  :    Left 
Mon Jan 16 05:43:26 2017<stdout>:   Crout    Right 
Mon Jan 16 05:43:26 2017<stdout>:NBMIN  :
Mon Jan 16 05:43:26 2017<stdout>:       2        4 
Mon Jan 16 05:43:26 2017<stdout>:NDIV   :
Mon Jan 16 05:43:26 2017<stdout>:       2 
Mon Jan 16 05:43:26 2017<stdout>:RFACT  :    Left 
Mon Jan 16 05:43:26 2017<stdout>:   Crout    Right 
Mon Jan 16 05:43:26 2017<stdout>:BCAST  :
Mon Jan 16 05:43:26 2017<stdout>:   1ring 
Mon Jan 16 05:43:26 2017<stdout>:DEPTH  :
Mon Jan 16 05:43:26 2017<stdout>:       0 
Mon Jan 16 05:43:26 2017<stdout>:SWAP   :
Mon Jan 16 05:43:26 2017<stdout>: Mix (threshold = 64)
Mon Jan 16 05:43:26 2017<stdout>:L1     : transposed form
Mon Jan 16 05:43:26 2017<stdout>:U      : transposed form
Mon Jan 16 05:43:26 2017<stdout>:EQUIL  :
Mon Jan 16 05:43:26 2017<stdout>: yes
Mon Jan 16 05:43:26 2017<stdout>:ALIGN  : 8 double precision words
Mon Jan 16 05:43:26 2017<stdout>:
Mon Jan 16 05:43:26 2017<stdout>:--------------------------------------------------------------------------------
Mon Jan 16 05:43:26 2017<stdout>:
Mon Jan 16 05:43:26 2017<stdout>:- The matrix A is randomly generated for each test.
Mon Jan 16 05:43:26 2017<stdout>:- The following scaled residual check will be computed:
Mon Jan 16 05:43:26 2017<stdout>:      ||Ax-b||_oo / ( eps * ( || x ||_oo * || A ||_oo + || b ||_oo ) * N )
Mon Jan 16 05:43:26 2017<stdout>:- The relative machine precision (eps) is taken to be               1.110223e-16
Mon Jan 16 05:43:26 2017<stdout>:- Computational tests pass if scaled residuals are less than                16.0
Mon Jan 16 05:43:26 2017<stdout>:
Mon Jan 16 05:55:40 2017<stdout>:================================================================================
Mon Jan 16 05:55:40 2017<stdout>:T/V                N    NB     P     Q               Time                 Gflops
Mon Jan 16 05:55:40 2017<stdout>:--------------------------------------------------------------------------------
Mon Jan 16 05:55:40 2017<stdout>:WR00L2L2       20000   120     1     1             719.20              7.416e+00
Mon Jan 16 05:55:40 2017<stdout>:HPL_pdgesv() start time Mon Jan 16 05:43:40 2017
Mon Jan 16 05:55:40 2017<stdout>:
Mon Jan 16 05:55:40 2017<stdout>:HPL_pdgesv() end time   Mon Jan 16 05:55:40 2017
Mon Jan 16 05:55:40 2017<stdout>:
Mon Jan 16 05:56:00 2017<stdout>:--------------------------------------------------------------------------------
Mon Jan 16 05:56:00 2017<stdout>:||Ax-b||_oo/(eps*(||A||_oo*||x||_oo+||b||_oo)*N)=        0.0009975 ...... PASSED
Mon Jan 16 05:56:00 2017<stdout>:||Ax-b||_oo  . . . . . . . . . . . . . . . . . =           0.000000
Mon Jan 16 05:56:00 2017<stdout>:||A||_oo . . . . . . . . . . . . . . . . . . . =        5077.970709
Mon Jan 16 05:56:00 2017<stdout>:||A||_1  . . . . . . . . . . . . . . . . . . . =        5073.290150
Mon Jan 16 05:56:00 2017<stdout>:||x||_oo . . . . . . . . . . . . . . . . . . . =          14.024664
Mon Jan 16 05:56:00 2017<stdout>:||x||_1  . . . . . . . . . . . . . . . . . . . =       50326.296356
Mon Jan 16 05:56:00 2017<stdout>:||b||_oo . . . . . . . . . . . . . . . . . . . =           0.499989
