Sat Oct 15 07:15:17 2016<stdout>:
Sat Oct 15 07:15:17 2016<stdout>:
Sat Oct 15 07:15:17 2016<stdout>: NAS Parallel Benchmarks 3.3 -- LU Benchmark
Sat Oct 15 07:15:17 2016<stdout>:
Sat Oct 15 07:15:17 2016<stdout>: Size:  162x 162x 162
Sat Oct 15 07:15:17 2016<stdout>: Iterations:  250
Sat Oct 15 07:15:17 2016<stdout>: Number of processes:     8
Sat Oct 15 07:15:17 2016<stdout>:
Sat Oct 15 07:15:20 2016<stdout>: Time step    1
Sat Oct 15 07:15:38 2016<stdout>: Time step   20
Sat Oct 15 07:15:58 2016<stdout>: Time step   40
Sat Oct 15 07:16:17 2016<stdout>: Time step   60
Sat Oct 15 07:16:37 2016<stdout>: Time step   80
Sat Oct 15 07:16:56 2016<stdout>: Time step  100
Sat Oct 15 07:17:16 2016<stdout>: Time step  120
Sat Oct 15 07:17:35 2016<stdout>: Time step  140
Sat Oct 15 07:17:55 2016<stdout>: Time step  160
Sat Oct 15 07:18:15 2016<stdout>: Time step  180
Sat Oct 15 07:18:34 2016<stdout>: Time step  200
Sat Oct 15 07:18:54 2016<stdout>: Time step  220
Sat Oct 15 07:19:13 2016<stdout>: Time step  240
Sat Oct 15 07:19:23 2016<stdout>: Time step  250
Sat Oct 15 07:19:24 2016<stdout>:
Sat Oct 15 07:19:24 2016<stdout>: Verification being performed for class C
Sat Oct 15 07:19:24 2016<stdout>: Accuracy setting for epsilon =  0.1000000000000E-07
Sat Oct 15 07:19:24 2016<stdout>: Comparison of RMS-norms of residual
Sat Oct 15 07:19:24 2016<stdout>:           1   0.1037669803235E+05 0.1037669803235E+05 0.2804729439557E-14
Sat Oct 15 07:19:24 2016<stdout>:           2   0.8922124588010E+03 0.8922124588010E+03 0.6371063113958E-14
Sat Oct 15 07:19:24 2016<stdout>:           3   0.2562388145827E+04 0.2562388145827E+04 0.5856514206755E-14
Sat Oct 15 07:19:24 2016<stdout>:           4   0.2191943438578E+04 0.2191943438578E+04 0.2074630863566E-14
Sat Oct 15 07:19:24 2016<stdout>:           5   0.1780780572611E+05 0.1780780572611E+05 0.7967358565047E-14
Sat Oct 15 07:19:24 2016<stdout>: Comparison of RMS-norms of solution error
Sat Oct 15 07:19:24 2016<stdout>:           1   0.2159863997170E+03 0.2159863997169E+03 0.6711103953074E-14
Sat Oct 15 07:19:24 2016<stdout>:           2   0.1557895592399E+02 0.1557895592399E+02 0.4332868019305E-14
Sat Oct 15 07:19:24 2016<stdout>:           3   0.5413188630772E+02 0.5413188630772E+02 0.5250456130207E-14
Sat Oct 15 07:19:24 2016<stdout>:           4   0.4822626431540E+02 0.4822626431540E+02 0.2062693107553E-14
Sat Oct 15 07:19:24 2016<stdout>:           5   0.4559029100433E+03 0.4559029100433E+03 0.1246831674214E-14
Sat Oct 15 07:19:24 2016<stdout>: Comparison of surface integral
Sat Oct 15 07:19:24 2016<stdout>:               0.6664045535722E+02 0.6664045535722E+02 0.2132466628421E-15
Sat Oct 15 07:19:24 2016<stdout>: Verification Successful
Sat Oct 15 07:19:24 2016<stdout>:
Sat Oct 15 07:19:24 2016<stdout>:
Sat Oct 15 07:19:24 2016<stdout>: LU Benchmark Completed.
Sat Oct 15 07:19:24 2016<stdout>: Class           =                        C
Sat Oct 15 07:19:24 2016<stdout>: Size            =            162x 162x 162
Sat Oct 15 07:19:24 2016<stdout>: Iterations      =                      250
Sat Oct 15 07:19:24 2016<stdout>: Time in seconds =                   244.43
Sat Oct 15 07:19:24 2016<stdout>: Total processes =                        8
Sat Oct 15 07:19:24 2016<stdout>: Compiled procs  =                        8
Sat Oct 15 07:19:24 2016<stdout>: Mop/s total     =                  8341.78
Sat Oct 15 07:19:24 2016<stdout>: Mop/s/process   =                  1042.72
Sat Oct 15 07:19:24 2016<stdout>: Operation type  =           floating point
Sat Oct 15 07:19:24 2016<stdout>: Verification    =               SUCCESSFUL
Sat Oct 15 07:19:24 2016<stdout>: Version         =                    3.3.1
Sat Oct 15 07:19:24 2016<stdout>: Compile date    =              15 Oct 2016
Sat Oct 15 07:19:24 2016<stdout>:
Sat Oct 15 07:19:24 2016<stdout>: Compile options:
Sat Oct 15 07:19:24 2016<stdout>:    MPIF77       = mpif77
Sat Oct 15 07:19:24 2016<stdout>:    FLINK        = $(MPIF77)
Sat Oct 15 07:19:24 2016<stdout>:    FMPI_LIB     = -L/usr/lib -lmpi -lmpif77
Sat Oct 15 07:19:24 2016<stdout>:    FMPI_INC     = -I/usr/include
Sat Oct 15 07:19:24 2016<stdout>:    FFLAGS       = -O2 -fsecond-underscore
Sat Oct 15 07:19:24 2016<stdout>:    FLINKFLAGS   = -O2
Sat Oct 15 07:19:24 2016<stdout>:    RAND         = (none)
Sat Oct 15 07:19:24 2016<stdout>:
Sat Oct 15 07:19:24 2016<stdout>:
Sat Oct 15 07:19:24 2016<stdout>: Please send feedbacks and/or the results of this run to:
Sat Oct 15 07:19:24 2016<stdout>:
Sat Oct 15 07:19:24 2016<stdout>: NPB Development Team 
Sat Oct 15 07:19:24 2016<stdout>: Internet: npb@nas.nasa.gov
Sat Oct 15 07:19:24 2016<stdout>:
Sat Oct 15 07:19:24 2016<stdout>:
