   =========================================
   =      NAS Parallel Benchmarks 3.3      =
   =      MPI/F77/C                        =
   =========================================

cd LU; make NPROCS=1 CLASS=C VERSION=
make[1]: Entering directory '/home/cheinrich/src/NPB3.3-MPI/LU'
make[2]: Entering directory '/home/cheinrich/src/NPB3.3-MPI/sys'
cc -g  -o setparams setparams.c
make[2]: Leaving directory '/home/cheinrich/src/NPB3.3-MPI/sys'
../sys/setparams lu 1 C 
make[2]: Entering directory '/home/cheinrich/src/NPB3.3-MPI/LU'
mpif77 -c -I/usr/include -O2 -fsecond-underscore lu.f
mpif77 -c -I/usr/include -O2 -fsecond-underscore init_comm.f
mpif77 -c -I/usr/include -O2 -fsecond-underscore read_input.f
mpif77 -c -I/usr/include -O2 -fsecond-underscore bcast_inputs.f
mpif77 -c -I/usr/include -O2 -fsecond-underscore proc_grid.f
mpif77 -c -I/usr/include -O2 -fsecond-underscore neighbors.f
mpif77 -c -I/usr/include -O2 -fsecond-underscore nodedim.f
mpif77 -c -I/usr/include -O2 -fsecond-underscore subdomain.f
mpif77 -c -I/usr/include -O2 -fsecond-underscore setcoeff.f
mpif77 -c -I/usr/include -O2 -fsecond-underscore setbv.f
mpif77 -c -I/usr/include -O2 -fsecond-underscore exact.f
mpif77 -c -I/usr/include -O2 -fsecond-underscore setiv.f
mpif77 -c -I/usr/include -O2 -fsecond-underscore erhs.f
mpif77 -c -I/usr/include -O2 -fsecond-underscore ssor.f
mpif77 -c -I/usr/include -O2 -fsecond-underscore exchange_1.f
mpif77 -c -I/usr/include -O2 -fsecond-underscore exchange_3.f
mpif77 -c -I/usr/include -O2 -fsecond-underscore exchange_4.f
mpif77 -c -I/usr/include -O2 -fsecond-underscore exchange_5.f
mpif77 -c -I/usr/include -O2 -fsecond-underscore exchange_6.f
mpif77 -c -I/usr/include -O2 -fsecond-underscore rhs.f
mpif77 -c -I/usr/include -O2 -fsecond-underscore l2norm.f
mpif77 -c -I/usr/include -O2 -fsecond-underscore jacld.f
mpif77 -c -I/usr/include -O2 -fsecond-underscore blts.f
mpif77 -c -I/usr/include -O2 -fsecond-underscore jacu.f
mpif77 -c -I/usr/include -O2 -fsecond-underscore buts.f
mpif77 -c -I/usr/include -O2 -fsecond-underscore error.f
mpif77 -c -I/usr/include -O2 -fsecond-underscore pintgr.f
mpif77 -c -I/usr/include -O2 -fsecond-underscore verify.f
cd ../common; mpif77 -c -I/usr/include -O2 -fsecond-underscore print_results.f
cd ../common; mpif77 -c -I/usr/include -O2 -fsecond-underscore timers.f
mpif77 -O2 -o ../bin/lu.C.1 lu.o init_comm.o read_input.o bcast_inputs.o proc_grid.o neighbors.o nodedim.o subdomain.o setcoeff.o setbv.o exact.o setiv.o erhs.o ssor.o exchange_1.o exchange_3.o exchange_4.o exchange_5.o exchange_6.o rhs.o l2norm.o jacld.o blts.o jacu.o buts.o error.o pintgr.o verify.o ../common/print_results.o ../common/timers.o -L/usr/lib -lmpi -lmpif77
make[2]: Leaving directory '/home/cheinrich/src/NPB3.3-MPI/LU'
make[1]: Leaving directory '/home/cheinrich/src/NPB3.3-MPI/LU'
