time,hostname,power_consumption
20.000546,taurus-10,2300.062807
20.000546,taurus-14,2300.062807
20.000546,taurus-2,1895.051748
20.000546,taurus-6,3477.989406
20.000546,taurus-11,2300.062807
20.000546,taurus-15,2300.062807
20.000546,taurus-3,3511.894786
20.000546,taurus-7,3581.930334
20.000546,taurus-12,3817.917473
20.000546,taurus-16,3627.374423
20.000546,taurus-4,3533.212476
20.000546,taurus-8,3480.390734
20.000546,taurus-13,2300.062807
20.000546,taurus-1,2300.062807
20.000546,taurus-5,3491.086736
20.000546,taurus-9,2300.062807
