time,hostname,power_consumption
16.712181,taurus-10,3124.934848
16.712181,taurus-14,1921.900804
16.712181,taurus-2,1583.479140
16.712181,taurus-6,2871.241967
16.712181,taurus-11,2961.832836
16.712181,taurus-15,1921.900804
16.712181,taurus-3,2894.489569
16.712181,taurus-7,2961.032374
16.712181,taurus-12,3176.647973
16.712181,taurus-16,2991.122713
16.712181,taurus-4,2913.366988
16.712181,taurus-8,2878.386300
16.712181,taurus-13,2963.745003
16.712181,taurus-1,2928.431957
16.712181,taurus-5,2880.177711
16.712181,taurus-9,1921.900804
