   =========================================
   =      NAS Parallel Benchmarks 3.3      =
   =      MPI/F77/C                        =
   =========================================

cd EP; make NPROCS=96 CLASS=C
make[1]: Entering directory '/home/cheinrich/src/NPB3.3-MPI/EP'
make[2]: Entering directory '/home/cheinrich/src/NPB3.3-MPI/sys'
cc -g  -o setparams setparams.c
make[2]: Leaving directory '/home/cheinrich/src/NPB3.3-MPI/sys'
../sys/setparams ep 96 C 
mpif77 -c -I/usr/include -O2 -fsecond-underscore ep.f
cd ../common; mpif77 -c -I/usr/include -O2 -fsecond-underscore print_results.f
cd ../common; mpif77 -c -I/usr/include -O2 -fsecond-underscore randi8.f
cd ../common; mpif77 -c -I/usr/include -O2 -fsecond-underscore timers.f
mpif77 -O2 -o ../bin/ep.C.96 ep.o ../common/print_results.o ../common/randi8.o ../common/timers.o -L/usr/lib -lmpi -lmpif77
make[1]: Leaving directory '/home/cheinrich/src/NPB3.3-MPI/EP'
