[taurus-1.lyon.grid5000.fr:14149] System has detected external process binding to cores 0001
Sun Nov 20 03:50:52 2016<stderr>:[taurus-5.lyon.grid5000.fr:06206] MCW rank 3 bound to socket 0[core 0]: [B]
Sun Nov 20 03:50:52 2016<stderr>:[taurus-7.lyon.grid5000.fr:44831] MCW rank 1 bound to socket 0[core 0]: [B]
Sun Nov 20 03:50:52 2016<stderr>:[taurus-8.lyon.grid5000.fr:23244] MCW rank 0 bound to socket 0[core 0]: [B]
Sun Nov 20 03:50:52 2016<stderr>:[taurus-6.lyon.grid5000.fr:06114] MCW rank 2 bound to socket 0[core 0]: [B]
