--------------------------------------------------------------------------
A deprecated MCA parameter value was specified in the environment or
on the command line.  Deprecated MCA parameters should be avoided;
they may disappear in future releases.

  Deprecated parameter: plm_rsh_agent
--------------------------------------------------------------------------
--------------------------------------------------------------------------
A deprecated MCA parameter value was specified in the environment or
on the command line.  Deprecated MCA parameters should be avoided;
they may disappear in future releases.

  Deprecated parameter: plm_rsh_agent
--------------------------------------------------------------------------
Fri Oct 14 22:08:54 2016<stddiag>:--------------------------------------------------------------------------
Fri Oct 14 22:08:54 2016<stddiag>:A deprecated MCA parameter value was specified in the environment or
Fri Oct 14 22:08:54 2016<stddiag>:on the command line.  Deprecated MCA parameters should be avoided;
Fri Oct 14 22:08:54 2016<stddiag>:they may disappear in future releases.
Fri Oct 14 22:08:54 2016<stddiag>:
Fri Oct 14 22:08:54 2016<stddiag>:  Deprecated parameter: plm_rsh_agent
Fri Oct 14 22:08:54 2016<stddiag>:--------------------------------------------------------------------------
Fri Oct 14 22:08:54 2016<stddiag>:--------------------------------------------------------------------------
Fri Oct 14 22:08:54 2016<stddiag>:A deprecated MCA parameter value was specified in the environment or
Fri Oct 14 22:08:54 2016<stddiag>:on the command line.  Deprecated MCA parameters should be avoided;
Fri Oct 14 22:08:54 2016<stddiag>:they may disappear in future releases.
Fri Oct 14 22:08:54 2016<stddiag>:
Fri Oct 14 22:08:54 2016<stddiag>:  Deprecated parameter: plm_rsh_agent
Fri Oct 14 22:08:54 2016<stddiag>:--------------------------------------------------------------------------
Fri Oct 14 22:08:54 2016<stddiag>:--------------------------------------------------------------------------
Fri Oct 14 22:08:54 2016<stddiag>:A deprecated MCA parameter value was specified in the environment or
Fri Oct 14 22:08:54 2016<stddiag>:on the command line.  Deprecated MCA parameters should be avoided;
Fri Oct 14 22:08:54 2016<stddiag>:they may disappear in future releases.
Fri Oct 14 22:08:54 2016<stddiag>:
Fri Oct 14 22:08:54 2016<stddiag>:  Deprecated parameter: plm_rsh_agent
Fri Oct 14 22:08:54 2016<stddiag>:--------------------------------------------------------------------------
Fri Oct 14 22:08:54 2016<stddiag>:--------------------------------------------------------------------------
Fri Oct 14 22:08:54 2016<stddiag>:A deprecated MCA parameter value was specified in the environment or
Fri Oct 14 22:08:54 2016<stddiag>:on the command line.  Deprecated MCA parameters should be avoided;
Fri Oct 14 22:08:54 2016<stddiag>:they may disappear in future releases.
Fri Oct 14 22:08:54 2016<stddiag>:
Fri Oct 14 22:08:54 2016<stddiag>:  Deprecated parameter: plm_rsh_agent
Fri Oct 14 22:08:54 2016<stddiag>:--------------------------------------------------------------------------
Fri Oct 14 22:08:54 2016<stddiag>:--------------------------------------------------------------------------
Fri Oct 14 22:08:54 2016<stddiag>:A deprecated MCA parameter value was specified in the environment or
Fri Oct 14 22:08:54 2016<stddiag>:on the command line.  Deprecated MCA parameters should be avoided;
Fri Oct 14 22:08:54 2016<stddiag>:they may disappear in future releases.
Fri Oct 14 22:08:54 2016<stddiag>:
Fri Oct 14 22:08:54 2016<stddiag>:  Deprecated parameter: plm_rsh_agent
Fri Oct 14 22:08:54 2016<stddiag>:--------------------------------------------------------------------------
Fri Oct 14 22:08:54 2016<stddiag>:--------------------------------------------------------------------------
Fri Oct 14 22:08:54 2016<stddiag>:A deprecated MCA parameter value was specified in the environment or
Fri Oct 14 22:08:54 2016<stddiag>:on the command line.  Deprecated MCA parameters should be avoided;
Fri Oct 14 22:08:54 2016<stddiag>:they may disappear in future releases.
Fri Oct 14 22:08:54 2016<stddiag>:
Fri Oct 14 22:08:54 2016<stddiag>:  Deprecated parameter: plm_rsh_agent
Fri Oct 14 22:08:54 2016<stddiag>:--------------------------------------------------------------------------
Fri Oct 14 22:08:54 2016<stddiag>:--------------------------------------------------------------------------
Fri Oct 14 22:08:54 2016<stddiag>:A deprecated MCA parameter value was specified in the environment or
Fri Oct 14 22:08:54 2016<stddiag>:on the command line.  Deprecated MCA parameters should be avoided;
Fri Oct 14 22:08:54 2016<stddiag>:they may disappear in future releases.
Fri Oct 14 22:08:54 2016<stddiag>:
Fri Oct 14 22:08:54 2016<stddiag>:  Deprecated parameter: plm_rsh_agent
Fri Oct 14 22:08:54 2016<stddiag>:--------------------------------------------------------------------------
Fri Oct 14 22:08:54 2016<stddiag>:--------------------------------------------------------------------------
Fri Oct 14 22:08:54 2016<stddiag>:A deprecated MCA parameter value was specified in the environment or
Fri Oct 14 22:08:54 2016<stddiag>:on the command line.  Deprecated MCA parameters should be avoided;
Fri Oct 14 22:08:54 2016<stddiag>:they may disappear in future releases.
Fri Oct 14 22:08:54 2016<stddiag>:
Fri Oct 14 22:08:54 2016<stddiag>:  Deprecated parameter: plm_rsh_agent
Fri Oct 14 22:08:54 2016<stddiag>:--------------------------------------------------------------------------
