[flyon.lyon.grid5000.fr:15607] System has detected external process binding to cores 0001
Mon Nov 21 07:12:50 2016<stderr>:[taurus-7.lyon.grid5000.fr:18075] MCW rank 1 bound to socket 0[core 0]: [B]
Mon Nov 21 07:12:50 2016<stderr>:[taurus-8.lyon.grid5000.fr:01678] MCW rank 0 bound to socket 0[core 0]: [B]
Mon Nov 21 07:12:50 2016<stderr>:[taurus-5.lyon.grid5000.fr:27974] MCW rank 3 bound to socket 0[core 0]: [B]
Mon Nov 21 07:12:50 2016<stderr>:[taurus-6.lyon.grid5000.fr:27886] MCW rank 2 bound to socket 0[core 0]: [B]
