time,hostname,power_consumption
33.450539,taurus-10,3388.160532
33.450539,taurus-14,2998.431085
33.450539,taurus-2,3008.860964
33.450539,taurus-6,6226.968688
33.450539,taurus-11,2971.865782
33.450539,taurus-15,3008.860964
33.450539,taurus-3,2927.187012
33.450539,taurus-7,6380.583951
33.450539,taurus-12,3438.954061
33.450539,taurus-16,2986.868906
33.450539,taurus-4,2958.728083
33.450539,taurus-8,6146.159680
33.450539,taurus-13,3022.221666
33.450539,taurus-1,3008.860964
33.450539,taurus-5,6151.567200
33.450539,taurus-9,3008.860964
