time,hostname,power_consumption
286.813168,taurus-10,29050.923361
286.813168,taurus-14,25709.287043
286.813168,taurus-2,25798.715388
286.813168,taurus-6,24989.352530
286.813168,taurus-11,25481.509585
286.813168,taurus-15,25798.715388
286.813168,taurus-3,25098.422797
286.813168,taurus-7,25577.166557
286.813168,taurus-12,29486.439596
286.813168,taurus-16,25610.150071
286.813168,taurus-4,25368.863713
286.813168,taurus-8,41448.473325
286.813168,taurus-13,25913.273348
286.813168,taurus-1,25798.715388
286.813168,taurus-5,24922.706710
286.813168,taurus-9,25798.715388
