time,hostname,power_consumption
286.818452,taurus-10,29051.458589
286.818452,taurus-14,25709.760705
286.818452,taurus-2,25799.190698
286.818452,taurus-6,24989.812928
286.818452,taurus-11,25481.979051
286.818452,taurus-15,25799.190698
286.818452,taurus-3,25098.885205
286.818452,taurus-7,25577.637785
286.818452,taurus-12,29486.982848
286.818452,taurus-16,25610.621907
286.818452,taurus-4,25369.331104
286.818452,taurus-8,41443.162918
286.818452,taurus-13,25913.750768
286.818452,taurus-1,25799.190698
286.818452,taurus-5,24923.165880
286.818452,taurus-9,25799.190698
