time,hostname,power_consumption
103.276836,taurus-10,10460.773008
103.276836,taurus-14,9257.503199
103.276836,taurus-2,9289.704917
103.276836,taurus-6,8998.266292
103.276836,taurus-11,9175.484179
103.276836,taurus-15,9289.704917
103.276836,taurus-3,9037.540752
103.276836,taurus-7,9209.928725
103.276836,taurus-12,10617.595441
103.276836,taurus-16,9221.805561
103.276836,taurus-4,9134.922201
103.276836,taurus-8,20547.761676
103.276836,taurus-13,9330.955406
103.276836,taurus-1,9289.704917
103.276836,taurus-5,8974.268198
103.276836,taurus-9,9289.704917
