time,hostname,power_consumption
17.175283,taurus-10,3188.121048
17.175283,taurus-14,3014.533841
17.175283,taurus-2,1544.908941
17.175283,taurus-6,3010.593726
17.175283,taurus-11,3012.554883
17.175283,taurus-15,1544.908941
17.175283,taurus-3,3007.449564
17.175283,taurus-7,3084.411681
17.175283,taurus-12,1765.741568
17.175283,taurus-16,3067.632788
17.175283,taurus-4,3047.680830
17.175283,taurus-8,2918.821758
17.175283,taurus-13,3029.619645
17.175283,taurus-1,2913.530059
17.175283,taurus-5,3006.313356
17.175283,taurus-9,1544.908941
