time,hostname,power_consumption
17.041641,taurus-10,3154.803447
17.041641,taurus-14,2982.292309
17.041641,taurus-2,1532.887899
17.041641,taurus-6,2978.970864
17.041641,taurus-11,2979.809942
17.041641,taurus-15,1532.887899
17.041641,taurus-3,2976.873729
17.041641,taurus-7,3058.278396
17.041641,taurus-12,1752.002212
17.041641,taurus-16,3036.798627
17.041641,taurus-4,3012.748826
17.041641,taurus-8,2893.140030
17.041641,taurus-13,2999.760146
17.041641,taurus-1,2880.771749
17.041641,taurus-5,2974.090260
17.041641,taurus-9,1532.887899
