time,hostname,power_consumption
35.976968,taurus-10,3644.059099
35.976968,taurus-14,3224.894445
35.976968,taurus-2,3236.112064
35.976968,taurus-6,6729.457618
35.976968,taurus-11,3196.322737
35.976968,taurus-15,3236.112064
35.976968,taurus-3,3148.269500
35.976968,taurus-7,6904.348362
35.976968,taurus-12,3698.688925
35.976968,taurus-16,3212.459006
35.976968,taurus-4,3182.192782
35.976968,taurus-8,6641.299922
35.976968,taurus-13,3250.481864
35.976968,taurus-1,3236.112064
35.976968,taurus-5,6644.163247
35.976968,taurus-9,3236.112064
