time,hostname,power_consumption
16.522569,taurus-10,3051.878690
16.522569,taurus-14,2882.416597
16.522569,taurus-2,1486.197680
16.522569,taurus-6,2880.121250
16.522569,taurus-11,2881.285776
16.522569,taurus-15,1486.197680
16.522569,taurus-3,2878.260389
16.522569,taurus-7,2952.479193
16.522569,taurus-12,1698.637993
16.522569,taurus-16,2935.951414
16.522569,taurus-4,2915.326715
16.522569,taurus-8,2791.815309
16.522569,taurus-13,2899.537944
16.522569,taurus-1,2787.355987
16.522569,taurus-5,2874.854504
16.522569,taurus-9,1486.197680
