time,hostname,power_consumption
107.451795,taurus-10,10883.649028
107.451795,taurus-14,9631.737121
107.451795,taurus-2,9665.240590
107.451795,taurus-6,9362.020580
107.451795,taurus-11,9546.402487
107.451795,taurus-15,9665.240590
107.451795,taurus-3,9402.882706
107.451795,taurus-7,9582.239451
107.451795,taurus-12,11046.810997
107.451795,taurus-16,9594.596408
107.451795,taurus-4,9504.200795
107.451795,taurus-8,21363.338737
107.451795,taurus-13,9708.158628
107.451795,taurus-1,9665.240590
107.451795,taurus-5,9337.052364
107.451795,taurus-9,9665.240590
