time,hostname,power_consumption
1116.166291,taurus-10,113054.995358
1116.166291,taurus-14,100050.634920
1116.166291,taurus-2,100398.655569
1116.166291,taurus-6,97248.927311
1116.166291,taurus-11,99164.212857
1116.166291,taurus-15,100398.655569
1116.166291,taurus-3,97673.386749
1116.166291,taurus-7,99536.472918
1116.166291,taurus-12,114749.856665
1116.166291,taurus-16,99664.832042
1116.166291,taurus-4,98725.838547
1116.166291,taurus-8,137641.686927
1116.166291,taurus-13,100844.470989
1116.166291,taurus-1,100398.655569
1116.166291,taurus-5,96989.567471
1116.166291,taurus-9,100398.655569
