time,hostname,power_consumption
15.849890,taurus-10,2910.559674
15.849890,taurus-14,2747.054244
15.849890,taurus-2,1425.690500
15.849890,taurus-6,2744.949867
15.849890,taurus-11,2747.597923
15.849890,taurus-15,1425.690500
15.849890,taurus-3,2742.452526
15.849890,taurus-7,2814.578555
15.849890,taurus-12,1629.481786
15.849890,taurus-16,2796.120690
15.849890,taurus-4,2776.087825
15.849890,taurus-8,2654.553652
15.849890,taurus-13,2763.841216
15.849890,taurus-1,2658.521898
15.849890,taurus-5,2739.943038
15.849890,taurus-9,1425.690500
