time,hostname,power_consumption
33.458460,taurus-10,3388.962776
33.458460,taurus-14,2999.141050
33.458460,taurus-2,3009.573397
33.458460,taurus-6,6227.889370
33.458460,taurus-11,2972.569456
33.458460,taurus-15,3009.573397
33.458460,taurus-3,2927.880107
33.458460,taurus-7,6380.709387
33.458460,taurus-12,3439.768332
33.458460,taurus-16,2987.576133
33.458460,taurus-4,2959.428646
33.458460,taurus-8,6147.038113
33.458460,taurus-13,3022.937264
33.458460,taurus-1,3009.573397
33.458460,taurus-5,6152.242231
33.458460,taurus-9,3009.573397
