time,hostname,power_consumption
17.139339,taurus-10,3179.394714
17.139339,taurus-14,3005.101670
17.139339,taurus-2,1541.675868
17.139339,taurus-6,3003.994115
17.139339,taurus-11,3004.289394
17.139339,taurus-15,1541.675868
17.139339,taurus-3,3004.491116
17.139339,taurus-7,3080.707758
17.139339,taurus-12,1762.046353
17.139339,taurus-16,3063.612918
17.139339,taurus-4,3040.143327
17.139339,taurus-8,2907.259144
17.139339,taurus-13,3021.276036
17.139339,taurus-1,2905.352751
17.139339,taurus-5,3000.322550
17.139339,taurus-9,1541.675868
