time,hostname,power_consumption
21.191409,taurus-10,2146.449528
21.191409,taurus-14,3799.077694
21.191409,taurus-2,1906.157673
21.191409,taurus-6,3820.561123
21.191409,taurus-11,1882.720681
21.191409,taurus-15,1906.157673
21.191409,taurus-3,3808.335219
21.191409,taurus-7,3964.977816
21.191409,taurus-12,2178.627975
21.191409,taurus-16,3963.018615
21.191409,taurus-4,3857.776831
21.191409,taurus-8,3770.633434
21.191409,taurus-13,1914.621874
21.191409,taurus-1,1906.157673
21.191409,taurus-5,3808.427723
21.191409,taurus-9,1906.157673
