time,hostname,power_consumption
1118.569744,taurus-10,113298.437980
1118.569744,taurus-14,100266.075102
1118.569744,taurus-2,100614.845149
1118.569744,taurus-6,97458.334544
1118.569744,taurus-11,99377.744297
1118.569744,taurus-15,100614.845149
1118.569744,taurus-3,97883.707975
1118.569744,taurus-7,99750.805950
1118.569744,taurus-12,114996.948851
1118.569744,taurus-16,99879.441470
1118.569744,taurus-4,98938.426030
1118.569744,taurus-8,137938.079960
1118.569744,taurus-13,101061.620547
1118.569744,taurus-1,100614.845149
1118.569744,taurus-5,97198.416221
1118.569744,taurus-9,100614.845149
