time,hostname,power_consumption
110.109686,taurus-10,11152.863242
110.109686,taurus-14,9869.984471
110.109686,taurus-2,9904.316671
110.109686,taurus-6,9593.596314
110.109686,taurus-11,9782.539029
110.109686,taurus-15,9904.316671
110.109686,taurus-3,9635.469192
110.109686,taurus-7,9819.262444
110.109686,taurus-12,11320.061129
110.109686,taurus-16,9831.925058
110.109686,taurus-4,9739.293450
110.109686,taurus-8,21913.850793
110.109686,taurus-13,9948.296315
110.109686,taurus-1,9904.316671
110.109686,taurus-5,9568.010493
110.109686,taurus-9,9904.316671
