Sun Nov 20 00:10:16 2016<stdout>:
Sun Nov 20 00:10:16 2016<stdout>:
Sun Nov 20 00:10:16 2016<stdout>: NAS Parallel Benchmarks 3.3 -- LU Benchmark
Sun Nov 20 00:10:16 2016<stdout>:
Sun Nov 20 00:10:16 2016<stdout>: Size:  162x 162x 162
Sun Nov 20 00:10:16 2016<stdout>: Iterations:  250
Sun Nov 20 00:10:16 2016<stdout>: Number of processes:     4
Sun Nov 20 00:10:16 2016<stdout>:
Sun Nov 20 00:10:19 2016<stdout>: Time step    1
Sun Nov 20 00:10:41 2016<stdout>: Time step   20
Sun Nov 20 00:11:04 2016<stdout>: Time step   40
Sun Nov 20 00:11:27 2016<stdout>: Time step   60
Sun Nov 20 00:11:51 2016<stdout>: Time step   80
Sun Nov 20 00:12:14 2016<stdout>: Time step  100
Sun Nov 20 00:12:37 2016<stdout>: Time step  120
Sun Nov 20 00:13:00 2016<stdout>: Time step  140
Sun Nov 20 00:13:23 2016<stdout>: Time step  160
Sun Nov 20 00:13:47 2016<stdout>: Time step  180
Sun Nov 20 00:14:10 2016<stdout>: Time step  200
Sun Nov 20 00:14:33 2016<stdout>: Time step  220
Sun Nov 20 00:14:56 2016<stdout>: Time step  240
Sun Nov 20 00:15:08 2016<stdout>: Time step  250
Sun Nov 20 00:15:09 2016<stdout>:
Sun Nov 20 00:15:09 2016<stdout>: Verification being performed for class C
Sun Nov 20 00:15:09 2016<stdout>: Accuracy setting for epsilon =  0.1000000000000E-07
Sun Nov 20 00:15:09 2016<stdout>: Comparison of RMS-norms of residual
Sun Nov 20 00:15:09 2016<stdout>:           1   0.1037669803235E+05 0.1037669803235E+05 0.1928251489695E-14
Sun Nov 20 00:15:09 2016<stdout>:           2   0.8922124588010E+03 0.8922124588010E+03 0.6371063113958E-14
Sun Nov 20 00:15:09 2016<stdout>:           3   0.2562388145827E+04 0.2562388145827E+04 0.1064820764864E-13
Sun Nov 20 00:15:09 2016<stdout>:           4   0.2191943438578E+04 0.2191943438578E+04 0.3526872468061E-14
Sun Nov 20 00:15:09 2016<stdout>:           5   0.1780780572611E+05 0.1780780572611E+05 0.1634329962061E-14
Sun Nov 20 00:15:09 2016<stdout>: Comparison of RMS-norms of solution error
Sun Nov 20 00:15:09 2016<stdout>:           1   0.2159863997169E+03 0.2159863997169E+03 0.5395201217177E-14
Sun Nov 20 00:15:09 2016<stdout>:           2   0.1557895592399E+02 0.1557895592399E+02 0.1596319796586E-14
Sun Nov 20 00:15:09 2016<stdout>:           3   0.5413188630772E+02 0.5413188630772E+02 0.3937842097655E-15
Sun Nov 20 00:15:09 2016<stdout>:           4   0.4822626431540E+02 0.4822626431540E+02 0.6335414544627E-14
Sun Nov 20 00:15:09 2016<stdout>:           5   0.4559029100432E+03 0.4559029100433E+03 0.3241762352955E-14
Sun Nov 20 00:15:09 2016<stdout>: Comparison of surface integral
Sun Nov 20 00:15:09 2016<stdout>:               0.6664045535722E+02 0.6664045535722E+02 0.6397399885262E-15
Sun Nov 20 00:15:09 2016<stdout>: Verification Successful
Sun Nov 20 00:15:09 2016<stdout>:
Sun Nov 20 00:15:09 2016<stdout>:
Sun Nov 20 00:15:09 2016<stdout>: LU Benchmark Completed.
Sun Nov 20 00:15:09 2016<stdout>: Class           =                        C
Sun Nov 20 00:15:09 2016<stdout>: Size            =            162x 162x 162
Sun Nov 20 00:15:09 2016<stdout>: Iterations      =                      250
Sun Nov 20 00:15:09 2016<stdout>: Time in seconds =                   290.03
Sun Nov 20 00:15:09 2016<stdout>: Total processes =                        4
Sun Nov 20 00:15:09 2016<stdout>: Compiled procs  =                        4
Sun Nov 20 00:15:09 2016<stdout>: Mop/s total     =                  7030.27
Sun Nov 20 00:15:09 2016<stdout>: Mop/s/process   =                  1757.57
Sun Nov 20 00:15:09 2016<stdout>: Operation type  =           floating point
Sun Nov 20 00:15:09 2016<stdout>: Verification    =               SUCCESSFUL
Sun Nov 20 00:15:09 2016<stdout>: Version         =                    3.3.1
Sun Nov 20 00:15:09 2016<stdout>: Compile date    =              20 Nov 2016
Sun Nov 20 00:15:09 2016<stdout>:
Sun Nov 20 00:15:09 2016<stdout>: Compile options:
Sun Nov 20 00:15:09 2016<stdout>:    MPIF77       = mpif77
Sun Nov 20 00:15:09 2016<stdout>:    FLINK        = $(MPIF77)
Sun Nov 20 00:15:09 2016<stdout>:    FMPI_LIB     = -L/usr/lib -lmpi -lmpif77
Sun Nov 20 00:15:09 2016<stdout>:    FMPI_INC     = -I/usr/include
Sun Nov 20 00:15:09 2016<stdout>:    FFLAGS       = -O2 -fsecond-underscore
Sun Nov 20 00:15:09 2016<stdout>:    FLINKFLAGS   = -O2
Sun Nov 20 00:15:09 2016<stdout>:    RAND         = (none)
Sun Nov 20 00:15:09 2016<stdout>:
Sun Nov 20 00:15:09 2016<stdout>:
Sun Nov 20 00:15:09 2016<stdout>: Please send feedbacks and/or the results of this run to:
Sun Nov 20 00:15:09 2016<stdout>:
Sun Nov 20 00:15:09 2016<stdout>: NPB Development Team 
Sun Nov 20 00:15:09 2016<stdout>: Internet: npb@nas.nasa.gov
Sun Nov 20 00:15:09 2016<stdout>:
Sun Nov 20 00:15:09 2016<stdout>:
