[taurus-1.lyon.grid5000.fr:23540] System has detected external process binding to cores 0001
Sun Nov 20 09:32:30 2016<stderr>:[taurus-1.lyon.grid5000.fr:23540] MCW rank 11 bound to socket 0[core 0]: [B]
Sun Nov 20 09:32:30 2016<stderr>:[taurus-7.lyon.grid5000.fr:47814] MCW rank 1 bound to socket 0[core 0]: [B]
Sun Nov 20 09:32:30 2016<stderr>:[taurus-8.lyon.grid5000.fr:26913] MCW rank 0 bound to socket 0[core 0]: [B]
Sun Nov 20 09:32:30 2016<stderr>:[taurus-14.lyon.grid5000.fr:41253] MCW rank 7 bound to socket 0[core 0]: [B]
Sun Nov 20 09:32:30 2016<stderr>:[taurus-5.lyon.grid5000.fr:09133] MCW rank 3 bound to socket 0[core 0]: [B]
Sun Nov 20 09:32:30 2016<stderr>:[taurus-3.lyon.grid5000.fr:41363] MCW rank 5 bound to socket 0[core 0]: [B]
Sun Nov 20 09:32:30 2016<stderr>:[taurus-4.lyon.grid5000.fr:41337] MCW rank 4 bound to socket 0[core 0]: [B]
Sun Nov 20 09:32:30 2016<stderr>:[taurus-6.lyon.grid5000.fr:09053] MCW rank 2 bound to socket 0[core 0]: [B]
Sun Nov 20 09:32:30 2016<stderr>:[taurus-11.lyon.grid5000.fr:24793] MCW rank 9 bound to socket 0[core 0]: [B]
Sun Nov 20 09:32:30 2016<stderr>:[taurus-13.lyon.grid5000.fr:24802] MCW rank 8 bound to socket 0[core 0]: [B]
Sun Nov 20 09:32:30 2016<stderr>:[taurus-16.lyon.grid5000.fr:41274] MCW rank 6 bound to socket 0[core 0]: [B]
Sun Nov 20 09:32:30 2016<stderr>:[taurus-10.lyon.grid5000.fr:24678] MCW rank 10 bound to socket 0[core 0]: [B]
