Tue Jan 17 01:24:52 2017<stdout>:================================================================================
Tue Jan 17 01:24:52 2017<stdout>:HPLinpack 2.2  --  High-Performance Linpack benchmark  --   February 24, 2016
Tue Jan 17 01:24:52 2017<stdout>:Written by A. Petitet and R. Clint Whaley,  Innovative Computing Laboratory, UTK
Tue Jan 17 01:24:52 2017<stdout>:Modified by Piotr Luszczek, Innovative Computing Laboratory, UTK
Tue Jan 17 01:24:52 2017<stdout>:Modified by Julien Langou, University of Colorado Denver
Tue Jan 17 01:24:52 2017<stdout>:================================================================================
Tue Jan 17 01:24:52 2017<stdout>:
Tue Jan 17 01:24:52 2017<stdout>:An explanation of the input/output parameters follows:
Tue Jan 17 01:24:52 2017<stdout>:T/V    : Wall time / encoded variant.
Tue Jan 17 01:24:52 2017<stdout>:N      : The order of the coefficient matrix A.
Tue Jan 17 01:24:52 2017<stdout>:NB     : The partitioning blocking factor.
Tue Jan 17 01:24:52 2017<stdout>:P      : The number of process rows.
Tue Jan 17 01:24:52 2017<stdout>:Q      : The number of process columns.
Tue Jan 17 01:24:52 2017<stdout>:Time   : Time in seconds to solve the linear system.
Tue Jan 17 01:24:52 2017<stdout>:Gflops : Rate of execution for solving the linear system.
Tue Jan 17 01:24:52 2017<stdout>:
Tue Jan 17 01:24:52 2017<stdout>:The following parameter values will be used:
Tue Jan 17 01:24:52 2017<stdout>:
Tue Jan 17 01:24:52 2017<stdout>:N      :   20000 
Tue Jan 17 01:24:52 2017<stdout>:
Tue Jan 17 01:24:52 2017<stdout>:NB     :     120 
Tue Jan 17 01:24:52 2017<stdout>:PMAP   : Row-major process mapping
Tue Jan 17 01:24:52 2017<stdout>:P      :      12 
Tue Jan 17 01:24:52 2017<stdout>:Q      :       8 
Tue Jan 17 01:24:52 2017<stdout>:PFACT  :    Left    Crout    Right 
Tue Jan 17 01:24:52 2017<stdout>:NBMIN  :
Tue Jan 17 01:24:52 2017<stdout>:       2        4 
Tue Jan 17 01:24:52 2017<stdout>:NDIV   :       2 
Tue Jan 17 01:24:52 2017<stdout>:RFACT  :    Left    Crout    Right 
Tue Jan 17 01:24:52 2017<stdout>:
Tue Jan 17 01:24:52 2017<stdout>:BCAST  :   1ring 
Tue Jan 17 01:24:52 2017<stdout>:DEPTH  :       0 
Tue Jan 17 01:24:52 2017<stdout>:SWAP   : Mix (threshold = 64)
Tue Jan 17 01:24:52 2017<stdout>:
Tue Jan 17 01:24:52 2017<stdout>:L1     : transposed form
Tue Jan 17 01:24:52 2017<stdout>:U      : transposed form
Tue Jan 17 01:24:52 2017<stdout>:EQUIL  : yes
Tue Jan 17 01:24:52 2017<stdout>:
Tue Jan 17 01:24:52 2017<stdout>:ALIGN  : 8 double precision words
Tue Jan 17 01:24:52 2017<stdout>:
Tue Jan 17 01:24:52 2017<stdout>:--------------------------------------------------------------------------------
Tue Jan 17 01:24:52 2017<stdout>:
Tue Jan 17 01:24:52 2017<stdout>:- The matrix A is randomly generated for each test.
Tue Jan 17 01:24:52 2017<stdout>:- The following scaled residual check will be computed:
Tue Jan 17 01:24:52 2017<stdout>:      ||Ax-b||_oo / ( eps * ( || x ||_oo * || A ||_oo + || b ||_oo ) * N )
Tue Jan 17 01:24:52 2017<stdout>:- The relative machine precision (eps) is taken to be               1.110223e-16
Tue Jan 17 01:24:52 2017<stdout>:- Computational tests pass if scaled residuals are less than                16.0
Tue Jan 17 01:24:52 2017<stdout>:
Tue Jan 17 01:25:18 2017<stdout>:================================================================================
Tue Jan 17 01:25:18 2017<stdout>:T/V                N    NB     P     Q               Time                 Gflops
Tue Jan 17 01:25:18 2017<stdout>:--------------------------------------------------------------------------------
Tue Jan 17 01:25:18 2017<stdout>:WR00L2L2       20000   120    12     8              25.26              2.111e+02
Tue Jan 17 01:25:18 2017<stdout>:HPL_pdgesv() start time Tue Jan 17 01:24:53 2017
Tue Jan 17 01:25:18 2017<stdout>:
Tue Jan 17 01:25:18 2017<stdout>:HPL_pdgesv() end time   Tue Jan 17 01:25:18 2017
Tue Jan 17 01:25:18 2017<stdout>:
Tue Jan 17 01:25:18 2017<stdout>:--------------------------------------------------------------------------------
Tue Jan 17 01:25:18 2017<stdout>:||Ax-b||_oo/(eps*(||A||_oo*||x||_oo+||b||_oo)*N)=        0.0008339 ...... PASSED
Tue Jan 17 01:25:18 2017<stdout>:||Ax-b||_oo  . . . . . . . . . . . . . . . . . =           0.000000
Tue Jan 17 01:25:18 2017<stdout>:||A||_oo . . . . . . . . . . . . . . . . . . . =        5077.970709
Tue Jan 17 01:25:18 2017<stdout>:||A||_1  . . . . . . . . . . . . . . . . . . . =        5073.290150
Tue Jan 17 01:25:18 2017<stdout>:||x||_oo . . . . . . . . . . . . . . . . . . . =          14.024664
Tue Jan 17 01:25:18 2017<stdout>:||x||_1  . . . . . . . . . . . . . . . . . . . =       50326.296352
Tue Jan 17 01:25:18 2017<stdout>:||b||_oo . . . . . . . . . . . . . . . . . . . =           0.499989
