[taurus-1.lyon.grid5000.fr:18438] System has detected external process binding to cores 0001
Sun Nov 20 06:15:21 2016<stderr>:[taurus-5.lyon.grid5000.fr:07495] MCW rank 3 bound to socket 0[core 0]: [B]
Sun Nov 20 06:15:21 2016<stderr>:[taurus-8.lyon.grid5000.fr:24915] MCW rank 0 bound to socket 0[core 0]: [B]
Sun Nov 20 06:15:21 2016<stderr>:[taurus-7.lyon.grid5000.fr:46177] MCW rank 1 bound to socket 0[core 0]: [B]
Sun Nov 20 06:15:21 2016<stderr>:[taurus-6.lyon.grid5000.fr:07441] MCW rank 2 bound to socket 0[core 0]: [B]
