Sun Nov 20 00:33:39 2016<stderr>:[taurus-5.lyon.grid5000.fr:02763] MCW rank 12 bound to socket 0[core 0]: [B .][. .]
Sun Nov 20 00:33:39 2016<stderr>:[taurus-5.lyon.grid5000.fr:02763] MCW rank 13 bound to socket 0[core 1]: [. B][. .]
Sun Nov 20 00:33:39 2016<stderr>:[taurus-5.lyon.grid5000.fr:02763] MCW rank 14 bound to socket 1[core 0]: [. .][B .]
Sun Nov 20 00:33:39 2016<stderr>:[taurus-5.lyon.grid5000.fr:02763] MCW rank 15 bound to socket 1[core 1]: [. .][. B]
Sun Nov 20 00:33:39 2016<stderr>:[taurus-8.lyon.grid5000.fr:18788] MCW rank 0 bound to socket 0[core 0]: [B .][. .]
Sun Nov 20 00:33:39 2016<stderr>:[taurus-8.lyon.grid5000.fr:18788] MCW rank 1 bound to socket 0[core 1]: [. B][. .]
Sun Nov 20 00:33:39 2016<stderr>:[taurus-8.lyon.grid5000.fr:18788] MCW rank 2 bound to socket 1[core 0]: [. .][B .]
Sun Nov 20 00:33:39 2016<stderr>:[taurus-8.lyon.grid5000.fr:18788] MCW rank 3 bound to socket 1[core 1]: [. .][. B]
Sun Nov 20 00:33:39 2016<stderr>:[taurus-7.lyon.grid5000.fr:41442] MCW rank 4 bound to socket 0[core 0]: [B .][. .]
Sun Nov 20 00:33:39 2016<stderr>:[taurus-7.lyon.grid5000.fr:41442] MCW rank 5 bound to socket 0[core 1]: [. B][. .]
Sun Nov 20 00:33:39 2016<stderr>:[taurus-7.lyon.grid5000.fr:41442] MCW rank 6 bound to socket 1[core 0]: [. .][B .]
Sun Nov 20 00:33:39 2016<stderr>:[taurus-7.lyon.grid5000.fr:41442] MCW rank 7 bound to socket 1[core 1]: [. .][. B]
Sun Nov 20 00:33:39 2016<stderr>:[taurus-6.lyon.grid5000.fr:02682] MCW rank 10 bound to socket 1[core 0]: [. .][B .]
Sun Nov 20 00:33:39 2016<stderr>:[taurus-6.lyon.grid5000.fr:02682] MCW rank 11 bound to socket 1[core 1]: [. .][. B]
Sun Nov 20 00:33:39 2016<stderr>:[taurus-6.lyon.grid5000.fr:02682] MCW rank 8 bound to socket 0[core 0]: [B .][. .]
Sun Nov 20 00:33:39 2016<stderr>:[taurus-6.lyon.grid5000.fr:02682] MCW rank 9 bound to socket 0[core 1]: [. B][. .]
