Sun Oct  2 10:13:38 2016<stdout>:
Sun Oct  2 10:13:38 2016<stdout>:
Sun Oct  2 10:13:38 2016<stdout>: NAS Parallel Benchmarks 3.3 -- LU Benchmark
Sun Oct  2 10:13:38 2016<stdout>:
Sun Oct  2 10:13:38 2016<stdout>: Size:  162x 162x 162
Sun Oct  2 10:13:38 2016<stdout>: Iterations:  250
Sun Oct  2 10:13:38 2016<stdout>: Number of processes:    16
Sun Oct  2 10:13:38 2016<stdout>:
Sun Oct  2 10:13:39 2016<stdout>: Time step    1
Sun Oct  2 10:13:47 2016<stdout>: Time step   20
Sun Oct  2 10:13:56 2016<stdout>: Time step   40
Sun Oct  2 10:14:05 2016<stdout>: Time step   60
Sun Oct  2 10:14:13 2016<stdout>: Time step   80
Sun Oct  2 10:14:22 2016<stdout>: Time step  100
Sun Oct  2 10:14:31 2016<stdout>: Time step  120
Sun Oct  2 10:14:39 2016<stdout>: Time step  140
Sun Oct  2 10:14:48 2016<stdout>: Time step  160
Sun Oct  2 10:14:57 2016<stdout>: Time step  180
Sun Oct  2 10:15:05 2016<stdout>: Time step  200
Sun Oct  2 10:15:14 2016<stdout>: Time step  220
Sun Oct  2 10:15:23 2016<stdout>: Time step  240
Sun Oct  2 10:15:27 2016<stdout>: Time step  250
Sun Oct  2 10:15:27 2016<stdout>:
Sun Oct  2 10:15:27 2016<stdout>: Verification being performed for class C
Sun Oct  2 10:15:27 2016<stdout>: Accuracy setting for epsilon =  0.1000000000000E-07
Sun Oct  2 10:15:27 2016<stdout>: Comparison of RMS-norms of residual
Sun Oct  2 10:15:27 2016<stdout>:           1   0.1037669803235E+05 0.1037669803235E+05 0.7011823598892E-15
Sun Oct  2 10:15:27 2016<stdout>:           2   0.8922124588010E+03 0.8922124588010E+03 0.8919488359541E-15
Sun Oct  2 10:15:27 2016<stdout>:           3   0.2562388145827E+04 0.2562388145827E+04 0.1952171402252E-14
Sun Oct  2 10:15:27 2016<stdout>:           4   0.2191943438578E+04 0.2191943438578E+04 0.1037315431783E-14
Sun Oct  2 10:15:27 2016<stdout>:           5   0.1780780572611E+05 0.1780780572611E+05 0.1634329962061E-14
Sun Oct  2 10:15:27 2016<stdout>: Comparison of RMS-norms of solution error
Sun Oct  2 10:15:27 2016<stdout>:           1   0.2159863997169E+03 0.2159863997169E+03 0.1973854103845E-14
Sun Oct  2 10:15:27 2016<stdout>:           2   0.1557895592399E+02 0.1557895592399E+02 0.4332868019305E-14
Sun Oct  2 10:15:27 2016<stdout>:           3   0.5413188630772E+02 0.5413188630772E+02 0.1181352629297E-14
Sun Oct  2 10:15:27 2016<stdout>:           4   0.4822626431540E+02 0.4822626431540E+02 0.3388710105266E-14
Sun Oct  2 10:15:27 2016<stdout>:           5   0.4559029100433E+03 0.4559029100433E+03 0.4114544524905E-14
Sun Oct  2 10:15:27 2016<stdout>: Comparison of surface integral
Sun Oct  2 10:15:27 2016<stdout>:               0.6664045535722E+02 0.6664045535722E+02 0.1279479977052E-14
Sun Oct  2 10:15:27 2016<stdout>: Verification Successful
Sun Oct  2 10:15:27 2016<stdout>:
Sun Oct  2 10:15:27 2016<stdout>:
Sun Oct  2 10:15:27 2016<stdout>: LU Benchmark Completed.
Sun Oct  2 10:15:27 2016<stdout>: Class           =                        C
Sun Oct  2 10:15:27 2016<stdout>: Size            =            162x 162x 162
Sun Oct  2 10:15:27 2016<stdout>: Iterations      =                      250
Sun Oct  2 10:15:27 2016<stdout>: Time in seconds =                   108.30
Sun Oct  2 10:15:27 2016<stdout>: Total processes =                       16
Sun Oct  2 10:15:27 2016<stdout>: Compiled procs  =                       16
Sun Oct  2 10:15:27 2016<stdout>: Mop/s total     =                 18827.77
Sun Oct  2 10:15:27 2016<stdout>: Mop/s/process   =                  1176.74
Sun Oct  2 10:15:27 2016<stdout>: Operation type  =           floating point
Sun Oct  2 10:15:27 2016<stdout>: Verification    =               SUCCESSFUL
Sun Oct  2 10:15:27 2016<stdout>: Version         =                    3.3.1
Sun Oct  2 10:15:27 2016<stdout>: Compile date    =              02 Oct 2016
Sun Oct  2 10:15:27 2016<stdout>:
Sun Oct  2 10:15:27 2016<stdout>: Compile options:
Sun Oct  2 10:15:27 2016<stdout>:    MPIF77       = mpif77
Sun Oct  2 10:15:27 2016<stdout>:    FLINK        = $(MPIF77)
Sun Oct  2 10:15:27 2016<stdout>:    FMPI_LIB     = -L/usr/lib -lmpi -lmpif77
Sun Oct  2 10:15:27 2016<stdout>:    FMPI_INC     = -I/usr/include
Sun Oct  2 10:15:27 2016<stdout>:    FFLAGS       = -O2 -fsecond-underscore
Sun Oct  2 10:15:27 2016<stdout>:    FLINKFLAGS   = -O2
Sun Oct  2 10:15:27 2016<stdout>:    RAND         = (none)
Sun Oct  2 10:15:27 2016<stdout>:
Sun Oct  2 10:15:27 2016<stdout>:
Sun Oct  2 10:15:27 2016<stdout>: Please send feedbacks and/or the results of this run to:
Sun Oct  2 10:15:27 2016<stdout>:
Sun Oct  2 10:15:27 2016<stdout>: NPB Development Team 
Sun Oct  2 10:15:27 2016<stdout>: Internet: npb@nas.nasa.gov
Sun Oct  2 10:15:27 2016<stdout>:
Sun Oct  2 10:15:27 2016<stdout>:
