time,hostname,power_consumption
12.315175,taurus-10,1166.862805
12.315175,taurus-14,1166.862805
12.315175,taurus-2,1166.862805
12.315175,taurus-6,2192.909861
12.315175,taurus-11,1166.862805
12.315175,taurus-15,1166.862805
12.315175,taurus-3,1166.862805
12.315175,taurus-7,2193.201319
12.315175,taurus-12,1166.862805
12.315175,taurus-16,1166.862805
12.315175,taurus-4,1166.862805
12.315175,taurus-8,2193.806258
12.315175,taurus-13,1166.862805
12.315175,taurus-1,1166.862805
12.315175,taurus-5,2193.017583
12.315175,taurus-9,1166.862805
