time,hostname,power_consumption
48.919441,taurus-10,4635.117064
48.919441,taurus-14,4635.117064
48.919441,taurus-2,4635.117064
48.919441,taurus-6,4635.117064
48.919441,taurus-11,4635.117064
48.919441,taurus-15,4635.117064
48.919441,taurus-3,4635.117064
48.919441,taurus-7,4635.117064
48.919441,taurus-12,4635.117064
48.919441,taurus-16,4635.117064
48.919441,taurus-4,4635.117064
48.919441,taurus-8,8740.201926
48.919441,taurus-13,4635.117064
48.919441,taurus-1,4635.117064
48.919441,taurus-5,4635.117064
48.919441,taurus-9,4635.117064
