[flyon.lyon.grid5000.fr:11633] System has detected external process binding to cores 0001
Sat Nov 19 17:07:15 2016<stderr>:[taurus-8.lyon.grid5000.fr:01870] MCW rank 0 bound to socket 0[core 0]: [B .][. .]
Sat Nov 19 17:07:15 2016<stderr>:[taurus-8.lyon.grid5000.fr:01870] MCW rank 1 bound to socket 0[core 1]: [. B][. .]
Sat Nov 19 17:07:15 2016<stderr>:[taurus-8.lyon.grid5000.fr:01870] MCW rank 2 bound to socket 1[core 0]: [. .][B .]
Sat Nov 19 17:07:15 2016<stderr>:[taurus-8.lyon.grid5000.fr:01870] MCW rank 3 bound to socket 1[core 1]: [. .][. B]
