Sun Nov 20 02:28:45 2016<stdout>:
Sun Nov 20 02:28:45 2016<stdout>:
Sun Nov 20 02:28:45 2016<stdout>: NAS Parallel Benchmarks 3.3 -- LU Benchmark
Sun Nov 20 02:28:45 2016<stdout>:
Sun Nov 20 02:28:45 2016<stdout>: Size:  162x 162x 162
Sun Nov 20 02:28:45 2016<stdout>: Iterations:  250
Sun Nov 20 02:28:45 2016<stdout>: Number of processes:     1
Sun Nov 20 02:28:45 2016<stdout>:
Sun Nov 20 02:28:58 2016<stdout>: Time step    1
Sun Nov 20 02:30:26 2016<stdout>: Time step   20
Sun Nov 20 02:31:59 2016<stdout>: Time step   40
Sun Nov 20 02:33:32 2016<stdout>: Time step   60
Sun Nov 20 02:35:05 2016<stdout>: Time step   80
Sun Nov 20 02:36:37 2016<stdout>: Time step  100
Sun Nov 20 02:38:10 2016<stdout>: Time step  120
Sun Nov 20 02:39:43 2016<stdout>: Time step  140
Sun Nov 20 02:41:16 2016<stdout>: Time step  160
Sun Nov 20 02:42:49 2016<stdout>: Time step  180
Sun Nov 20 02:44:22 2016<stdout>: Time step  200
Sun Nov 20 02:45:55 2016<stdout>: Time step  220
Sun Nov 20 02:47:28 2016<stdout>: Time step  240
Sun Nov 20 02:48:14 2016<stdout>: Time step  250
Sun Nov 20 02:48:19 2016<stdout>:
Sun Nov 20 02:48:19 2016<stdout>: Verification being performed for class C
Sun Nov 20 02:48:19 2016<stdout>: Accuracy setting for epsilon =  0.1000000000000E-07
Sun Nov 20 02:48:19 2016<stdout>: Comparison of RMS-norms of residual
Sun Nov 20 02:48:19 2016<stdout>:           1   0.1037669803235E+05 0.1037669803235E+05 0.3330616209474E-14
Sun Nov 20 02:48:19 2016<stdout>:           2   0.8922124588010E+03 0.8922124588010E+03 0.7517854474470E-14
Sun Nov 20 02:48:19 2016<stdout>:           3   0.2562388145827E+04 0.2562388145827E+04 0.1419761019819E-13
Sun Nov 20 02:48:19 2016<stdout>:           4   0.2191943438578E+04 0.2191943438578E+04 0.7676134195193E-14
Sun Nov 20 02:48:19 2016<stdout>:           5   0.1780780572611E+05 0.1780780572611E+05 0.3350376422225E-13
Sun Nov 20 02:48:19 2016<stdout>: Comparison of RMS-norms of solution error
Sun Nov 20 02:48:19 2016<stdout>:           1   0.2159863997170E+03 0.2159863997169E+03 0.2105444377435E-13
Sun Nov 20 02:48:19 2016<stdout>:           2   0.1557895592399E+02 0.1557895592399E+02 0.1334067258576E-13
Sun Nov 20 02:48:19 2016<stdout>:           3   0.5413188630772E+02 0.5413188630772E+02 0.2625228065103E-14
Sun Nov 20 02:48:19 2016<stdout>:           4   0.4822626431540E+02 0.4822626431540E+02 0.1768022663617E-14
Sun Nov 20 02:48:19 2016<stdout>:           5   0.4559029100433E+03 0.4559029100433E+03 0.3715558389157E-13
Sun Nov 20 02:48:19 2016<stdout>: Comparison of surface integral
Sun Nov 20 02:48:19 2016<stdout>:               0.6664045535722E+02 0.6664045535722E+02 0.2132466628421E-15
Sun Nov 20 02:48:19 2016<stdout>: Verification Successful
Sun Nov 20 02:48:19 2016<stdout>:
Sun Nov 20 02:48:19 2016<stdout>:
Sun Nov 20 02:48:19 2016<stdout>: LU Benchmark Completed.
Sun Nov 20 02:48:19 2016<stdout>: Class           =                        C
Sun Nov 20 02:48:19 2016<stdout>: Size            =            162x 162x 162
Sun Nov 20 02:48:19 2016<stdout>: Iterations      =                      250
Sun Nov 20 02:48:19 2016<stdout>: Time in seconds =                  1161.13
Sun Nov 20 02:48:19 2016<stdout>: Total processes =                        1
Sun Nov 20 02:48:19 2016<stdout>: Compiled procs  =                        1
Sun Nov 20 02:48:19 2016<stdout>: Mop/s total     =                  1756.04
Sun Nov 20 02:48:19 2016<stdout>: Mop/s/process   =                  1756.04
Sun Nov 20 02:48:19 2016<stdout>: Operation type  =           floating point
Sun Nov 20 02:48:19 2016<stdout>: Verification    =               SUCCESSFUL
Sun Nov 20 02:48:19 2016<stdout>: Version         =                    3.3.1
Sun Nov 20 02:48:19 2016<stdout>: Compile date    =              20 Nov 2016
Sun Nov 20 02:48:19 2016<stdout>:
Sun Nov 20 02:48:19 2016<stdout>: Compile options:
Sun Nov 20 02:48:19 2016<stdout>:    MPIF77       = mpif77
Sun Nov 20 02:48:19 2016<stdout>:    FLINK        = $(MPIF77)
Sun Nov 20 02:48:19 2016<stdout>:    FMPI_LIB     = -L/usr/lib -lmpi -lmpif77
Sun Nov 20 02:48:19 2016<stdout>:    FMPI_INC     = -I/usr/include
Sun Nov 20 02:48:19 2016<stdout>:    FFLAGS       = -O2 -fsecond-underscore
Sun Nov 20 02:48:19 2016<stdout>:    FLINKFLAGS   = -O2
Sun Nov 20 02:48:19 2016<stdout>:    RAND         = (none)
Sun Nov 20 02:48:19 2016<stdout>:
Sun Nov 20 02:48:19 2016<stdout>:
Sun Nov 20 02:48:19 2016<stdout>: Please send feedbacks and/or the results of this run to:
Sun Nov 20 02:48:19 2016<stdout>:
Sun Nov 20 02:48:19 2016<stdout>: NPB Development Team 
Sun Nov 20 02:48:19 2016<stdout>: Internet: npb@nas.nasa.gov
Sun Nov 20 02:48:19 2016<stdout>:
Sun Nov 20 02:48:19 2016<stdout>:
