Fri Oct 14 20:33:54 2016<stdout>:
Fri Oct 14 20:33:54 2016<stdout>:
Fri Oct 14 20:33:54 2016<stdout>: NAS Parallel Benchmarks 3.3 -- LU Benchmark
Fri Oct 14 20:33:54 2016<stdout>:
Fri Oct 14 20:33:54 2016<stdout>: Size:  162x 162x 162
Fri Oct 14 20:33:54 2016<stdout>: Iterations:  250
Fri Oct 14 20:33:54 2016<stdout>: Number of processes:    96
Fri Oct 14 20:33:54 2016<stdout>:
Fri Oct 14 20:33:54 2016<stdout>: Proc_grid for nprocs =    96:   12 x    8
Fri Oct 14 20:33:54 2016<stdout>: Time step    1
Fri Oct 14 20:33:56 2016<stdout>: Time step   20
Fri Oct 14 20:33:58 2016<stdout>: Time step   40
Fri Oct 14 20:34:00 2016<stdout>: Time step   60
Fri Oct 14 20:34:02 2016<stdout>: Time step   80
Fri Oct 14 20:34:04 2016<stdout>: Time step  100
Fri Oct 14 20:34:06 2016<stdout>: Time step  120
Fri Oct 14 20:34:07 2016<stdout>: Time step  140
Fri Oct 14 20:34:09 2016<stdout>: Time step  160
Fri Oct 14 20:34:11 2016<stdout>: Time step  180
Fri Oct 14 20:34:13 2016<stdout>: Time step  200
Fri Oct 14 20:34:15 2016<stdout>: Time step  220
Fri Oct 14 20:34:17 2016<stdout>: Time step  240
Fri Oct 14 20:34:18 2016<stdout>: Time step  250
Fri Oct 14 20:34:18 2016<stdout>:
Fri Oct 14 20:34:18 2016<stdout>: Verification being performed for class C
Fri Oct 14 20:34:18 2016<stdout>: Accuracy setting for epsilon =  0.1000000000000E-07
Fri Oct 14 20:34:18 2016<stdout>: Comparison of RMS-norms of residual
Fri Oct 14 20:34:18 2016<stdout>:           1   0.1037669803235E+05 0.1037669803235E+05 0.5258867699169E-15
Fri Oct 14 20:34:18 2016<stdout>:           2   0.8922124588010E+03 0.8922124588010E+03 0.1401633885071E-14
Fri Oct 14 20:34:18 2016<stdout>:           3   0.2562388145827E+04 0.2562388145827E+04 0.3549402549548E-15
Fri Oct 14 20:34:18 2016<stdout>:           4   0.2191943438578E+04 0.2191943438578E+04 0.2074630863566E-15
Fri Oct 14 20:34:18 2016<stdout>:           5   0.1780780572611E+05 0.1780780572611E+05 0.4085824905152E-15
Fri Oct 14 20:34:18 2016<stdout>: Comparison of RMS-norms of solution error
Fri Oct 14 20:34:18 2016<stdout>:           1   0.2159863997169E+03 0.2159863997169E+03 0.7895416415381E-15
Fri Oct 14 20:34:18 2016<stdout>:           2   0.1557895592399E+02 0.1557895592399E+02 0.4560913704532E-15
Fri Oct 14 20:34:18 2016<stdout>:           3   0.5413188630772E+02 0.5413188630772E+02 0.1312614032552E-14
Fri Oct 14 20:34:18 2016<stdout>:           4   0.4822626431540E+02 0.4822626431540E+02 0.4420056659042E-15
Fri Oct 14 20:34:18 2016<stdout>:           5   0.4559029100433E+03 0.4559029100433E+03 0.1870247511320E-14
Fri Oct 14 20:34:18 2016<stdout>: Comparison of surface integral
Fri Oct 14 20:34:18 2016<stdout>:               0.6664045535722E+02 0.6664045535722E+02 0.1066233314210E-14
Fri Oct 14 20:34:18 2016<stdout>: Verification Successful
Fri Oct 14 20:34:18 2016<stdout>:
Fri Oct 14 20:34:18 2016<stdout>:
Fri Oct 14 20:34:18 2016<stdout>: LU Benchmark Completed.
Fri Oct 14 20:34:18 2016<stdout>: Class           =                        C
Fri Oct 14 20:34:18 2016<stdout>: Size            =            162x 162x 162
Fri Oct 14 20:34:18 2016<stdout>: Iterations      =                      250
Fri Oct 14 20:34:18 2016<stdout>: Time in seconds =                    23.35
Fri Oct 14 20:34:18 2016<stdout>: Total processes =                       96
Fri Oct 14 20:34:18 2016<stdout>: Compiled procs  =                       96
Fri Oct 14 20:34:18 2016<stdout>: Mop/s total     =                 87318.36
Fri Oct 14 20:34:18 2016<stdout>: Mop/s/process   =                   909.57
Fri Oct 14 20:34:18 2016<stdout>: Operation type  =           floating point
Fri Oct 14 20:34:18 2016<stdout>: Verification    =               SUCCESSFUL
Fri Oct 14 20:34:18 2016<stdout>: Version         =                    3.3.1
Fri Oct 14 20:34:18 2016<stdout>: Compile date    =              14 Oct 2016
Fri Oct 14 20:34:18 2016<stdout>:
Fri Oct 14 20:34:18 2016<stdout>: Compile options:
Fri Oct 14 20:34:18 2016<stdout>:    MPIF77       = mpif77
Fri Oct 14 20:34:18 2016<stdout>:    FLINK        = $(MPIF77)
Fri Oct 14 20:34:18 2016<stdout>:    FMPI_LIB     = -L/usr/lib -lmpi -lmpif77
Fri Oct 14 20:34:18 2016<stdout>:    FMPI_INC     = -I/usr/include
Fri Oct 14 20:34:18 2016<stdout>:    FFLAGS       = -O2 -fsecond-underscore
Fri Oct 14 20:34:18 2016<stdout>:    FLINKFLAGS   = -O2
Fri Oct 14 20:34:18 2016<stdout>:    RAND         = (none)
Fri Oct 14 20:34:18 2016<stdout>:
Fri Oct 14 20:34:18 2016<stdout>:
Fri Oct 14 20:34:18 2016<stdout>: Please send feedbacks and/or the results of this run to:
Fri Oct 14 20:34:18 2016<stdout>:
Fri Oct 14 20:34:18 2016<stdout>: NPB Development Team 
Fri Oct 14 20:34:18 2016<stdout>: Internet: npb@nas.nasa.gov
Fri Oct 14 20:34:18 2016<stdout>:
Fri Oct 14 20:34:18 2016<stdout>:
