[flyon.lyon.grid5000.fr:09499] System has detected external process binding to cores 0001
Tue Jan 17 01:14:41 2017<stderr>:[taurus-5.lyon.grid5000.fr:08692] MCW rank 37 bound to socket 0[core 1]: [. B . . . .][. . . . . .]
Tue Jan 17 01:14:41 2017<stderr>:[taurus-8.lyon.grid5000.fr:10744] MCW rank 8 bound to socket 1[core 2]: [. . . . . .][. . B . . .]
Tue Jan 17 01:14:41 2017<stderr>:[taurus-5.lyon.grid5000.fr:08692] MCW rank 38 bound to socket 0[core 2]: [. . B . . .][. . . . . .]
Tue Jan 17 01:14:41 2017<stderr>:[taurus-8.lyon.grid5000.fr:10744] MCW rank 9 bound to socket 1[core 3]: [. . . . . .][. . . B . .]
Tue Jan 17 01:14:41 2017<stderr>:[taurus-5.lyon.grid5000.fr:08692] MCW rank 39 bound to socket 0[core 3]: [. . . B . .][. . . . . .]
Tue Jan 17 01:14:41 2017<stderr>:[taurus-8.lyon.grid5000.fr:10744] MCW rank 10 bound to socket 1[core 4]: [. . . . . .][. . . . B .]
Tue Jan 17 01:14:41 2017<stderr>:[taurus-5.lyon.grid5000.fr:08692] MCW rank 40 bound to socket 0[core 4]: [. . . . B .][. . . . . .]
Tue Jan 17 01:14:41 2017<stderr>:[taurus-5.lyon.grid5000.fr:08692] MCW rank 41 bound to socket 0[core 5]: [. . . . . B][. . . . . .]
Tue Jan 17 01:14:41 2017<stderr>:[taurus-8.lyon.grid5000.fr:10744] MCW rank 11 bound to socket 1[core 5]: [. . . . . .][. . . . . B]
Tue Jan 17 01:14:41 2017<stderr>:[taurus-8.lyon.grid5000.fr:10744] MCW rank 0 bound to socket 0[core 0]: [B . . . . .][. . . . . .]
Tue Jan 17 01:14:41 2017<stderr>:[taurus-5.lyon.grid5000.fr:08692] MCW rank 42 bound to socket 1[core 0]: [. . . . . .][B . . . . .]
Tue Jan 17 01:14:41 2017<stderr>:[taurus-5.lyon.grid5000.fr:08692] MCW rank 43 bound to socket 1[core 1]: [. . . . . .][. B . . . .]
Tue Jan 17 01:14:41 2017<stderr>:[taurus-8.lyon.grid5000.fr:10744] MCW rank 1 bound to socket 0[core 1]: [. B . . . .][. . . . . .]
Tue Jan 17 01:14:41 2017<stderr>:[taurus-8.lyon.grid5000.fr:10744] MCW rank 2 bound to socket 0[core 2]: [. . B . . .][. . . . . .]
Tue Jan 17 01:14:41 2017<stderr>:[taurus-5.lyon.grid5000.fr:08692] MCW rank 44 bound to socket 1[core 2]: [. . . . . .][. . B . . .]
Tue Jan 17 01:14:41 2017<stderr>:[taurus-8.lyon.grid5000.fr:10744] MCW rank 3 bound to socket 0[core 3]: [. . . B . .][. . . . . .]
Tue Jan 17 01:14:41 2017<stderr>:[taurus-5.lyon.grid5000.fr:08692] MCW rank 45 bound to socket 1[core 3]: [. . . . . .][. . . B . .]
Tue Jan 17 01:14:41 2017<stderr>:[taurus-7.lyon.grid5000.fr:08811] MCW rank 13 bound to socket 0[core 1]: [. B . . . .][. . . . . .]
Tue Jan 17 01:14:41 2017<stderr>:[taurus-8.lyon.grid5000.fr:10744] MCW rank 4 bound to socket 0[core 4]: [. . . . B .][. . . . . .]
Tue Jan 17 01:14:41 2017<stderr>:[taurus-5.lyon.grid5000.fr:08692] MCW rank 46 bound to socket 1[core 4]: [. . . . . .][. . . . B .]
Tue Jan 17 01:14:41 2017<stderr>:[taurus-7.lyon.grid5000.fr:08811] MCW rank 14 bound to socket 0[core 2]: [. . B . . .][. . . . . .]
Tue Jan 17 01:14:41 2017<stderr>:[taurus-7.lyon.grid5000.fr:08811] MCW rank 15 bound to socket 0[core 3]: [. . . B . .][. . . . . .]
Tue Jan 17 01:14:41 2017<stderr>:[taurus-8.lyon.grid5000.fr:10744] MCW rank 5 bound to socket 0[core 5]: [. . . . . B][. . . . . .]
Tue Jan 17 01:14:41 2017<stderr>:[taurus-5.lyon.grid5000.fr:08692] MCW rank 47 bound to socket 1[core 5]: [. . . . . .][. . . . . B]
Tue Jan 17 01:14:41 2017<stderr>:[taurus-7.lyon.grid5000.fr:08811] MCW rank 16 bound to socket 0[core 4]: [. . . . B .][. . . . . .]
Tue Jan 17 01:14:41 2017<stderr>:[taurus-8.lyon.grid5000.fr:10744] MCW rank 6 bound to socket 1[core 0]: [. . . . . .][B . . . . .]
Tue Jan 17 01:14:41 2017<stderr>:[taurus-5.lyon.grid5000.fr:08692] MCW rank 36 bound to socket 0[core 0]: [B . . . . .][. . . . . .]
Tue Jan 17 01:14:41 2017<stderr>:[taurus-7.lyon.grid5000.fr:08811] MCW rank 17 bound to socket 0[core 5]: [. . . . . B][. . . . . .]
Tue Jan 17 01:14:41 2017<stderr>:[taurus-8.lyon.grid5000.fr:10744] MCW rank 7 bound to socket 1[core 1]: [. . . . . .][. B . . . .]
Tue Jan 17 01:14:41 2017<stderr>:[taurus-7.lyon.grid5000.fr:08811] MCW rank 18 bound to socket 1[core 0]: [. . . . . .][B . . . . .]
Tue Jan 17 01:14:41 2017<stderr>:[taurus-7.lyon.grid5000.fr:08811] MCW rank 19 bound to socket 1[core 1]: [. . . . . .][. B . . . .]
Tue Jan 17 01:14:41 2017<stderr>:[taurus-7.lyon.grid5000.fr:08811] MCW rank 20 bound to socket 1[core 2]: [. . . . . .][. . B . . .]
Tue Jan 17 01:14:41 2017<stderr>:[taurus-7.lyon.grid5000.fr:08811] MCW rank 21 bound to socket 1[core 3]: [. . . . . .][. . . B . .]
Tue Jan 17 01:14:41 2017<stderr>:[taurus-7.lyon.grid5000.fr:08811] MCW rank 22 bound to socket 1[core 4]: [. . . . . .][. . . . B .]
Tue Jan 17 01:14:41 2017<stderr>:[taurus-7.lyon.grid5000.fr:08811] MCW rank 23 bound to socket 1[core 5]: [. . . . . .][. . . . . B]
Tue Jan 17 01:14:41 2017<stderr>:[taurus-7.lyon.grid5000.fr:08811] MCW rank 12 bound to socket 0[core 0]: [B . . . . .][. . . . . .]
Tue Jan 17 01:14:41 2017<stderr>:[taurus-6.lyon.grid5000.fr:08744] MCW rank 26 bound to socket 0[core 2]: [. . B . . .][. . . . . .]
Tue Jan 17 01:14:41 2017<stderr>:[taurus-6.lyon.grid5000.fr:08744] MCW rank 27 bound to socket 0[core 3]: [. . . B . .][. . . . . .]
Tue Jan 17 01:14:41 2017<stderr>:[taurus-6.lyon.grid5000.fr:08744] MCW rank 28 bound to socket 0[core 4]: [. . . . B .][. . . . . .]
Tue Jan 17 01:14:41 2017<stderr>:[taurus-6.lyon.grid5000.fr:08744] MCW rank 29 bound to socket 0[core 5]: [. . . . . B][. . . . . .]
Tue Jan 17 01:14:41 2017<stderr>:[taurus-6.lyon.grid5000.fr:08744] MCW rank 30 bound to socket 1[core 0]: [. . . . . .][B . . . . .]
Tue Jan 17 01:14:41 2017<stderr>:[taurus-6.lyon.grid5000.fr:08744] MCW rank 31 bound to socket 1[core 1]: [. . . . . .][. B . . . .]
Tue Jan 17 01:14:41 2017<stderr>:[taurus-6.lyon.grid5000.fr:08744] MCW rank 32 bound to socket 1[core 2]: [. . . . . .][. . B . . .]
Tue Jan 17 01:14:41 2017<stderr>:[taurus-6.lyon.grid5000.fr:08744] MCW rank 33 bound to socket 1[core 3]: [. . . . . .][. . . B . .]
Tue Jan 17 01:14:41 2017<stderr>:[taurus-6.lyon.grid5000.fr:08744] MCW rank 34 bound to socket 1[core 4]: [. . . . . .][. . . . B .]
Tue Jan 17 01:14:41 2017<stderr>:[taurus-6.lyon.grid5000.fr:08744] MCW rank 35 bound to socket 1[core 5]: [. . . . . .][. . . . . B]
Tue Jan 17 01:14:41 2017<stderr>:[taurus-6.lyon.grid5000.fr:08744] MCW rank 24 bound to socket 0[core 0]: [B . . . . .][. . . . . .]
Tue Jan 17 01:14:41 2017<stderr>:[taurus-6.lyon.grid5000.fr:08744] MCW rank 25 bound to socket 0[core 1]: [. B . . . .][. . . . . .]
Tue Jan 17 01:14:41 2017<stderr>:HPL ERROR from process # 0, on line 419 of function HPL_pdinfo:
Tue Jan 17 01:14:41 2017<stderr>:>>> Need at least 96 processes for these tests <<<
Tue Jan 17 01:14:41 2017<stderr>:
Tue Jan 17 01:14:41 2017<stderr>:HPL ERROR from process # 0, on line 621 of function HPL_pdinfo:
Tue Jan 17 01:14:41 2017<stderr>:>>> Illegal input in file HPL.dat. Exiting ... <<<
Tue Jan 17 01:14:41 2017<stderr>:
--------------------------------------------------------------------------
mpirun noticed that the job aborted, but has no info as to the process
that caused that situation.
--------------------------------------------------------------------------
