time,hostname,power_consumption
4.184250,taurus-10,776.005510
4.184250,taurus-14,736.700034
4.184250,taurus-2,396.457733
4.184250,taurus-6,722.152922
4.184250,taurus-11,743.015448
4.184250,taurus-15,396.457733
4.184250,taurus-3,720.487761
4.184250,taurus-7,740.608109
4.184250,taurus-12,440.936315
4.184250,taurus-16,756.467611
4.184250,taurus-4,728.867146
4.184250,taurus-8,721.001714
4.184250,taurus-13,745.882754
4.184250,taurus-1,738.752456
4.184250,taurus-5,717.511120
4.184250,taurus-9,396.457733
