time,hostname,power_consumption
4.183466,taurus-10,776.089754
4.183466,taurus-14,736.585353
4.183466,taurus-2,396.383385
4.183466,taurus-6,722.139495
4.183466,taurus-11,742.930906
4.183466,taurus-15,396.383385
4.183466,taurus-3,720.427699
4.183466,taurus-7,740.504141
4.183466,taurus-12,440.853627
4.183466,taurus-16,756.385616
4.183466,taurus-4,728.812442
4.183466,taurus-8,720.972652
4.183466,taurus-13,745.841470
4.183466,taurus-1,738.682321
4.183466,taurus-5,717.472130
4.183466,taurus-9,396.383385
