time,hostname,power_consumption
6.211324,taurus-10,654.549351
6.211324,taurus-14,1098.138790
6.211324,taurus-2,588.522974
6.211324,taurus-6,1077.365874
6.211324,taurus-11,582.311650
6.211324,taurus-15,588.522974
6.211324,taurus-3,1074.266137
6.211324,taurus-7,1104.208356
6.211324,taurus-12,654.549351
6.211324,taurus-16,1128.102026
6.211324,taurus-4,1087.430292
6.211324,taurus-8,1074.450637
6.211324,taurus-13,590.821164
6.211324,taurus-1,588.522974
6.211324,taurus-5,1070.436106
6.211324,taurus-9,588.522974
