time,hostname,power_consumption
4.224459,taurus-10,783.697058
4.224459,taurus-14,743.962282
4.224459,taurus-2,400.267470
4.224459,taurus-6,729.265603
4.224459,taurus-11,750.307242
4.224459,taurus-15,400.267470
4.224459,taurus-3,727.560696
4.224459,taurus-7,747.862867
4.224459,taurus-12,445.173467
4.224459,taurus-16,763.991829
4.224459,taurus-4,735.969032
4.224459,taurus-8,728.041179
4.224459,taurus-13,753.118487
4.224459,taurus-1,746.013892
4.224459,taurus-5,724.529997
4.224459,taurus-9,400.267470
