time,hostname,power_consumption
6.208058,taurus-10,654.205194
6.208058,taurus-14,1097.759710
6.208058,taurus-2,588.213533
6.208058,taurus-6,1076.938958
6.208058,taurus-11,582.005475
6.208058,taurus-15,588.213533
6.208058,taurus-3,1073.817951
6.208058,taurus-7,1103.833012
6.208058,taurus-12,654.205194
6.208058,taurus-16,1127.395880
6.208058,taurus-4,1086.798867
6.208058,taurus-8,1074.020190
6.208058,taurus-13,590.510515
6.208058,taurus-1,588.213533
6.208058,taurus-5,1069.895682
6.208058,taurus-9,588.213533
