time,hostname,power_consumption
4.183486,taurus-10,775.924680
4.183486,taurus-14,736.540091
4.183486,taurus-2,396.385272
4.183486,taurus-6,722.032751
4.183486,taurus-11,742.877159
4.183486,taurus-15,396.385272
4.183486,taurus-3,720.337284
4.183486,taurus-7,740.464465
4.183486,taurus-12,440.855726
4.183486,taurus-16,756.394744
4.183486,taurus-4,728.796865
4.183486,taurus-8,720.970202
4.183486,taurus-13,745.798240
4.183486,taurus-1,738.606718
4.183486,taurus-5,717.357384
4.183486,taurus-9,396.385272
