time,hostname,power_consumption
12.318043,taurus-10,1298.075382
12.318043,taurus-14,1165.533239
12.318043,taurus-2,1167.134584
12.318043,taurus-6,2143.919926
12.318043,taurus-11,1154.816541
12.318043,taurus-15,1167.134584
12.318043,taurus-3,1136.339476
12.318043,taurus-7,2197.832670
12.318043,taurus-12,1298.075382
12.318043,taurus-16,1162.576908
12.318043,taurus-4,1145.578009
12.318043,taurus-8,2138.920041
12.318043,taurus-13,1171.692260
12.318043,taurus-1,1167.134584
12.318043,taurus-5,2130.057320
12.318043,taurus-9,1167.134584
