time,hostname,power_consumption
48.888853,taurus-10,5151.907327
48.888853,taurus-14,4625.863269
48.888853,taurus-2,4632.218819
48.888853,taurus-6,4479.196710
48.888853,taurus-11,4583.329966
48.888853,taurus-15,4632.218819
48.888853,taurus-3,4509.996687
48.888853,taurus-7,4589.685517
48.888853,taurus-12,5151.907327
48.888853,taurus-16,4614.129944
48.888853,taurus-4,4546.663327
48.888853,taurus-8,8516.437129
48.888853,taurus-13,4650.307695
48.888853,taurus-1,4632.218819
48.888853,taurus-5,4454.752283
48.888853,taurus-9,4632.218819
