time,hostname,power_consumption
48.894830,taurus-10,5152.537133
48.894830,taurus-14,4626.428768
48.894830,taurus-2,4632.785096
48.894830,taurus-6,4479.744279
48.894830,taurus-11,4583.890266
48.894830,taurus-15,4632.785096
48.894830,taurus-3,4510.548022
48.894830,taurus-7,4590.246594
48.894830,taurus-12,5152.537133
48.894830,taurus-16,4614.694009
48.894830,taurus-4,4547.219144
48.894830,taurus-8,8517.050388
48.894830,taurus-13,4650.876183
48.894830,taurus-1,4632.785096
48.894830,taurus-5,4455.296864
48.894830,taurus-9,4632.785096
