time,hostname,power_consumption
48.898265,taurus-10,5152.899140
48.898265,taurus-14,4626.753812
48.898265,taurus-2,4633.110586
48.898265,taurus-6,4480.059017
48.898265,taurus-11,4584.212321
48.898265,taurus-15,4633.110586
48.898265,taurus-3,4510.864924
48.898265,taurus-7,4590.569096
48.898265,taurus-12,5152.899140
48.898265,taurus-16,4615.018228
48.898265,taurus-4,4547.538623
48.898265,taurus-8,8517.757401
48.898265,taurus-13,4651.202944
48.898265,taurus-1,4633.110586
48.898265,taurus-5,4455.609885
48.898265,taurus-9,4633.110586
