Possible precedence issue with control flow operator at /usr/bin/taktuk line 940.
taurus-1.lyon.grid5000.fr-1: ~/experiments/2016-11-23--idle-consumption/execute_idle.zsh >| ~/experiments/2016-11-23--idle-consumption/$(hostname)_idle_consumption (4784): status > Exited with status 0
taurus-5.lyon.grid5000.fr-12: ~/experiments/2016-11-23--idle-consumption/execute_idle.zsh >| ~/experiments/2016-11-23--idle-consumption/$(hostname)_idle_consumption (4751): status > Exited with status 0
taurus-3.lyon.grid5000.fr-10: ~/experiments/2016-11-23--idle-consumption/execute_idle.zsh >| ~/experiments/2016-11-23--idle-consumption/$(hostname)_idle_consumption (4775): status > Exited with status 0
taurus-11.lyon.grid5000.fr-3: ~/experiments/2016-11-23--idle-consumption/execute_idle.zsh >| ~/experiments/2016-11-23--idle-consumption/$(hostname)_idle_consumption (4770): status > Exited with status 0
taurus-6.lyon.grid5000.fr-13: ~/experiments/2016-11-23--idle-consumption/execute_idle.zsh >| ~/experiments/2016-11-23--idle-consumption/$(hostname)_idle_consumption (4761): status > Exited with status 0
taurus-16.lyon.grid5000.fr-9: ~/experiments/2016-11-23--idle-consumption/execute_idle.zsh >| ~/experiments/2016-11-23--idle-consumption/$(hostname)_idle_consumption (4755): status > Exited with status 0
taurus-7.lyon.grid5000.fr-6: ~/experiments/2016-11-23--idle-consumption/execute_idle.zsh >| ~/experiments/2016-11-23--idle-consumption/$(hostname)_idle_consumption (4722): status > Exited with status 0
taurus-12.lyon.grid5000.fr-4: ~/experiments/2016-11-23--idle-consumption/execute_idle.zsh >| ~/experiments/2016-11-23--idle-consumption/$(hostname)_idle_consumption (4766): status > Exited with status 0
taurus-8.lyon.grid5000.fr-7: ~/experiments/2016-11-23--idle-consumption/execute_idle.zsh >| ~/experiments/2016-11-23--idle-consumption/$(hostname)_idle_consumption (4755): status > Exited with status 0
taurus-10.lyon.grid5000.fr-2: ~/experiments/2016-11-23--idle-consumption/execute_idle.zsh >| ~/experiments/2016-11-23--idle-consumption/$(hostname)_idle_consumption (4770): status > Exited with status 0
taurus-13.lyon.grid5000.fr-5: ~/experiments/2016-11-23--idle-consumption/execute_idle.zsh >| ~/experiments/2016-11-23--idle-consumption/$(hostname)_idle_consumption (4780): status > Exited with status 0
taurus-4.lyon.grid5000.fr-11: ~/experiments/2016-11-23--idle-consumption/execute_idle.zsh >| ~/experiments/2016-11-23--idle-consumption/$(hostname)_idle_consumption (4760): status > Exited with status 0
taurus-14.lyon.grid5000.fr-8: ~/experiments/2016-11-23--idle-consumption/execute_idle.zsh >| ~/experiments/2016-11-23--idle-consumption/$(hostname)_idle_consumption (4778): status > Exited with status 0
