Fri Oct 14 21:23:54 2016<stdout>:
Fri Oct 14 21:23:54 2016<stdout>:
Fri Oct 14 21:23:54 2016<stdout>: NAS Parallel Benchmarks 3.3 -- LU Benchmark
Fri Oct 14 21:23:54 2016<stdout>:
Fri Oct 14 21:23:54 2016<stdout>: Size:  162x 162x 162
Fri Oct 14 21:23:54 2016<stdout>: Iterations:  250
Fri Oct 14 21:23:54 2016<stdout>: Number of processes:     8
Fri Oct 14 21:23:54 2016<stdout>:
Fri Oct 14 21:23:56 2016<stdout>: Time step    1
Fri Oct 14 21:24:08 2016<stdout>: Time step   20
Fri Oct 14 21:24:21 2016<stdout>: Time step   40
Fri Oct 14 21:24:34 2016<stdout>: Time step   60
Fri Oct 14 21:24:47 2016<stdout>: Time step   80
Fri Oct 14 21:25:00 2016<stdout>: Time step  100
Fri Oct 14 21:25:13 2016<stdout>: Time step  120
Fri Oct 14 21:25:26 2016<stdout>: Time step  140
Fri Oct 14 21:25:39 2016<stdout>: Time step  160
Fri Oct 14 21:25:52 2016<stdout>: Time step  180
Fri Oct 14 21:26:05 2016<stdout>: Time step  200
Fri Oct 14 21:26:18 2016<stdout>: Time step  220
Fri Oct 14 21:26:31 2016<stdout>: Time step  240
Fri Oct 14 21:26:37 2016<stdout>: Time step  250
Fri Oct 14 21:26:38 2016<stdout>:
Fri Oct 14 21:26:38 2016<stdout>: Verification being performed for class C
Fri Oct 14 21:26:38 2016<stdout>: Accuracy setting for epsilon =  0.1000000000000E-07
Fri Oct 14 21:26:38 2016<stdout>: Comparison of RMS-norms of residual
Fri Oct 14 21:26:38 2016<stdout>:           1   0.1037669803235E+05 0.1037669803235E+05 0.2804729439557E-14
Fri Oct 14 21:26:38 2016<stdout>:           2   0.8922124588010E+03 0.8922124588010E+03 0.6371063113958E-14
Fri Oct 14 21:26:38 2016<stdout>:           3   0.2562388145827E+04 0.2562388145827E+04 0.5856514206755E-14
Fri Oct 14 21:26:38 2016<stdout>:           4   0.2191943438578E+04 0.2191943438578E+04 0.2074630863566E-14
Fri Oct 14 21:26:38 2016<stdout>:           5   0.1780780572611E+05 0.1780780572611E+05 0.7967358565047E-14
Fri Oct 14 21:26:38 2016<stdout>: Comparison of RMS-norms of solution error
Fri Oct 14 21:26:38 2016<stdout>:           1   0.2159863997170E+03 0.2159863997169E+03 0.6711103953074E-14
Fri Oct 14 21:26:38 2016<stdout>:           2   0.1557895592399E+02 0.1557895592399E+02 0.4332868019305E-14
Fri Oct 14 21:26:38 2016<stdout>:           3   0.5413188630772E+02 0.5413188630772E+02 0.5250456130207E-14
Fri Oct 14 21:26:38 2016<stdout>:           4   0.4822626431540E+02 0.4822626431540E+02 0.2062693107553E-14
Fri Oct 14 21:26:38 2016<stdout>:           5   0.4559029100433E+03 0.4559029100433E+03 0.1246831674214E-14
Fri Oct 14 21:26:38 2016<stdout>: Comparison of surface integral
Fri Oct 14 21:26:38 2016<stdout>:               0.6664045535722E+02 0.6664045535722E+02 0.2132466628421E-15
Fri Oct 14 21:26:38 2016<stdout>: Verification Successful
Fri Oct 14 21:26:38 2016<stdout>:
Fri Oct 14 21:26:38 2016<stdout>:
Fri Oct 14 21:26:38 2016<stdout>: LU Benchmark Completed.
Fri Oct 14 21:26:38 2016<stdout>: Class           =                        C
Fri Oct 14 21:26:38 2016<stdout>: Size            =            162x 162x 162
Fri Oct 14 21:26:38 2016<stdout>: Iterations      =                      250
Fri Oct 14 21:26:38 2016<stdout>: Time in seconds =                   161.94
Fri Oct 14 21:26:38 2016<stdout>: Total processes =                        8
Fri Oct 14 21:26:38 2016<stdout>: Compiled procs  =                        8
Fri Oct 14 21:26:38 2016<stdout>: Mop/s total     =                 12590.75
Fri Oct 14 21:26:38 2016<stdout>: Mop/s/process   =                  1573.84
Fri Oct 14 21:26:38 2016<stdout>: Operation type  =           floating point
Fri Oct 14 21:26:38 2016<stdout>: Verification    =               SUCCESSFUL
Fri Oct 14 21:26:38 2016<stdout>: Version         =                    3.3.1
Fri Oct 14 21:26:38 2016<stdout>: Compile date    =              14 Oct 2016
Fri Oct 14 21:26:38 2016<stdout>:
Fri Oct 14 21:26:38 2016<stdout>: Compile options:
Fri Oct 14 21:26:38 2016<stdout>:    MPIF77       = mpif77
Fri Oct 14 21:26:38 2016<stdout>:    FLINK        = $(MPIF77)
Fri Oct 14 21:26:38 2016<stdout>:    FMPI_LIB     = -L/usr/lib -lmpi -lmpif77
Fri Oct 14 21:26:38 2016<stdout>:    FMPI_INC     = -I/usr/include
Fri Oct 14 21:26:38 2016<stdout>:    FFLAGS       = -O2 -fsecond-underscore
Fri Oct 14 21:26:38 2016<stdout>:    FLINKFLAGS   = -O2
Fri Oct 14 21:26:38 2016<stdout>:    RAND         = (none)
Fri Oct 14 21:26:38 2016<stdout>:
Fri Oct 14 21:26:38 2016<stdout>:
Fri Oct 14 21:26:38 2016<stdout>: Please send feedbacks and/or the results of this run to:
Fri Oct 14 21:26:38 2016<stdout>:
Fri Oct 14 21:26:38 2016<stdout>: NPB Development Team 
Fri Oct 14 21:26:38 2016<stdout>: Internet: npb@nas.nasa.gov
Fri Oct 14 21:26:38 2016<stdout>:
Fri Oct 14 21:26:38 2016<stdout>:
