Sun Nov 20 01:08:44 2016<stderr>:[taurus-8.lyon.grid5000.fr:20237] MCW rank 0 bound to socket 0[core 0]: [B .][. .]
Sun Nov 20 01:08:44 2016<stderr>:[taurus-8.lyon.grid5000.fr:20237] MCW rank 1 bound to socket 0[core 1]: [. B][. .]
Sun Nov 20 01:08:44 2016<stderr>:[taurus-8.lyon.grid5000.fr:20237] MCW rank 2 bound to socket 1[core 0]: [. .][B .]
Sun Nov 20 01:08:44 2016<stderr>:[taurus-8.lyon.grid5000.fr:20237] MCW rank 3 bound to socket 1[core 1]: [. .][. B]
