<?xml version="1.0" encoding="iso-8859-1"  standalone="no"?>
<!DOCTYPE svg PUBLIC "-//W3C//DTD SVG 1.1//EN" 
 "http://www.w3.org/Graphics/SVG/1.1/DTD/svg11.dtd">
<svg width="1050" height="300" viewBox="0 0 1050 300"
 xmlns="http://www.w3.org/2000/svg"
 xmlns:xlink="http://www.w3.org/1999/xlink">
<desc>Produced by GNUPLOT 4.2 patchlevel 2  </desc>

<defs>


	<circle id='gpDot' r='1'/>
	<path id='gpPt0' style='stroke-width:0.222' d='M-1,0 h2 M0,-1 v2'/>
	<path id='gpPt1' style='stroke-width:0.222' d='M-1,-1 L1,1 M1,-1 L-1,1'/>
	<path id='gpPt2' style='stroke-width:0.222' d='M-1,0 L1,0 M0,-1 L0,1 M-1,-1 L1,1 M-1,1 L1,-1'/>
	<rect id='gpPt3' style='stroke-width:0.222' x='-1' y='-1' width='2' height='2'/>
	<use xlink:href='#gpPt3' id='gpPt4' style='fill:currentColor; stroke:none'/>
	<circle id='gpPt5' style='stroke-width:0.222' cx='0' cy='0' r='1'/>
	<use xlink:href='#gpPt5' id='gpPt6' style='fill:currentColor; stroke:none'/>
	<path id='gpPt7' style='stroke-width:0.222' d='M0,-1.33 L-1.33,0.67 L1.33,0.67 z'/>
	<use xlink:href='#gpPt7' id='gpPt8' style='fill:currentColor; stroke:none'/>
	<use xlink:href='#gpPt7' id='gpPt9' transform='rotate(180)'/>
	<use xlink:href='#gpPt9' id='gpPt10' style='fill:currentColor; stroke:none'/>
	<use xlink:href='#gpPt3' id='gpPt11' transform='rotate(45)'/>
	<use xlink:href='#gpPt11' id='gpPt12' style='fill:currentColor; stroke:none'/>
</defs>
<g style="fill:none; color:white; stroke:currentColor; stroke-width:1.00; stroke-linecap:butt; stroke-linejoin:miter">
</g>
<g style="fill:none; color:black; stroke:currentColor; stroke-width:1.00; stroke-linecap:butt; stroke-linejoin:miter">
</g>
<g style="fill:none; color:gray; stroke:currentColor; stroke-width:1.00; stroke-linecap:butt; stroke-linejoin:miter">
	<path d='M76.8,246.0 L915.8,246.0 '></path>
</g>
<g style="fill:none; color:black; stroke:currentColor; stroke-width:1.00; stroke-linecap:butt; stroke-linejoin:miter">
	<path d='M76.8,246.0 L85.8,246.0 M915.8,246.0 L906.8,246.0 '></path>
	<g transform="translate(68.5,250.5)" style="stroke:none; fill:black; font-family:Arial; font-size:12.00pt; text-anchor:end">
		<text><tspan> 90</tspan>
		</text>
	</g>
</g>
<g style="fill:none; color:gray; stroke:currentColor; stroke-width:1.00; stroke-linecap:butt; stroke-linejoin:miter">
	<path d='M76.8,223.1 L915.8,223.1 '></path>
</g>
<g style="fill:none; color:black; stroke:currentColor; stroke-width:1.00; stroke-linecap:butt; stroke-linejoin:miter">
	<path d='M76.8,223.1 L85.8,223.1 M915.8,223.1 L906.8,223.1 '></path>
	<g transform="translate(68.5,227.6)" style="stroke:none; fill:black; font-family:Arial; font-size:12.00pt; text-anchor:end">
		<text><tspan> 100</tspan>
		</text>
	</g>
</g>
<g style="fill:none; color:gray; stroke:currentColor; stroke-width:1.00; stroke-linecap:butt; stroke-linejoin:miter">
	<path d='M76.8,200.1 L915.8,200.1 '></path>
</g>
<g style="fill:none; color:black; stroke:currentColor; stroke-width:1.00; stroke-linecap:butt; stroke-linejoin:miter">
	<path d='M76.8,200.1 L85.8,200.1 M915.8,200.1 L906.8,200.1 '></path>
	<g transform="translate(68.5,204.6)" style="stroke:none; fill:black; font-family:Arial; font-size:12.00pt; text-anchor:end">
		<text><tspan> 110</tspan>
		</text>
	</g>
</g>
<g style="fill:none; color:gray; stroke:currentColor; stroke-width:1.00; stroke-linecap:butt; stroke-linejoin:miter">
	<path d='M76.8,177.2 L915.8,177.2 '></path>
</g>
<g style="fill:none; color:black; stroke:currentColor; stroke-width:1.00; stroke-linecap:butt; stroke-linejoin:miter">
	<path d='M76.8,177.2 L85.8,177.2 M915.8,177.2 L906.8,177.2 '></path>
	<g transform="translate(68.5,181.7)" style="stroke:none; fill:black; font-family:Arial; font-size:12.00pt; text-anchor:end">
		<text><tspan> 120</tspan>
		</text>
	</g>
</g>
<g style="fill:none; color:gray; stroke:currentColor; stroke-width:1.00; stroke-linecap:butt; stroke-linejoin:miter">
	<path d='M76.8,154.2 L915.8,154.2 '></path>
</g>
<g style="fill:none; color:black; stroke:currentColor; stroke-width:1.00; stroke-linecap:butt; stroke-linejoin:miter">
	<path d='M76.8,154.2 L85.8,154.2 M915.8,154.2 L906.8,154.2 '></path>
	<g transform="translate(68.5,158.7)" style="stroke:none; fill:black; font-family:Arial; font-size:12.00pt; text-anchor:end">
		<text><tspan> 130</tspan>
		</text>
	</g>
</g>
<g style="fill:none; color:gray; stroke:currentColor; stroke-width:1.00; stroke-linecap:butt; stroke-linejoin:miter">
	<path d='M76.8,131.3 L915.8,131.3 '></path>
</g>
<g style="fill:none; color:black; stroke:currentColor; stroke-width:1.00; stroke-linecap:butt; stroke-linejoin:miter">
	<path d='M76.8,131.3 L85.8,131.3 M915.8,131.3 L906.8,131.3 '></path>
	<g transform="translate(68.5,135.8)" style="stroke:none; fill:black; font-family:Arial; font-size:12.00pt; text-anchor:end">
		<text><tspan> 140</tspan>
		</text>
	</g>
</g>
<g style="fill:none; color:gray; stroke:currentColor; stroke-width:1.00; stroke-linecap:butt; stroke-linejoin:miter">
	<path d='M76.8,108.4 L915.8,108.4 '></path>
</g>
<g style="fill:none; color:black; stroke:currentColor; stroke-width:1.00; stroke-linecap:butt; stroke-linejoin:miter">
	<path d='M76.8,108.4 L85.8,108.4 M915.8,108.4 L906.8,108.4 '></path>
	<g transform="translate(68.5,112.9)" style="stroke:none; fill:black; font-family:Arial; font-size:12.00pt; text-anchor:end">
		<text><tspan> 150</tspan>
		</text>
	</g>
</g>
<g style="fill:none; color:gray; stroke:currentColor; stroke-width:1.00; stroke-linecap:butt; stroke-linejoin:miter">
	<path d='M76.8,85.4 L915.8,85.4 '></path>
</g>
<g style="fill:none; color:black; stroke:currentColor; stroke-width:1.00; stroke-linecap:butt; stroke-linejoin:miter">
	<path d='M76.8,85.4 L85.8,85.4 M915.8,85.4 L906.8,85.4 '></path>
	<g transform="translate(68.5,89.9)" style="stroke:none; fill:black; font-family:Arial; font-size:12.00pt; text-anchor:end">
		<text><tspan> 160</tspan>
		</text>
	</g>
</g>
<g style="fill:none; color:gray; stroke:currentColor; stroke-width:1.00; stroke-linecap:butt; stroke-linejoin:miter">
	<path d='M76.8,62.5 L915.8,62.5 '></path>
</g>
<g style="fill:none; color:black; stroke:currentColor; stroke-width:1.00; stroke-linecap:butt; stroke-linejoin:miter">
	<path d='M76.8,62.5 L85.8,62.5 M915.8,62.5 L906.8,62.5 '></path>
	<g transform="translate(68.5,67.0)" style="stroke:none; fill:black; font-family:Arial; font-size:12.00pt; text-anchor:end">
		<text><tspan> 170</tspan>
		</text>
	</g>
</g>
<g style="fill:none; color:gray; stroke:currentColor; stroke-width:1.00; stroke-linecap:butt; stroke-linejoin:miter">
	<path d='M76.8,39.5 L915.8,39.5 '></path>
</g>
<g style="fill:none; color:black; stroke:currentColor; stroke-width:1.00; stroke-linecap:butt; stroke-linejoin:miter">
	<path d='M76.8,39.5 L85.8,39.5 M915.8,39.5 L906.8,39.5 '></path>
	<g transform="translate(68.5,44.0)" style="stroke:none; fill:black; font-family:Arial; font-size:12.00pt; text-anchor:end">
		<text><tspan> 180</tspan>
		</text>
	</g>
</g>
<g style="fill:none; color:gray; stroke:currentColor; stroke-width:1.00; stroke-linecap:butt; stroke-linejoin:miter">
	<path d='M76.8,16.6 L915.8,16.6 '></path>
</g>
<g style="fill:none; color:black; stroke:currentColor; stroke-width:1.00; stroke-linecap:butt; stroke-linejoin:miter">
	<path d='M76.8,16.6 L85.8,16.6 M915.8,16.6 L906.8,16.6 '></path>
	<g transform="translate(68.5,21.1)" style="stroke:none; fill:black; font-family:Arial; font-size:12.00pt; text-anchor:end">
		<text><tspan> 190</tspan>
		</text>
	</g>
</g>
<g style="fill:none; color:gray; stroke:currentColor; stroke-width:1.00; stroke-linecap:butt; stroke-linejoin:miter">
	<path d='M76.8,246.0 L76.8,16.6 '></path>
</g>
<g style="fill:none; color:black; stroke:currentColor; stroke-width:1.00; stroke-linecap:butt; stroke-linejoin:miter">
	<path d='M76.8,246.0 L76.8,237.0 M76.8,16.6 L76.8,25.6 '></path>
	<g transform="translate(76.8,268.5)" style="stroke:none; fill:black; font-family:Arial; font-size:12.00pt; text-anchor:middle">
		<text><tspan> 0</tspan>
		</text>
	</g>
</g>
<g style="fill:none; color:gray; stroke:currentColor; stroke-width:1.00; stroke-linecap:butt; stroke-linejoin:miter">
	<path d='M184.8,246.0 L184.8,16.6 '></path>
</g>
<g style="fill:none; color:black; stroke:currentColor; stroke-width:1.00; stroke-linecap:butt; stroke-linejoin:miter">
	<path d='M184.8,246.0 L184.8,237.0 M184.8,16.6 L184.8,25.6 '></path>
	<g transform="translate(184.8,268.5)" style="stroke:none; fill:black; font-family:Arial; font-size:12.00pt; text-anchor:middle">
		<text><tspan> 500</tspan>
		</text>
	</g>
</g>
<g style="fill:none; color:gray; stroke:currentColor; stroke-width:1.00; stroke-linecap:butt; stroke-linejoin:miter">
	<path d='M292.9,246.0 L292.9,16.6 '></path>
</g>
<g style="fill:none; color:black; stroke:currentColor; stroke-width:1.00; stroke-linecap:butt; stroke-linejoin:miter">
	<path d='M292.9,246.0 L292.9,237.0 M292.9,16.6 L292.9,25.6 '></path>
	<g transform="translate(292.9,268.5)" style="stroke:none; fill:black; font-family:Arial; font-size:12.00pt; text-anchor:middle">
		<text><tspan> 1000</tspan>
		</text>
	</g>
</g>
<g style="fill:none; color:gray; stroke:currentColor; stroke-width:1.00; stroke-linecap:butt; stroke-linejoin:miter">
	<path d='M400.9,246.0 L400.9,16.6 '></path>
</g>
<g style="fill:none; color:black; stroke:currentColor; stroke-width:1.00; stroke-linecap:butt; stroke-linejoin:miter">
	<path d='M400.9,246.0 L400.9,237.0 M400.9,16.6 L400.9,25.6 '></path>
	<g transform="translate(400.9,268.5)" style="stroke:none; fill:black; font-family:Arial; font-size:12.00pt; text-anchor:middle">
		<text><tspan> 1500</tspan>
		</text>
	</g>
</g>
<g style="fill:none; color:gray; stroke:currentColor; stroke-width:1.00; stroke-linecap:butt; stroke-linejoin:miter">
	<path d='M508.9,246.0 L508.9,16.6 '></path>
</g>
<g style="fill:none; color:black; stroke:currentColor; stroke-width:1.00; stroke-linecap:butt; stroke-linejoin:miter">
	<path d='M508.9,246.0 L508.9,237.0 M508.9,16.6 L508.9,25.6 '></path>
	<g transform="translate(508.9,268.5)" style="stroke:none; fill:black; font-family:Arial; font-size:12.00pt; text-anchor:middle">
		<text><tspan> 2000</tspan>
		</text>
	</g>
</g>
<g style="fill:none; color:gray; stroke:currentColor; stroke-width:1.00; stroke-linecap:butt; stroke-linejoin:miter">
	<path d='M617.0,246.0 L617.0,16.6 '></path>
</g>
<g style="fill:none; color:black; stroke:currentColor; stroke-width:1.00; stroke-linecap:butt; stroke-linejoin:miter">
	<path d='M617.0,246.0 L617.0,237.0 M617.0,16.6 L617.0,25.6 '></path>
	<g transform="translate(617.0,268.5)" style="stroke:none; fill:black; font-family:Arial; font-size:12.00pt; text-anchor:middle">
		<text><tspan> 2500</tspan>
		</text>
	</g>
</g>
<g style="fill:none; color:gray; stroke:currentColor; stroke-width:1.00; stroke-linecap:butt; stroke-linejoin:miter">
	<path d='M725.0,246.0 L725.0,16.6 '></path>
</g>
<g style="fill:none; color:black; stroke:currentColor; stroke-width:1.00; stroke-linecap:butt; stroke-linejoin:miter">
	<path d='M725.0,246.0 L725.0,237.0 M725.0,16.6 L725.0,25.6 '></path>
	<g transform="translate(725.0,268.5)" style="stroke:none; fill:black; font-family:Arial; font-size:12.00pt; text-anchor:middle">
		<text><tspan> 3000</tspan>
		</text>
	</g>
</g>
<g style="fill:none; color:gray; stroke:currentColor; stroke-width:1.00; stroke-linecap:butt; stroke-linejoin:miter">
	<path d='M833.0,246.0 L833.0,16.6 '></path>
</g>
<g style="fill:none; color:black; stroke:currentColor; stroke-width:1.00; stroke-linecap:butt; stroke-linejoin:miter">
	<path d='M833.0,246.0 L833.0,237.0 M833.0,16.6 L833.0,25.6 '></path>
	<g transform="translate(833.0,268.5)" style="stroke:none; fill:black; font-family:Arial; font-size:12.00pt; text-anchor:middle">
		<text><tspan> 3500</tspan>
		</text>
	</g>
	<path d='M76.8,16.6 L76.8,246.0 L915.8,246.0 L915.8,16.6 L76.8,16.6 Z '></path>
	<g transform="translate(22.5,131.3) rotate(-90)" style="stroke:none; fill:black; font-family:Arial; font-size:12.00pt; text-anchor:middle">
		<text><tspan>Power Consumption (watts)</tspan>
		</text>
	</g>
	<g transform="translate(496.3,295.5)" style="stroke:none; fill:black; font-family:Arial; font-size:12.00pt; text-anchor:middle">
		<text><tspan>Time (seconds)</tspan>
		</text>
	</g>
	<path d='M916.5,39.1 L916.5,16.6 L1041.7,16.6 L1041.7,39.1 L916.5,39.1 Z '></path>
	<path d='M916.5,16.6 L1041.7,16.6 '></path>
</g>
<g style="fill:none; color:black; stroke:currentColor; stroke-width:3.00; stroke-linecap:butt; stroke-linejoin:miter">
</g>
<g style="fill:none; color:red; stroke:currentColor; stroke-width:3.00; stroke-linecap:butt; stroke-linejoin:miter">
</g>
<g style="fill:none; color:black; stroke:currentColor; stroke-width:3.00; stroke-linecap:butt; stroke-linejoin:miter">
	<g transform="translate(975.3,32.4)" style="stroke:none; fill:black; font-family:Arial; font-size:12.00pt; text-anchor:start">
		<text><tspan>taurus-8</tspan>
		</text>
	</g>
</g>
<g style="fill:none; color:red; stroke:currentColor; stroke-width:3.00; stroke-linecap:butt; stroke-linejoin:miter">
	<path style='stroke:rgb(255,   0,   0)' d='M924.8,27.9 L967.0,27.9 M76.8,239.1 L77.0,184.1 L77.2,186.1 L77.4,186.4 L77.7,185.5 L77.9,186.4 
		L78.1,183.5 L78.3,187.8 L78.5,186.9 L78.7,188.4 L79.0,186.9 L79.2,187.8 L79.4,184.1 L79.6,185.2 
		L79.8,184.6 L80.0,182.6 L80.3,183.8 L80.5,184.1 L80.7,190.9 L80.9,183.5 L81.1,184.3 L81.3,186.6 
		L81.6,185.8 L81.8,186.4 L82.0,186.4 L82.2,182.9 L82.4,184.9 L82.6,186.9 L82.8,184.3 L83.1,185.8 
		L83.3,183.2 L83.5,186.6 L83.7,172.6 L83.9,171.4 L84.1,173.7 L84.4,170.0 L84.6,175.2 L84.8,174.3 
		L85.0,172.6 L85.2,170.6 L85.4,173.7 L85.7,170.9 L85.9,171.2 L86.1,168.6 L86.3,171.2 L86.5,174.0 
		L86.7,172.9 L87.0,173.7 L87.2,172.0 L87.4,172.3 L87.6,173.7 L87.8,172.9 L88.0,171.2 L88.3,173.5 
		L88.5,171.2 L88.7,174.6 L88.9,172.0 L89.1,172.3 L89.3,171.2 L89.5,171.4 L89.8,174.6 L90.0,176.0 
		L90.2,155.7 L90.4,157.4 L90.6,160.8 L90.8,158.8 L91.1,162.5 L91.3,159.7 L91.5,160.3 L91.7,157.7 
		L91.9,160.5 L92.1,160.3 L92.4,160.5 L92.6,161.4 L92.8,159.7 L93.0,159.7 L93.2,159.1 L93.4,160.0 
		L93.7,158.6 L93.9,159.4 L94.1,158.0 L94.3,158.6 L94.5,160.0 L94.7,157.1 L94.9,159.1 L95.2,159.4 
		L95.4,158.6 L95.6,157.4 L95.8,157.1 L96.0,160.8 L96.2,158.3 L96.5,166.3 L96.7,146.2 L96.9,148.5 
		L97.1,149.1 L97.3,146.5 L97.5,147.1 L97.8,148.2 L98.0,147.1 L98.2,148.5 L98.4,147.1 L98.6,145.9 
		L98.8,147.1 L99.1,145.6 L99.3,149.7 L99.5,147.4 L99.7,147.9 L99.9,147.1 L100.1,145.1 L100.4,146.8 
		L100.6,147.1 L100.8,145.1 L101.0,147.1 L101.2,145.9 L101.4,144.8 L101.6,147.6 L101.9,148.5 L102.1,148.2 
		L102.3,145.6 L102.5,146.8 L102.7,147.9 L102.9,165.1 L103.2,140.8 L103.4,137.0 L103.6,134.5 L103.8,136.8 
		L104.0,133.0 L104.2,133.3 L104.5,137.0 L104.7,139.1 L104.9,135.0 L105.1,132.4 L105.3,134.5 L105.5,134.7 
		L105.8,137.3 L106.0,135.0 L106.2,135.3 L106.4,133.0 L106.6,135.3 L106.8,133.3 L107.0,131.3 L107.3,136.2 
		L107.5,134.2 L107.7,133.3 L107.9,136.5 L108.1,137.9 L108.3,132.7 L108.6,136.5 L108.8,133.0 L109.0,134.5 
		L109.2,134.2 L109.4,132.4 L109.6,148.8 L109.9,118.1 L110.1,122.1 L110.3,118.7 L110.5,123.3 L110.7,121.3 
		L110.9,116.4 L111.2,121.0 L111.4,117.3 L111.6,120.4 L111.8,121.8 L112.0,116.7 L112.2,120.7 L112.5,116.7 
		L112.7,119.8 L112.9,118.4 L113.1,118.4 L113.3,120.1 L113.5,119.0 L113.7,120.7 L114.0,120.7 L114.2,117.0 
		L114.4,119.3 L114.6,120.7 L114.8,120.1 L115.0,120.1 L115.3,121.0 L115.5,120.1 L115.7,117.0 L115.9,122.4 
		L116.1,114.1 L116.3,95.2 L116.6,93.4 L116.8,92.3 L117.0,93.4 L117.2,91.7 L117.4,92.6 L117.6,93.4 
		L117.9,93.2 L118.1,92.9 L118.3,92.0 L118.5,92.9 L118.7,92.6 L118.9,94.0 L119.1,92.0 L119.4,92.0 
		L119.6,91.2 L119.8,96.3 L120.0,90.9 L120.2,94.0 L120.4,92.3 L120.7,93.4 L120.9,93.2 L121.1,93.2 
		L121.3,93.2 L121.5,92.0 L121.7,94.3 L122.0,92.9 L122.2,93.4 L122.4,92.0 L122.6,78.5 L122.8,85.7 
		L123.0,79.4 L123.3,80.6 L123.5,80.6 L123.7,82.3 L123.9,80.0 L124.1,80.0 L124.3,80.0 L124.6,80.6 
		L124.8,81.1 L125.0,79.7 L125.2,78.3 L125.4,78.0 L125.6,81.1 L125.8,82.0 L126.1,78.5 L126.3,80.6 
		L126.5,80.3 L126.7,78.8 L126.9,81.1 L127.1,80.0 L127.4,80.0 L127.6,80.0 L127.8,78.3 L128.0,79.7 
		L128.2,81.7 L128.4,79.7 L128.7,77.7 L128.9,78.8 L129.1,104.3 L129.3,90.6 L129.5,64.5 L129.7,73.7 
		L130.0,73.4 L130.2,70.8 L130.4,66.8 L130.6,65.6 L130.8,67.9 L131.0,66.2 L131.2,67.6 L131.5,69.9 
		L131.7,61.1 L131.9,65.9 L132.1,72.5 L132.3,69.1 L132.5,65.9 L132.8,67.3 L133.0,66.2 L133.2,67.1 
		L133.4,69.6 L133.6,65.6 L133.8,67.1 L134.1,61.3 L134.3,66.5 L134.5,60.8 L134.7,67.1 L134.9,66.5 
		L135.1,65.3 L135.4,63.9 L135.6,69.6 L135.8,83.1 L136.0,51.0 L136.2,54.5 L136.4,54.5 L136.7,58.5 
		L136.9,51.6 L137.1,50.1 L137.3,51.0 L137.5,49.3 L137.7,59.0 L137.9,51.3 L138.2,53.9 L138.4,51.6 
		L138.6,53.9 L138.8,55.0 L139.0,53.3 L139.2,53.3 L139.5,51.9 L139.7,51.9 L139.9,50.4 L140.1,54.7 
		L140.3,50.4 L140.5,53.3 L140.8,51.0 L141.0,51.6 L141.2,54.2 L141.4,52.7 L141.6,51.6 L141.8,54.2 
		L142.1,51.3 L142.3,88.0 L142.5,38.7 L142.7,38.7 L142.9,38.7 L143.1,34.4 L143.3,40.4 L143.6,39.0 
		L143.8,38.7 L144.0,37.0 L144.2,37.8 L144.4,34.1 L144.6,37.8 L144.9,37.8 L145.1,35.5 L145.3,37.5 
		L145.5,38.4 L145.7,39.5 L145.9,38.7 L146.2,38.4 L146.4,40.1 L146.6,40.7 L146.8,37.2 L147.0,44.1 
		L147.2,38.1 L147.5,38.7 L147.7,41.3 L147.9,37.8 L148.1,38.1 L148.3,39.3 L148.5,40.7 L148.8,91.7 
		L149.0,34.1 L149.2,22.9 L149.4,25.8 L149.6,28.1 L149.8,26.1 L150.0,25.2 L150.3,26.6 L150.5,26.1 
		L150.7,21.5 L150.9,26.6 L151.1,23.8 L151.3,24.1 L151.6,25.8 L151.8,26.3 L152.0,24.1 L152.2,23.2 
		L152.4,25.2 L152.6,21.2 L152.9,22.1 L153.1,22.6 L153.3,24.4 L153.5,24.9 L153.7,24.9 L153.9,22.9 
		L154.2,26.9 L154.4,28.6 L154.6,25.8 L154.8,24.1 L155.0,29.5 L155.2,48.7 L155.4,178.3 L155.7,187.8 
		L155.9,185.5 L156.1,188.1 L156.3,189.2 L156.5,186.1 L156.7,185.8 L157.0,185.5 L157.2,187.2 L157.4,187.2 
		L157.6,187.2 L157.8,190.1 L158.0,182.3 L158.3,184.9 L158.5,189.2 L158.7,189.8 L158.9,188.6 L159.1,191.2 
		L159.3,188.4 L159.6,186.1 L159.8,184.9 L160.0,185.5 L160.2,184.3 L160.4,184.9 L160.6,183.5 L160.9,192.7 
		L161.1,190.9 L161.3,189.2 L161.5,186.4 L161.7,186.9 L161.9,190.1 L162.1,172.6 L162.4,173.7 L162.6,177.5 
		L162.8,177.2 L163.0,174.9 L163.2,175.5 L163.4,172.3 L163.7,176.6 L163.9,175.2 L164.1,176.0 L164.3,175.2 
		L164.5,173.5 L164.7,176.3 L165.0,174.9 L165.2,171.7 L165.4,172.6 L165.6,176.6 L165.8,175.2 L166.0,175.5 
		L166.3,174.9 L166.5,174.6 L166.7,177.2 L166.9,177.5 L167.1,174.6 L167.3,179.5 L167.5,174.3 L167.8,175.5 
		L168.0,173.2 L168.2,176.9 L168.4,183.5 L168.6,165.1 L168.8,164.3 L169.1,163.1 L169.3,160.5 L169.5,163.7 
		L169.7,165.4 L169.9,163.1 L170.1,165.7 L170.4,164.8 L170.6,164.0 L170.8,161.7 L171.0,162.3 L171.2,158.6 
		L171.4,164.8 L171.7,166.0 L171.9,163.4 L172.1,163.7 L172.3,166.6 L172.5,163.4 L172.7,163.7 L173.0,162.5 
		L173.2,163.1 L173.4,164.8 L173.6,161.1 L173.8,164.6 L174.0,162.3 L174.2,161.1 L174.5,165.1 L174.7,164.6 
		L174.9,171.4 L175.1,153.7 L175.3,154.5 L175.5,150.2 L175.8,150.5 L176.0,152.2 L176.2,154.0 L176.4,148.8 
		L176.6,149.9 L176.8,154.5 L177.1,152.8 L177.3,151.7 L177.5,151.9 L177.7,154.5 L177.9,152.8 L178.1,153.1 
		L178.4,152.5 L178.6,153.4 L178.8,150.8 L179.0,150.2 L179.2,150.8 L179.4,152.5 L179.6,151.7 L179.9,153.1 
		L180.1,151.9 L180.3,152.5 L180.5,152.2 L180.7,154.2 L180.9,153.4 L181.2,151.4 L181.4,152.5 L181.6,157.1 
		L181.8,137.6 L182.0,139.9 L182.2,137.0 L182.5,137.6 L182.7,139.1 L182.9,145.1 L183.1,136.5 L183.3,139.9 
		L183.5,139.9 L183.8,139.6 L184.0,139.6 L184.2,140.5 L184.4,138.2 L184.6,137.0 L184.8,139.3 L185.1,139.9 
		L185.3,139.1 L185.5,138.2 L185.7,139.9 L185.9,139.6 L186.1,135.3 L186.3,138.2 L186.6,134.7 L186.8,138.5 
		L187.0,137.6 L187.2,141.0 L187.4,144.2 L187.6,139.9 L187.9,143.6 L188.1,151.7 L188.3,130.2 L188.5,125.8 
		L188.7,129.3 L188.9,126.1 L189.2,127.9 L189.4,130.2 L189.6,125.8 L189.8,128.7 L190.0,126.1 L190.2,130.7 
		L190.5,125.6 L190.7,129.9 L190.9,128.7 L191.1,128.1 L191.3,130.4 L191.5,127.9 L191.7,127.9 L192.0,129.3 
		L192.2,128.4 L192.4,127.6 L192.6,126.1 L192.8,132.4 L193.0,127.9 L193.3,128.7 L193.5,129.9 L193.7,131.3 
		L193.9,128.1 L194.1,127.3 L194.3,127.9 L194.6,156.0 L194.8,108.6 L195.0,103.2 L195.2,102.9 L195.4,103.5 
		L195.6,103.8 L195.9,105.5 L196.1,105.5 L196.3,103.2 L196.5,105.2 L196.7,104.3 L196.9,102.6 L197.2,102.6 
		L197.4,104.0 L197.6,100.3 L197.8,104.6 L198.0,103.5 L198.2,103.8 L198.4,102.3 L198.7,104.9 L198.9,102.9 
		L199.1,105.2 L199.3,101.8 L199.5,102.3 L199.7,104.0 L200.0,104.0 L200.2,102.3 L200.4,106.9 L200.6,104.9 
		L200.8,100.6 L201.0,121.8 L201.3,104.3 L201.5,93.7 L201.7,93.4 L201.9,90.3 L202.1,92.0 L202.3,93.7 
		L202.6,92.3 L202.8,89.1 L203.0,92.3 L203.2,88.3 L203.4,91.2 L203.6,91.4 L203.8,93.2 L204.1,93.7 
		L204.3,96.0 L204.5,90.0 L204.7,90.9 L204.9,92.0 L205.1,91.7 L205.4,92.3 L205.6,91.2 L205.8,92.6 
		L206.0,92.0 L206.2,93.4 L206.4,92.0 L206.7,91.7 L206.9,92.0 L207.1,93.7 L207.3,91.7 L207.5,92.3 
		L207.7,93.4 L208.0,80.0 L208.2,74.5 L208.4,80.3 L208.6,80.8 L208.8,78.8 L209.0,77.4 L209.3,77.7 
		L209.5,74.5 L209.7,80.0 L209.9,80.3 L210.1,79.1 L210.3,80.0 L210.5,79.7 L210.8,76.8 L211.0,76.8 
		L211.2,82.0 L211.4,80.6 L211.6,79.1 L211.8,77.7 L212.1,80.0 L212.3,78.3 L212.5,82.0 L212.7,78.0 
		L212.9,78.5 L213.1,78.8 L213.4,79.1 L213.6,79.4 L213.8,80.8 L214.0,77.7 L214.2,89.1 L214.4,67.6 
		L214.7,62.2 L214.9,66.2 L215.1,67.1 L215.3,67.1 L215.5,66.2 L215.7,67.3 L215.9,67.9 L216.2,66.8 
		L216.4,69.1 L216.6,68.8 L216.8,67.9 L217.0,69.9 L217.2,65.3 L217.5,65.0 L217.7,66.5 L217.9,66.8 
		L218.1,67.6 L218.3,68.2 L218.5,63.6 L218.8,63.6 L219.0,65.0 L219.2,61.3 L219.4,65.0 L219.6,65.3 
		L219.8,67.3 L220.1,65.3 L220.3,63.9 L220.5,67.3 L220.7,109.5 L220.9,59.0 L221.1,56.5 L221.4,55.9 
		L221.6,53.9 L221.8,56.2 L222.0,54.7 L222.2,55.9 L222.4,56.7 L222.6,54.5 L222.9,55.9 L223.1,57.3 
		L223.3,53.9 L223.5,53.3 L223.7,55.0 L223.9,54.5 L224.2,55.9 L224.4,54.5 L224.6,58.8 L224.8,55.3 
		L225.0,52.7 L225.2,52.7 L225.5,52.7 L225.7,52.4 L225.9,56.7 L226.1,55.0 L226.3,55.0 L226.5,53.3 
		L226.8,54.2 L227.0,56.7 L227.2,65.3 L227.4,45.8 L227.6,42.1 L227.8,41.6 L228.0,40.4 L228.3,44.4 
		L228.5,40.1 L228.7,41.3 L228.9,41.8 L229.1,45.3 L229.3,41.0 L229.6,39.3 L229.8,41.3 L230.0,41.8 
		L230.2,43.0 L230.4,42.7 L230.6,40.7 L230.9,43.6 L231.1,39.8 L231.3,41.8 L231.5,43.3 L231.7,41.0 
		L231.9,41.0 L232.2,39.5 L232.4,41.8 L232.6,41.8 L232.8,42.1 L233.0,43.6 L233.2,41.0 L233.5,41.0 
		L233.7,43.3 L233.9,177.8 L234.1,189.2 L234.3,190.4 L234.5,186.9 L234.7,190.1 L235.0,191.8 L235.2,191.2 
		L235.4,192.4 L235.6,188.9 L235.8,189.2 L236.0,191.5 L236.3,190.1 L236.5,191.2 L236.7,187.8 L236.9,191.5 
		L237.1,187.5 L237.3,190.1 L237.6,189.8 L237.8,186.9 L238.0,190.9 L238.2,189.8 L238.4,189.5 L238.6,189.5 
		L238.9,191.2 L239.1,190.4 L239.3,190.1 L239.5,188.1 L239.7,188.1 L239.9,190.1 L240.1,189.2 L240.4,196.7 
		L240.6,178.6 L240.8,177.8 L241.0,179.5 L241.2,178.6 L241.4,179.2 L241.7,181.8 L241.9,179.2 L242.1,178.6 
		L242.3,178.9 L242.5,177.2 L242.7,178.1 L243.0,178.9 L243.2,180.0 L243.4,179.2 L243.6,177.5 L243.8,179.2 
		L244.0,178.6 L244.3,179.5 L244.5,178.3 L244.7,176.3 L244.9,176.9 L245.1,180.3 L245.3,180.0 L245.6,180.0 
		L245.8,180.3 L246.0,179.7 L246.2,178.3 L246.4,176.6 L246.6,181.2 L246.8,187.5 L247.1,171.7 L247.3,168.0 
		L247.5,168.6 L247.7,167.4 L247.9,168.9 L248.1,168.3 L248.4,169.7 L248.6,166.0 L248.8,171.7 L249.0,169.4 
		L249.2,167.1 L249.4,168.0 L249.7,167.4 L249.9,168.6 L250.1,167.4 L250.3,167.4 L250.5,168.6 L250.7,170.0 
		L251.0,167.1 L251.2,167.4 L251.4,168.6 L251.6,170.0 L251.8,170.0 L252.0,167.7 L252.2,167.7 L252.5,167.4 
		L252.7,171.2 L252.9,169.4 L253.1,171.2 L253.3,170.3 L253.5,176.6 L253.8,156.3 L254.0,161.7 L254.2,156.8 
		L254.4,160.3 L254.6,156.0 L254.8,156.8 L255.1,154.2 L255.3,160.3 L255.5,155.4 L255.7,154.0 L255.9,158.6 
		L256.1,159.4 L256.4,158.3 L256.6,156.5 L256.8,158.0 L257.0,158.3 L257.2,156.8 L257.4,161.1 L257.7,157.4 
		L257.9,158.0 L258.1,158.0 L258.3,156.3 L258.5,158.8 L258.7,160.5 L258.9,159.4 L259.2,158.3 L259.4,160.5 
		L259.6,171.7 L259.8,156.3 L260.0,165.7 L260.2,143.6 L260.5,143.9 L260.7,147.4 L260.9,145.9 L261.1,147.1 
		L261.3,143.3 L261.5,147.6 L261.8,145.6 L262.0,145.3 L262.2,147.1 L262.4,145.6 L262.6,148.2 L262.8,146.2 
		L263.1,145.3 L263.3,139.3 L263.5,145.9 L263.7,145.9 L263.9,146.8 L264.1,144.8 L264.3,145.1 L264.6,144.5 
		L264.8,141.9 L265.0,148.8 L265.2,144.2 L265.4,147.9 L265.6,145.6 L265.9,146.8 L266.1,145.1 L266.3,147.4 
		L266.5,164.3 L266.7,136.8 L266.9,131.3 L267.2,143.0 L267.4,134.2 L267.6,135.6 L267.8,136.2 L268.0,135.0 
		L268.2,138.2 L268.5,135.9 L268.7,132.2 L268.9,134.2 L269.1,135.6 L269.3,139.1 L269.5,136.2 L269.8,135.6 
		L270.0,135.3 L270.2,134.7 L270.4,136.2 L270.6,133.6 L270.8,136.2 L271.0,137.9 L271.3,133.3 L271.5,138.2 
		L271.7,137.0 L271.9,135.3 L272.1,135.9 L272.3,133.6 L272.6,135.9 L272.8,135.6 L273.0,151.4 L273.2,140.8 
		L273.4,115.5 L273.6,112.9 L273.9,116.7 L274.1,113.2 L274.3,112.9 L274.5,113.8 L274.7,114.1 L274.9,113.5 
		L275.2,116.4 L275.4,114.1 L275.6,112.1 L275.8,112.9 L276.0,113.2 L276.2,116.4 L276.4,114.4 L276.7,108.1 
		L276.9,115.5 L277.1,113.5 L277.3,113.5 L277.5,115.0 L277.7,115.0 L278.0,114.7 L278.2,114.1 L278.4,113.5 
		L278.6,112.4 L278.8,112.7 L279.0,113.2 L279.3,115.0 L279.5,115.2 L279.7,142.2 L279.9,103.5 L280.1,104.3 
		L280.3,102.3 L280.6,102.9 L280.8,105.8 L281.0,106.1 L281.2,104.0 L281.4,107.5 L281.6,101.2 L281.9,102.6 
		L282.1,104.0 L282.3,102.6 L282.5,105.2 L282.7,102.1 L282.9,102.1 L283.1,105.5 L283.4,101.5 L283.6,104.0 
		L283.8,104.3 L284.0,104.6 L284.2,103.2 L284.4,103.8 L284.7,104.0 L284.9,103.2 L285.1,102.6 L285.3,98.9 
		L285.5,103.2 L285.7,101.2 L286.0,105.8 L286.2,166.3 L286.4,114.7 L286.6,92.6 L286.8,91.7 L287.0,90.6 
		L287.3,91.4 L287.5,95.2 L287.7,92.3 L287.9,92.9 L288.1,92.3 L288.3,93.4 L288.5,94.6 L288.8,91.4 
		L289.0,94.9 L289.2,92.6 L289.4,87.1 L289.6,92.6 L289.8,91.7 L290.1,87.7 L290.3,93.7 L290.5,89.7 
		L290.7,88.0 L290.9,91.7 L291.1,88.3 L291.4,90.6 L291.6,92.9 L291.8,92.6 L292.0,90.3 L292.2,90.3 
		L292.4,89.4 L292.7,91.7 L292.9,105.5 L293.1,82.3 L293.3,79.4 L293.5,81.1 L293.7,80.0 L294.0,80.6 
		L294.2,81.1 L294.4,81.4 L294.6,80.3 L294.8,74.5 L295.0,86.0 L295.2,79.7 L295.5,80.8 L295.7,81.7 
		L295.9,82.0 L296.1,80.6 L296.3,80.6 L296.5,80.8 L296.8,80.8 L297.0,82.3 L297.2,83.4 L297.4,82.9 
		L297.6,80.6 L297.8,81.1 L298.1,79.7 L298.3,81.1 L298.5,75.4 L298.7,79.4 L298.9,81.1 L299.1,82.6 
		L299.4,128.4 L299.6,71.1 L299.8,67.6 L300.0,69.6 L300.2,67.9 L300.4,64.8 L300.6,71.1 L300.9,67.6 
		L301.1,66.8 L301.3,68.8 L301.5,65.9 L301.7,66.2 L301.9,69.1 L302.2,68.2 L302.4,70.2 L302.6,69.6 
		L302.8,65.3 L303.0,68.2 L303.2,69.6 L303.5,71.7 L303.7,67.6 L303.9,69.1 L304.1,64.2 L304.3,67.6 
		L304.5,68.5 L304.8,68.2 L305.0,63.9 L305.2,68.5 L305.4,69.9 L305.6,66.8 L305.8,119.6 L306.1,62.8 
		L306.3,57.9 L306.5,57.9 L306.7,56.5 L306.9,57.0 L307.1,56.7 L307.3,55.9 L307.6,57.6 L307.8,56.2 
		L308.0,55.9 L308.2,56.2 L308.4,56.5 L308.6,56.7 L308.9,56.7 L309.1,56.7 L309.3,59.3 L309.5,56.7 
		L309.7,55.0 L309.9,57.0 L310.2,57.9 L310.4,54.2 L310.6,57.3 L310.8,62.2 L311.0,55.3 L311.2,56.2 
		L311.5,56.5 L311.7,56.5 L311.9,59.3 L312.1,55.3 L312.3,54.2 L312.5,175.2 L312.7,192.1 L313.0,191.5 
		L313.2,193.0 L313.4,192.7 L313.6,191.5 L313.8,193.8 L314.0,191.5 L314.3,193.2 L314.5,193.5 L314.7,190.1 
		L314.9,191.2 L315.1,191.2 L315.3,193.0 L315.6,192.4 L315.8,191.5 L316.0,193.2 L316.2,192.1 L316.4,192.1 
		L316.6,191.8 L316.9,189.8 L317.1,192.1 L317.3,190.9 L317.5,193.5 L317.7,195.3 L317.9,192.4 L318.2,192.1 
		L318.4,193.0 L318.6,195.0 L318.8,190.7 L319.0,199.5 L319.2,182.0 L319.4,184.6 L319.7,180.6 L319.9,187.2 
		L320.1,181.5 L320.3,180.3 L320.5,184.3 L320.7,182.0 L321.0,182.3 L321.2,182.9 L321.4,182.3 L321.6,184.3 
		L321.8,180.0 L322.0,182.0 L322.3,179.7 L322.5,180.6 L322.7,182.3 L322.9,181.5 L323.1,183.5 L323.3,182.9 
		L323.6,182.3 L323.8,182.6 L324.0,183.5 L324.2,182.3 L324.4,183.5 L324.6,182.0 L324.8,182.6 L325.1,182.6 
		L325.3,181.8 L325.5,189.5 L325.7,170.9 L325.9,172.6 L326.1,170.6 L326.4,172.6 L326.6,173.2 L326.8,172.3 
		L327.0,173.5 L327.2,170.0 L327.4,173.7 L327.7,175.5 L327.9,172.3 L328.1,173.5 L328.3,174.3 L328.5,173.5 
		L328.7,170.9 L329.0,170.6 L329.2,171.7 L329.4,172.6 L329.6,171.4 L329.8,173.7 L330.0,173.5 L330.3,172.9 
		L330.5,168.6 L330.7,172.9 L330.9,171.4 L331.1,172.3 L331.3,171.7 L331.5,171.7 L331.8,170.6 L332.0,176.3 
		L332.2,171.7 L332.4,161.7 L332.6,160.5 L332.8,161.7 L333.1,159.7 L333.3,163.1 L333.5,164.3 L333.7,163.7 
		L333.9,161.1 L334.1,162.5 L334.4,160.5 L334.6,162.0 L334.8,163.4 L335.0,165.1 L335.2,162.0 L335.4,161.1 
		L335.7,163.1 L335.9,162.8 L336.1,161.7 L336.3,162.5 L336.5,161.7 L336.7,162.3 L336.9,163.1 L337.2,163.1 
		L337.4,160.8 L337.6,165.1 L337.8,162.5 L338.0,159.7 L338.2,161.1 L338.5,162.8 L338.7,172.0 L338.9,152.2 
		L339.1,152.5 L339.3,149.4 L339.5,152.8 L339.8,149.4 L340.0,152.2 L340.2,151.1 L340.4,152.5 L340.6,152.2 
		L340.8,156.8 L341.1,153.7 L341.3,153.7 L341.5,154.0 L341.7,153.1 L341.9,150.5 L342.1,151.1 L342.4,153.1 
		L342.6,151.9 L342.8,152.5 L343.0,153.4 L343.2,152.5 L343.4,155.7 L343.6,151.9 L343.9,151.7 L344.1,153.1 
		L344.3,154.5 L344.5,150.8 L344.7,152.2 L344.9,153.4 L345.2,164.0 L345.4,139.9 L345.6,139.1 L345.8,140.2 
		L346.0,147.4 L346.2,144.2 L346.5,142.5 L346.7,143.0 L346.9,142.2 L347.1,144.5 L347.3,139.9 L347.5,143.3 
		L347.8,143.9 L348.0,143.6 L348.2,142.8 L348.4,138.8 L348.6,145.9 L348.8,142.8 L349.0,141.0 L349.3,145.9 
		L349.5,143.6 L349.7,142.2 L349.9,145.1 L350.1,143.6 L350.3,139.6 L350.6,142.8 L350.8,141.9 L351.0,139.1 
		L351.2,143.3 L351.4,143.3 L351.6,160.0 L351.9,129.6 L352.1,125.3 L352.3,123.0 L352.5,122.7 L352.7,121.8 
		L352.9,121.6 L353.2,123.8 L353.4,121.8 L353.6,124.1 L353.8,124.1 L354.0,124.4 L354.2,124.7 L354.5,122.4 
		L354.7,122.1 L354.9,123.0 L355.1,123.0 L355.3,123.5 L355.5,120.4 L355.7,124.7 L356.0,120.7 L356.2,126.7 
		L356.4,119.8 L356.6,121.6 L356.8,123.0 L357.0,125.0 L357.3,125.8 L357.5,128.7 L357.7,125.0 L357.9,126.1 
		L358.1,119.3 L358.3,150.2 L358.6,115.8 L358.8,115.8 L359.0,115.5 L359.2,114.4 L359.4,111.2 L359.6,113.5 
		L359.9,113.5 L360.1,115.8 L360.3,116.4 L360.5,112.4 L360.7,112.9 L360.9,113.8 L361.1,112.9 L361.4,114.7 
		L361.6,113.2 L361.8,113.8 L362.0,115.8 L362.2,114.1 L362.4,114.4 L362.7,110.1 L362.9,113.5 L363.1,117.8 
		L363.3,111.5 L363.5,114.7 L363.7,110.9 L364.0,111.2 L364.2,111.2 L364.4,116.7 L364.6,113.8 L364.8,129.3 
		L365.0,102.9 L365.3,106.9 L365.5,105.2 L365.7,104.3 L365.9,104.0 L366.1,101.2 L366.3,103.2 L366.5,104.6 
		L366.8,104.0 L367.0,102.3 L367.2,102.3 L367.4,102.9 L367.6,105.5 L367.8,103.5 L368.1,104.3 L368.3,103.5 
		L368.5,102.3 L368.7,104.9 L368.9,102.9 L369.1,102.1 L369.4,100.6 L369.6,102.9 L369.8,100.9 L370.0,107.2 
		L370.2,104.0 L370.4,101.2 L370.7,102.6 L370.9,99.8 L371.1,103.8 L371.3,129.0 L371.5,100.1 L371.7,93.2 
		L372.0,92.3 L372.2,92.3 L372.4,92.6 L372.6,93.4 L372.8,91.7 L373.0,91.4 L373.2,95.7 L373.5,92.9 
		L373.7,96.0 L373.9,92.0 L374.1,95.5 L374.3,96.3 L374.5,89.1 L374.8,94.0 L375.0,90.0 L375.2,92.9 
		L375.4,93.4 L375.6,95.2 L375.8,92.0 L376.1,94.0 L376.3,92.6 L376.5,93.2 L376.7,92.6 L376.9,92.9 
		L377.1,91.2 L377.4,92.9 L377.6,93.2 L377.8,86.8 L378.0,88.0 L378.2,85.7 L378.4,80.8 L378.6,82.6 
		L378.9,81.1 L379.1,83.4 L379.3,79.7 L379.5,83.1 L379.7,82.6 L379.9,81.4 L380.2,78.3 L380.4,83.4 
		L380.6,83.1 L380.8,81.4 L381.0,80.3 L381.2,84.8 L381.5,80.3 L381.7,78.8 L381.9,85.4 L382.1,82.0 
		L382.3,82.0 L382.5,80.8 L382.8,79.1 L383.0,84.5 L383.2,84.0 L383.4,82.0 L383.6,82.6 L383.8,80.8 
		L384.1,82.9 L384.3,82.9 L384.5,116.4 L384.7,73.7 L384.9,69.4 L385.1,73.9 L385.3,73.4 L385.6,69.9 
		L385.8,70.8 L386.0,69.9 L386.2,69.1 L386.4,71.9 L386.6,71.1 L386.9,73.1 L387.1,70.2 L387.3,73.1 
		L387.5,70.2 L387.7,68.8 L387.9,71.9 L388.2,70.8 L388.4,73.7 L388.6,73.1 L388.8,73.9 L389.0,71.9 
		L389.2,118.7 L389.5,75.1 L389.7,71.9 L389.9,71.4 L390.1,72.5 L390.3,71.9 L390.5,73.4 L390.7,73.9 
		L391.0,170.9 L391.2,196.4 L391.4,196.1 L391.6,196.1 L391.8,193.0 L392.0,194.4 L392.3,196.1 L392.5,193.5 
		L392.7,196.4 L392.9,196.7 L393.1,192.7 L393.3,193.8 L393.6,195.0 L393.8,196.4 L394.0,192.4 L394.2,193.2 
		L394.4,193.5 L394.6,192.1 L394.9,194.4 L395.1,190.9 L395.3,190.9 L395.5,196.7 L395.7,194.4 L395.9,196.7 
		L396.2,194.7 L396.4,195.3 L396.6,199.8 L396.8,196.4 L397.0,196.1 L397.2,194.4 L397.4,199.5 L397.7,184.1 
		L397.9,186.9 L398.1,186.1 L398.3,184.9 L398.5,184.9 L398.7,187.5 L399.0,185.5 L399.2,186.1 L399.4,183.5 
		L399.6,185.2 L399.8,183.5 L400.0,186.9 L400.3,187.2 L400.5,185.8 L400.7,186.9 L400.9,186.4 L401.1,186.4 
		L401.3,187.8 L401.6,186.6 L401.8,183.5 L402.0,182.6 L402.2,188.1 L402.4,185.8 L402.6,184.3 L402.8,184.1 
		L403.1,187.8 L403.3,184.6 L403.5,185.8 L403.7,186.4 L403.9,186.4 L404.1,189.2 L404.4,175.5 L404.6,177.8 
		L404.8,176.9 L405.0,178.6 L405.2,177.5 L405.4,175.5 L405.7,174.9 L405.9,176.0 L406.1,176.9 L406.3,178.9 
		L406.5,174.6 L406.7,179.2 L407.0,177.2 L407.2,178.6 L407.4,171.4 L407.6,174.9 L407.8,182.0 L408.0,177.8 
		L408.3,178.1 L408.5,177.5 L408.7,178.9 L408.9,176.9 L409.1,175.8 L409.3,175.8 L409.5,177.8 L409.8,175.8 
		L410.0,178.3 L410.2,178.3 L410.4,176.3 L410.6,186.6 L410.8,166.0 L411.1,170.3 L411.3,166.0 L411.5,169.4 
		L411.7,169.7 L411.9,169.2 L412.1,166.0 L412.4,168.3 L412.6,167.4 L412.8,168.6 L413.0,167.4 L413.2,168.0 
		L413.4,168.0 L413.7,168.3 L413.9,167.1 L414.1,168.3 L414.3,169.4 L414.5,167.7 L414.7,168.0 L414.9,166.0 
		L415.2,169.2 L415.4,167.4 L415.6,170.0 L415.8,167.7 L416.0,168.6 L416.2,168.6 L416.5,168.9 L416.7,167.4 
		L416.9,166.6 L417.1,180.6 L417.3,159.1 L417.5,158.6 L417.8,158.3 L418.0,158.3 L418.2,159.1 L418.4,158.8 
		L418.6,160.3 L418.8,158.3 L419.1,160.8 L419.3,160.5 L419.5,158.3 L419.7,159.4 L419.9,157.7 L420.1,160.3 
		L420.4,159.7 L420.6,157.1 L420.8,159.4 L421.0,160.3 L421.2,160.3 L421.4,160.0 L421.6,160.5 L421.9,160.3 
		L422.1,158.0 L422.3,157.7 L422.5,157.4 L422.7,159.4 L422.9,158.8 L423.2,159.4 L423.4,157.1 L423.6,172.6 
		L423.8,147.6 L424.0,148.2 L424.2,150.2 L424.5,147.9 L424.7,148.8 L424.9,149.7 L425.1,146.8 L425.3,148.8 
		L425.5,147.1 L425.8,147.1 L426.0,149.9 L426.2,149.7 L426.4,149.7 L426.6,149.7 L426.8,149.1 L427.0,150.8 
		L427.3,149.9 L427.5,149.1 L427.7,149.9 L427.9,148.2 L428.1,150.5 L428.3,152.2 L428.6,152.8 L428.8,153.1 
		L429.0,148.8 L429.2,148.2 L429.4,149.4 L429.6,149.7 L429.9,146.8 L430.1,149.1 L430.3,163.7 L430.5,133.0 
		L430.7,133.9 L430.9,132.2 L431.2,133.3 L431.4,132.2 L431.6,132.7 L431.8,133.3 L432.0,132.2 L432.2,135.9 
		L432.5,130.7 L432.7,132.4 L432.9,134.2 L433.1,135.0 L433.3,133.0 L433.5,136.5 L433.7,131.6 L434.0,135.3 
		L434.2,130.2 L434.4,132.4 L434.6,135.3 L434.8,135.9 L435.0,131.9 L435.3,131.0 L435.5,134.7 L435.7,133.9 
		L435.9,131.9 L436.1,135.9 L436.3,131.3 L436.6,130.7 L436.8,110.4 L437.0,125.3 L437.2,125.3 L437.4,122.7 
		L437.6,124.4 L437.9,119.8 L438.1,123.5 L438.3,123.0 L438.5,121.6 L438.7,127.0 L438.9,122.4 L439.1,126.1 
		L439.4,125.3 L439.6,125.0 L439.8,126.4 L440.0,122.7 L440.2,127.3 L440.4,123.5 L440.7,123.5 L440.9,123.0 
		L441.1,123.8 L441.3,121.3 L441.5,127.3 L441.7,123.3 L442.0,124.7 L442.2,123.0 L442.4,124.4 L442.6,124.1 
		L442.8,124.7 L443.0,126.7 L443.3,162.0 L443.5,119.8 L443.7,115.0 L443.9,114.1 L444.1,117.3 L444.3,114.7 
		L444.6,112.7 L444.8,112.9 L445.0,114.1 L445.2,117.0 L445.4,113.8 L445.6,115.8 L445.8,113.8 L446.1,114.4 
		L446.3,118.1 L446.5,116.7 L446.7,118.4 L446.9,115.8 L447.1,113.8 L447.4,113.2 L447.6,114.1 L447.8,115.8 
		L448.0,118.7 L448.2,113.8 L448.4,112.7 L448.7,115.2 L448.9,117.3 L449.1,114.4 L449.3,112.7 L449.5,116.1 
		L449.7,131.3 L450.0,103.2 L450.2,107.8 L450.4,104.9 L450.6,102.9 L450.8,104.3 L451.0,105.2 L451.2,104.3 
		L451.5,105.8 L451.7,104.3 L451.9,105.5 L452.1,105.5 L452.3,106.9 L452.5,106.3 L452.8,105.8 L453.0,102.9 
		L453.2,107.5 L453.4,103.5 L453.6,103.8 L453.8,102.3 L454.1,105.2 L454.3,102.9 L454.5,104.6 L454.7,105.8 
		L454.9,108.1 L455.1,106.3 L455.4,102.9 L455.6,107.8 L455.8,106.3 L456.0,104.9 L456.2,104.6 L456.4,132.7 
		L456.7,96.3 L456.9,95.2 L457.1,96.0 L457.3,95.2 L457.5,95.7 L457.7,97.5 L457.9,91.2 L458.2,93.7 
		L458.4,98.3 L458.6,96.3 L458.8,95.7 L459.0,95.5 L459.2,94.3 L459.5,95.2 L459.7,96.0 L459.9,98.0 
		L460.1,97.5 L460.3,95.5 L460.5,95.5 L460.8,96.3 L461.0,92.9 L461.2,97.8 L461.4,93.2 L461.6,98.9 
		L461.8,93.4 L462.1,94.6 L462.3,94.6 L462.5,96.0 L462.7,97.8 L462.9,131.3 L463.1,91.2 L463.3,87.4 
		L463.6,84.8 L463.8,84.8 L464.0,84.5 L464.2,86.0 L464.4,87.1 L464.6,83.4 L464.9,85.4 L465.1,90.3 
		L465.3,87.7 L465.5,91.2 L465.7,88.9 L465.9,86.8 L466.2,85.4 L466.4,85.1 L466.6,85.1 L466.8,85.7 
		L467.0,86.3 L467.2,86.8 L467.5,83.7 L467.7,87.4 L467.9,82.6 L468.1,86.3 L468.3,86.3 L468.5,87.4 
		L468.8,88.3 L469.0,84.3 L469.2,87.1 L469.4,130.2 L469.6,200.1 L469.8,197.0 L470.0,198.1 L470.3,197.8 
		L470.5,195.5 L470.7,196.4 L470.9,196.7 L471.1,198.1 L471.3,198.4 L471.6,197.3 L471.8,195.0 L472.0,199.8 
		L472.2,197.3 L472.4,196.1 L472.6,195.5 L472.9,196.4 L473.1,196.7 L473.3,195.3 L473.5,195.8 L473.7,196.7 
		L473.9,195.8 L474.2,200.1 L474.4,196.7 L474.6,198.4 L474.8,200.4 L475.0,195.8 L475.2,198.4 L475.4,197.3 
		L475.7,197.3 L475.9,199.2 L476.1,197.0 L476.3,188.6 L476.5,187.2 L476.7,188.1 L477.0,186.6 L477.2,190.9 
		L477.4,186.1 L477.6,186.9 L477.8,187.2 L478.0,186.1 L478.3,186.4 L478.5,186.9 L478.7,188.9 L478.9,188.9 
		L479.1,188.1 L479.3,189.2 L479.6,188.4 L479.8,188.1 L480.0,186.6 L480.2,189.8 L480.4,186.9 L480.6,190.7 
		L480.9,188.9 L481.1,188.9 L481.3,190.9 L481.5,187.2 L481.7,188.9 L481.9,190.7 L482.1,187.8 L482.4,186.9 
		L482.6,195.3 L482.8,180.9 L483.0,180.0 L483.2,182.3 L483.4,178.1 L483.7,178.1 L483.9,179.7 L484.1,179.7 
		L484.3,178.3 L484.5,182.6 L484.7,182.0 L485.0,178.3 L485.2,181.8 L485.4,182.9 L485.6,180.6 L485.8,179.2 
		L486.0,181.8 L486.3,180.9 L486.5,183.5 L486.7,181.8 L486.9,182.9 L487.1,181.2 L487.3,180.6 L487.5,178.9 
		L487.8,182.9 L488.0,179.5 L488.2,180.9 L488.4,181.5 L488.6,181.2 L488.8,181.5 L489.1,188.6 L489.3,172.0 
		L489.5,171.7 L489.7,170.9 L489.9,172.0 L490.1,171.7 L490.4,171.2 L490.6,171.2 L490.8,174.0 L491.0,171.4 
		L491.2,170.3 L491.4,172.6 L491.7,171.2 L491.9,170.9 L492.1,173.7 L492.3,171.4 L492.5,169.7 L492.7,173.5 
		L493.0,168.9 L493.2,174.0 L493.4,168.6 L493.6,172.0 L493.8,169.2 L494.0,172.0 L494.2,173.7 L494.5,169.2 
		L494.7,171.2 L494.9,172.3 L495.1,173.7 L495.3,173.2 L495.5,171.7 L495.8,171.2 L496.0,163.7 L496.2,162.3 
		L496.4,162.5 L496.6,163.1 L496.8,164.0 L497.1,160.5 L497.3,162.5 L497.5,159.7 L497.7,164.3 L497.9,164.8 
		L498.1,163.1 L498.4,163.7 L498.6,161.4 L498.8,163.7 L499.0,162.8 L499.2,163.4 L499.4,162.3 L499.6,163.1 
		L499.9,165.7 L500.1,165.4 L500.3,160.5 L500.5,161.1 L500.7,165.4 L500.9,160.5 L501.2,164.3 L501.4,164.8 
		L501.6,162.5 L501.8,164.6 L502.0,164.8 L502.2,170.0 L502.5,154.8 L502.7,155.1 L502.9,157.4 L503.1,154.2 
		L503.3,155.7 L503.5,156.0 L503.8,156.8 L504.0,157.1 L504.2,153.4 L504.4,159.1 L504.6,160.0 L504.8,154.8 
		L505.1,158.3 L505.3,154.0 L505.5,151.4 L505.7,157.7 L505.9,153.4 L506.1,151.9 L506.3,156.0 L506.6,157.1 
		L506.8,157.4 L507.0,154.8 L507.2,158.0 L507.4,155.4 L507.6,158.3 L507.9,153.7 L508.1,154.8 L508.3,155.1 
		L508.5,155.1 L508.7,171.4 L508.9,140.8 L509.2,140.2 L509.4,139.9 L509.6,139.9 L509.8,143.3 L510.0,138.8 
		L510.2,139.6 L510.5,142.2 L510.7,142.5 L510.9,141.0 L511.1,143.9 L511.3,139.9 L511.5,141.0 L511.7,140.2 
		L512.0,139.3 L512.2,141.9 L512.4,141.9 L512.6,139.6 L512.8,139.9 L513.0,143.6 L513.3,146.8 L513.5,143.0 
		L513.7,142.8 L513.9,138.5 L514.1,143.0 L514.3,140.5 L514.6,139.1 L514.8,140.2 L515.0,140.8 L515.2,166.3 
		L515.4,140.2 L515.6,133.3 L515.9,132.4 L516.1,134.2 L516.3,134.5 L516.5,134.2 L516.7,132.7 L516.9,132.2 
		L517.2,133.3 L517.4,133.3 L517.6,134.2 L517.8,131.6 L518.0,134.7 L518.2,131.3 L518.4,134.5 L518.7,134.2 
		L518.9,170.6 L519.1,134.2 L519.3,129.6 L519.5,131.6 L519.7,133.3 L520.0,135.3 L520.2,131.9 L520.4,134.5 
		L520.6,133.3 L520.8,134.7 L521.0,131.3 L521.3,133.3 L521.5,132.4 L521.7,133.0 L521.9,136.8 L522.1,124.1 
		L522.3,125.3 L522.6,124.7 L522.8,123.3 L523.0,125.3 L523.2,122.4 L523.4,124.1 L523.6,123.8 L523.8,123.3 
		L524.1,123.8 L524.3,123.3 L524.5,127.3 L524.7,126.1 L524.9,123.8 L525.1,124.7 L525.4,123.0 L525.6,124.1 
		L525.8,125.8 L526.0,124.7 L526.2,121.8 L526.4,123.0 L526.7,124.7 L526.9,123.5 L527.1,125.0 L527.3,127.0 
		L527.5,121.8 L527.7,123.0 L528.0,121.6 L528.2,124.7 L528.4,153.7 L528.6,116.4 L528.8,115.2 L529.0,112.7 
		L529.3,113.8 L529.5,117.8 L529.7,116.7 L529.9,114.4 L530.1,115.2 L530.3,117.3 L530.5,114.4 L530.8,115.2 
		L531.0,113.8 L531.2,116.1 L531.4,117.3 L531.6,118.1 L531.8,114.4 L532.1,112.9 L532.3,113.5 L532.5,114.4 
		L532.7,116.7 L532.9,115.2 L533.1,117.0 L533.4,115.5 L533.6,115.2 L533.8,116.7 L534.0,119.0 L534.2,116.4 
		L534.4,118.7 L534.7,114.4 L534.9,106.6 L535.1,108.9 L535.3,107.8 L535.5,108.1 L535.7,106.9 L535.9,108.4 
		L536.2,104.9 L536.4,106.1 L536.6,105.8 L536.8,108.1 L537.0,106.3 L537.2,107.2 L537.5,107.8 L537.7,107.8 
		L537.9,107.2 L538.1,103.8 L538.3,110.7 L538.5,105.8 L538.8,109.5 L539.0,106.9 L539.2,109.5 L539.4,104.9 
		L539.6,104.3 L539.8,112.1 L540.1,108.9 L540.3,106.6 L540.5,105.8 L540.7,106.3 L540.9,107.5 L541.1,106.3 
		L541.4,125.0 L541.6,124.7 L541.8,97.8 L542.0,98.0 L542.2,99.5 L542.4,98.0 L542.6,96.0 L542.9,95.7 
		L543.1,98.9 L543.3,100.9 L543.5,99.2 L543.7,98.3 L543.9,96.0 L544.2,96.6 L544.4,99.5 L544.6,96.9 
		L544.8,102.6 L545.0,94.9 L545.2,97.8 L545.5,101.2 L545.7,97.2 L545.9,98.3 L546.1,100.1 L546.3,97.5 
		L546.5,99.2 L546.8,99.5 L547.0,96.9 L547.2,98.6 L547.4,98.6 L547.6,96.0 L547.8,98.6 L548.0,197.0 
		L548.3,198.1 L548.5,200.1 L548.7,199.8 L548.9,199.0 L549.1,198.4 L549.3,196.1 L549.6,202.1 L549.8,200.7 
		L550.0,200.7 L550.2,198.1 L550.4,199.0 L550.6,198.7 L550.9,199.2 L551.1,197.8 L551.3,199.5 L551.5,196.7 
		L551.7,198.4 L551.9,198.7 L552.2,199.0 L552.4,197.3 L552.6,195.0 L552.8,200.1 L553.0,200.1 L553.2,203.6 
		L553.5,199.8 L553.7,200.7 L553.9,199.2 L554.1,201.0 L554.3,199.2 L554.5,205.6 L554.7,189.2 L555.0,188.4 
		L555.2,192.4 L555.4,191.5 L555.6,192.4 L555.8,190.9 L556.0,189.2 L556.3,193.2 L556.5,194.4 L556.7,190.7 
		L556.9,191.2 L557.1,188.6 L557.3,190.1 L557.6,189.2 L557.8,193.2 L558.0,190.7 L558.2,190.7 L558.4,190.1 
		L558.6,189.5 L558.9,192.1 L559.1,189.5 L559.3,190.7 L559.5,191.5 L559.7,192.7 L559.9,189.2 L560.1,192.7 
		L560.4,192.1 L560.6,192.1 L560.8,193.2 L561.0,195.5 L561.2,186.1 L561.4,187.8 L561.7,182.9 L561.9,182.6 
		L562.1,184.1 L562.3,183.8 L562.5,186.4 L562.7,186.1 L563.0,184.6 L563.2,185.2 L563.4,185.5 L563.6,184.3 
		L563.8,184.6 L564.0,183.2 L564.3,184.3 L564.5,184.9 L564.7,184.1 L564.9,185.8 L565.1,181.5 L565.3,181.8 
		L565.6,182.6 L565.8,182.9 L566.0,184.6 L566.2,183.2 L566.4,185.2 L566.6,183.5 L566.8,184.1 L567.1,183.2 
		L567.3,185.5 L567.5,182.9 L567.7,192.7 L567.9,174.0 L568.1,175.8 L568.4,176.3 L568.6,178.1 L568.8,176.0 
		L569.0,175.2 L569.2,178.3 L569.4,175.8 L569.7,175.8 L569.9,174.6 L570.1,177.5 L570.3,177.5 L570.5,176.3 
		L570.7,175.8 L571.0,178.1 L571.2,176.6 L571.4,176.6 L571.6,175.8 L571.8,177.8 L572.0,176.3 L572.2,174.9 
		L572.5,180.0 L572.7,173.5 L572.9,177.2 L573.1,176.0 L573.3,176.6 L573.5,175.8 L573.8,176.0 L574.0,175.5 
		L574.2,186.9 L574.4,168.6 L574.6,168.3 L574.8,169.7 L575.1,168.9 L575.3,168.9 L575.5,168.9 L575.7,171.7 
		L575.9,170.3 L576.1,170.6 L576.4,168.6 L576.6,170.0 L576.8,169.7 L577.0,172.3 L577.2,170.6 L577.4,170.0 
		L577.7,167.7 L577.9,168.6 L578.1,169.4 L578.3,169.2 L578.5,171.2 L578.7,169.7 L578.9,164.6 L579.2,171.4 
		L579.4,169.4 L579.6,169.7 L579.8,169.7 L580.0,170.3 L580.2,169.2 L580.5,171.2 L580.7,182.6 L580.9,161.1 
		L581.1,162.0 L581.3,159.7 L581.5,160.0 L581.8,163.1 L582.0,162.0 L582.2,159.4 L582.4,162.0 L582.6,160.8 
		L582.8,163.7 L583.1,158.6 L583.3,162.5 L583.5,159.1 L583.7,160.3 L583.9,160.5 L584.1,163.7 L584.3,161.1 
		L584.6,164.0 L584.8,162.5 L585.0,161.7 L585.2,160.5 L585.4,159.1 L585.6,163.4 L585.9,160.5 L586.1,161.1 
		L586.3,159.7 L586.5,159.4 L586.7,161.1 L586.9,160.8 L587.2,161.7 L587.4,159.7 L587.6,147.4 L587.8,148.2 
		L588.0,148.2 L588.2,146.8 L588.5,147.1 L588.7,148.5 L588.9,149.1 L589.1,147.1 L589.3,150.2 L589.5,147.1 
		L589.8,149.7 L590.0,150.2 L590.2,147.9 L590.4,151.1 L590.6,147.4 L590.8,147.1 L591.0,147.4 L591.3,149.1 
		L591.5,147.9 L591.7,147.4 L591.9,147.4 L592.1,151.1 L592.3,147.1 L592.6,148.5 L592.8,147.9 L593.0,149.1 
		L593.2,148.2 L593.4,146.8 L593.6,149.7 L593.9,164.0 L594.1,140.2 L594.3,140.5 L594.5,140.5 L594.7,141.6 
		L594.9,139.3 L595.2,142.2 L595.4,142.2 L595.6,139.6 L595.8,139.1 L596.0,141.6 L596.2,140.2 L596.4,142.5 
		L596.7,141.0 L596.9,140.2 L597.1,140.2 L597.3,140.8 L597.5,141.6 L597.7,139.1 L598.0,137.9 L598.2,138.2 
		L598.4,138.8 L598.6,141.9 L598.8,140.2 L599.0,139.6 L599.3,140.2 L599.5,139.3 L599.7,142.2 L599.9,137.6 
		L600.1,140.5 L600.3,164.0 L600.6,137.0 L600.8,134.7 L601.0,134.7 L601.2,135.6 L601.4,134.7 L601.6,133.3 
		L601.9,135.0 L602.1,133.3 L602.3,133.0 L602.5,134.5 L602.7,134.5 L602.9,132.7 L603.1,134.7 L603.4,135.6 
		L603.6,131.9 L603.8,132.7 L604.0,131.6 L604.2,134.5 L604.4,133.0 L604.7,135.3 L604.9,136.2 L605.1,133.3 
		L605.3,134.7 L605.5,136.2 L605.7,136.2 L606.0,133.9 L606.2,134.2 L606.4,137.6 L606.6,135.9 L606.8,129.6 
		L607.0,132.4 L607.3,128.1 L607.5,128.4 L607.7,124.1 L607.9,126.4 L608.1,127.6 L608.3,125.3 L608.5,126.1 
		L608.8,125.0 L609.0,127.3 L609.2,123.8 L609.4,122.7 L609.6,126.1 L609.8,127.6 L610.1,123.5 L610.3,126.1 
		L610.5,126.7 L610.7,125.6 L610.9,125.3 L611.1,124.4 L611.4,127.0 L611.6,127.0 L611.8,125.6 L612.0,125.6 
		L612.2,124.7 L612.4,124.4 L612.7,126.1 L612.9,125.8 L613.1,125.3 L613.3,126.4 L613.5,162.0 L613.7,119.8 
		L614.0,119.3 L614.2,119.0 L614.4,119.3 L614.6,119.0 L614.8,117.8 L615.0,118.1 L615.2,116.7 L615.5,121.0 
		L615.7,120.1 L615.9,119.6 L616.1,118.1 L616.3,119.0 L616.5,119.0 L616.8,118.4 L617.0,118.7 L617.2,120.1 
		L617.4,118.7 L617.6,118.7 L617.8,119.6 L618.1,117.5 L618.3,118.7 L618.5,120.7 L618.7,116.7 L618.9,121.6 
		L619.1,119.8 L619.4,118.7 L619.6,115.2 L619.8,118.1 L620.0,109.5 L620.2,111.5 L620.4,112.1 L620.6,110.1 
		L620.9,110.4 L621.1,107.2 L621.3,112.9 L621.5,110.9 L621.7,110.9 L621.9,110.4 L622.2,112.4 L622.4,109.8 
		L622.6,106.9 L622.8,111.2 L623.0,110.9 L623.2,110.7 L623.5,108.1 L623.7,111.8 L623.9,108.6 L624.1,111.8 
		L624.3,110.4 L624.5,109.5 L624.8,110.1 L625.0,108.6 L625.2,112.7 L625.4,111.8 L625.6,111.5 L625.8,108.1 
		L626.1,110.9 L626.3,111.2 L626.5,144.2 L626.7,201.8 L626.9,198.1 L627.1,201.5 L627.3,201.0 L627.6,202.7 
		L627.8,200.1 L628.0,199.0 L628.2,201.3 L628.4,204.1 L628.6,200.7 L628.9,202.4 L629.1,199.0 L629.3,208.1 
		L629.5,200.7 L629.7,204.4 L629.9,199.0 L630.2,199.5 L630.4,202.1 L630.6,201.3 L630.8,202.1 L631.0,198.7 
		L631.2,200.7 L631.5,199.8 L631.7,201.8 L631.9,200.7 L632.1,202.1 L632.3,200.4 L632.5,200.4 L632.7,201.5 
		L633.0,198.7 L633.2,204.1 L633.4,194.1 L633.6,193.8 L633.8,193.5 L634.0,191.5 L634.3,192.7 L634.5,192.4 
		L634.7,191.8 L634.9,192.7 L635.1,196.4 L635.3,195.3 L635.6,193.8 L635.8,192.4 L636.0,195.8 L636.2,192.7 
		L636.4,195.3 L636.6,193.8 L636.9,194.4 L637.1,194.4 L637.3,194.4 L637.5,191.2 L637.7,191.5 L637.9,194.4 
		L638.1,195.0 L638.4,191.8 L638.6,192.7 L638.8,194.1 L639.0,192.7 L639.2,193.5 L639.4,196.4 L639.7,199.5 
		L639.9,186.9 L640.1,187.2 L640.3,186.6 L640.5,186.6 L640.7,187.8 L641.0,185.2 L641.2,186.1 L641.4,186.9 
		L641.6,187.5 L641.8,189.5 L642.0,188.9 L642.3,188.4 L642.5,189.8 L642.7,187.2 L642.9,186.6 L643.1,187.2 
		L643.3,186.6 L643.6,186.9 L643.8,185.5 L644.0,186.9 L644.2,187.2 L644.4,186.6 L644.6,187.2 L644.8,186.9 
		L645.1,187.2 L645.3,188.1 L645.5,186.6 L645.7,187.8 L645.9,186.4 L646.1,194.4 L646.4,182.6 L646.6,180.0 
		L646.8,180.3 L647.0,178.9 L647.2,180.3 L647.4,178.6 L647.7,179.7 L647.9,179.5 L648.1,181.8 L648.3,177.8 
		L648.5,210.4 L648.7,181.2 L649.0,182.6 L649.2,180.3 L649.4,180.3 L649.6,181.5 L649.8,181.2 L650.0,180.0 
		L650.2,180.0 L650.5,182.9 L650.7,180.3 L650.9,178.1 L651.1,179.7 L651.3,180.9 L651.5,179.2 L651.8,179.5 
		L652.0,182.6 L652.2,179.7 L652.4,179.7 L652.6,180.3 L652.8,185.5 L653.1,172.9 L653.3,173.7 L653.5,171.2 
		L653.7,174.0 L653.9,174.9 L654.1,171.4 L654.4,176.9 L654.6,170.6 L654.8,174.6 L655.0,173.7 L655.2,177.2 
		L655.4,174.0 L655.7,176.9 L655.9,172.6 L656.1,173.2 L656.3,174.3 L656.5,172.0 L656.7,174.3 L656.9,175.5 
		L657.2,175.8 L657.4,174.3 L657.6,172.3 L657.8,174.0 L658.0,173.5 L658.2,174.3 L658.5,173.7 L658.7,176.0 
		L658.9,173.7 L659.1,175.5 L659.3,187.5 L659.5,167.1 L659.8,168.9 L660.0,167.7 L660.2,164.6 L660.4,168.0 
		L660.6,166.3 L660.8,168.6 L661.1,166.3 L661.3,171.7 L661.5,165.4 L661.7,166.6 L661.9,166.9 L662.1,170.3 
		L662.3,166.6 L662.6,166.6 L662.8,166.3 L663.0,166.9 L663.2,167.4 L663.4,167.1 L663.6,166.0 L663.9,166.6 
		L664.1,163.4 L664.3,167.7 L664.5,167.1 L664.7,166.0 L664.9,167.4 L665.2,166.6 L665.4,164.8 L665.6,167.4 
		L665.8,176.0 L666.0,152.2 L666.2,157.1 L666.5,158.0 L666.7,155.1 L666.9,157.4 L667.1,157.4 L667.3,157.1 
		L667.5,154.8 L667.8,158.3 L668.0,156.5 L668.2,155.4 L668.4,157.1 L668.6,159.1 L668.8,156.8 L669.0,155.1 
		L669.3,158.0 L669.5,155.1 L669.7,154.8 L669.9,154.0 L670.1,156.3 L670.3,155.4 L670.6,155.4 L670.8,159.1 
		L671.0,157.7 L671.2,156.0 L671.4,155.7 L671.6,155.1 L671.9,154.8 L672.1,159.4 L672.3,164.6 L672.5,151.7 
		L672.7,150.8 L672.9,150.8 L673.2,145.1 L673.4,149.1 L673.6,149.4 L673.8,153.4 L674.0,147.9 L674.2,152.2 
		L674.4,148.2 L674.7,148.2 L674.9,151.7 L675.1,151.1 L675.3,148.2 L675.5,147.1 L675.7,150.2 L676.0,148.5 
		L676.2,149.4 L676.4,151.7 L676.6,152.2 L676.8,147.6 L677.0,149.4 L677.3,151.1 L677.5,145.6 L677.7,152.8 
		L677.9,148.8 L678.1,148.5 L678.3,149.9 L678.6,149.4 L678.8,142.8 L679.0,163.1 L679.2,143.6 L679.4,139.9 
		L679.6,141.3 L679.9,143.0 L680.1,142.8 L680.3,141.9 L680.5,143.9 L680.7,142.2 L680.9,141.9 L681.1,142.8 
		L681.4,136.8 L681.6,140.5 L681.8,143.9 L682.0,144.5 L682.2,141.3 L682.4,140.8 L682.7,144.2 L682.9,143.0 
		L683.1,141.6 L683.3,145.1 L683.5,143.3 L683.7,140.8 L684.0,143.3 L684.2,141.9 L684.4,143.6 L684.6,145.9 
		L684.8,139.9 L685.0,142.5 L685.3,141.9 L685.5,162.5 L685.7,143.0 L685.9,140.2 L686.1,139.3 L686.3,137.9 
		L686.5,134.7 L686.8,132.4 L687.0,136.5 L687.2,132.2 L687.4,135.3 L687.6,134.7 L687.8,135.6 L688.1,137.3 
		L688.3,136.5 L688.5,139.9 L688.7,135.6 L688.9,131.9 L689.1,135.9 L689.4,133.6 L689.6,133.3 L689.8,134.7 
		L690.0,136.2 L690.2,136.5 L690.4,134.2 L690.7,134.7 L690.9,135.9 L691.1,135.9 L691.3,136.2 L691.5,134.5 
		L691.7,134.7 L692.0,144.2 L692.2,133.3 L692.4,128.7 L692.6,127.3 L692.8,128.7 L693.0,124.4 L693.2,129.6 
		L693.5,128.1 L693.7,125.3 L693.9,127.9 L694.1,129.0 L694.3,127.9 L694.5,128.7 L694.8,126.7 L695.0,128.7 
		L695.2,128.7 L695.4,127.6 L695.6,125.6 L695.8,131.6 L696.1,125.3 L696.3,126.1 L696.5,126.1 L696.7,129.0 
		L696.9,127.3 L697.1,127.6 L697.4,129.6 L697.6,129.3 L697.8,130.2 L698.0,123.8 L698.2,125.3 L698.4,129.0 
		L698.6,169.7 L698.9,123.5 L699.1,117.3 L699.3,125.3 L699.5,117.0 L699.7,116.1 L699.9,120.4 L700.2,119.6 
		L700.4,121.8 L700.6,124.1 L700.8,122.1 L701.0,121.6 L701.2,123.8 L701.5,122.4 L701.7,125.0 L701.9,119.3 
		L702.1,123.5 L702.3,119.8 L702.5,120.7 L702.8,120.4 L703.0,123.0 L703.2,121.6 L703.4,123.0 L703.6,120.7 
		L703.8,125.8 L704.1,119.8 L704.3,120.4 L704.5,123.5 L704.7,117.5 L704.9,121.8 L705.1,188.6 L705.3,204.7 
		L705.6,201.0 L705.8,204.7 L706.0,199.5 L706.2,201.5 L706.4,202.7 L706.6,202.4 L706.9,203.6 L707.1,199.5 
		L707.3,201.3 L707.5,202.7 L707.7,201.8 L707.9,202.7 L708.2,199.2 L708.4,203.0 L708.6,201.3 L708.8,204.1 
		L709.0,204.7 L709.2,204.7 L709.5,199.8 L709.7,202.1 L709.9,203.3 L710.1,202.1 L710.3,203.3 L710.5,202.1 
		L710.7,203.3 L711.0,203.8 L711.2,198.4 L711.4,206.7 L711.6,208.7 L711.8,194.7 L712.0,195.5 L712.3,195.5 
		L712.5,197.6 L712.7,196.7 L712.9,196.4 L713.1,194.7 L713.3,195.0 L713.6,193.5 L713.8,193.5 L714.0,195.3 
		L714.2,196.4 L714.4,197.3 L714.6,195.8 L714.9,198.7 L715.1,193.2 L715.3,199.0 L715.5,194.4 L715.7,195.5 
		L715.9,197.8 L716.2,195.8 L716.4,195.3 L716.6,195.5 L716.8,197.3 L717.0,195.8 L717.2,196.4 L717.4,198.7 
		L717.7,197.3 L717.9,195.0 L718.1,195.8 L718.3,200.1 L718.5,192.1 L718.7,188.1 L719.0,191.8 L719.2,187.5 
		L719.4,190.4 L719.6,188.9 L719.8,188.1 L720.0,189.5 L720.3,189.2 L720.5,191.2 L720.7,190.9 L720.9,188.9 
		L721.1,189.2 L721.3,194.1 L721.6,187.8 L721.8,190.1 L722.0,188.9 L722.2,191.5 L722.4,190.4 L722.6,188.9 
		L722.8,191.2 L723.1,189.2 L723.3,188.4 L723.5,186.1 L723.7,190.4 L723.9,189.2 L724.1,189.5 L724.4,186.6 
		L724.6,191.2 L724.8,192.4 L725.0,182.3 L725.2,185.5 L725.4,185.5 L725.7,182.0 L725.9,184.3 L726.1,181.5 
		L726.3,185.2 L726.5,185.5 L726.7,185.8 L727.0,185.2 L727.2,182.0 L727.4,186.9 L727.6,188.1 L727.8,186.6 
		L728.0,184.3 L728.3,187.8 L728.5,185.2 L728.7,184.6 L728.9,184.9 L729.1,183.8 L729.3,186.6 L729.5,180.6 
		L729.8,183.5 L730.0,182.3 L730.2,183.2 L730.4,185.5 L730.6,184.1 L730.8,188.1 L731.1,184.1 L731.3,193.0 
		L731.5,177.8 L731.7,177.8 L731.9,178.3 L732.1,178.3 L732.4,179.5 L732.6,178.9 L732.8,176.9 L733.0,176.3 
		L733.2,179.2 L733.4,178.3 L733.7,177.2 L733.9,179.2 L734.1,177.5 L734.3,179.2 L734.5,177.2 L734.7,176.3 
		L734.9,178.9 L735.2,180.0 L735.4,178.3 L735.6,177.5 L735.8,180.3 L736.0,176.3 L736.2,175.2 L736.5,178.9 
		L736.7,178.9 L736.9,177.8 L737.1,178.3 L737.3,178.1 L737.5,177.8 L737.8,185.5 L738.0,176.3 L738.2,171.7 
		L738.4,174.0 L738.6,173.2 L738.8,174.0 L739.1,168.3 L739.3,173.2 L739.5,172.0 L739.7,169.7 L739.9,173.5 
		L740.1,173.2 L740.4,170.9 L740.6,172.9 L740.8,173.7 L741.0,172.3 L741.2,171.7 L741.4,174.9 L741.6,172.3 
		L741.9,169.2 L742.1,169.7 L742.3,172.6 L742.5,173.2 L742.7,170.3 L742.9,171.4 L743.2,172.9 L743.4,175.2 
		L743.6,171.2 L743.8,176.3 L744.0,170.3 L744.2,169.4 L744.5,178.1 L744.7,162.5 L744.9,165.4 L745.1,163.7 
		L745.3,164.6 L745.5,162.8 L745.8,159.4 L746.0,158.8 L746.2,162.0 L746.4,164.8 L746.6,164.8 L746.8,163.4 
		L747.0,161.1 L747.3,161.1 L747.5,162.3 L747.7,166.0 L747.9,161.7 L748.1,159.7 L748.3,164.8 L748.6,168.6 
		L748.8,162.3 L749.0,162.5 L749.2,166.3 L749.4,162.3 L749.6,163.7 L749.9,168.6 L750.1,160.8 L750.3,162.5 
		L750.5,165.4 L750.7,162.5 L750.9,177.2 L751.2,156.3 L751.4,156.5 L751.6,157.4 L751.8,156.5 L752.0,155.1 
		L752.2,156.5 L752.5,158.6 L752.7,159.1 L752.9,157.7 L753.1,154.5 L753.3,156.3 L753.5,157.7 L753.7,159.1 
		L754.0,157.1 L754.2,157.4 L754.4,155.7 L754.6,155.1 L754.8,156.5 L755.0,157.4 L755.3,157.4 L755.5,157.1 
		L755.7,156.8 L755.9,157.1 L756.1,154.8 L756.3,157.1 L756.6,157.7 L756.8,157.4 L757.0,158.6 L757.2,160.0 
		L757.4,170.6 L757.6,151.9 L757.9,148.8 L758.1,149.1 L758.3,153.4 L758.5,150.5 L758.7,147.9 L758.9,150.8 
		L759.1,146.5 L759.4,151.7 L759.6,145.9 L759.8,145.1 L760.0,150.2 L760.2,150.8 L760.4,154.8 L760.7,153.7 
		L760.9,153.7 L761.1,154.2 L761.3,151.9 L761.5,150.8 L761.7,150.2 L762.0,152.5 L762.2,147.4 L762.4,148.2 
		L762.6,153.7 L762.8,149.9 L763.0,149.4 L763.3,149.1 L763.5,147.4 L763.7,151.7 L763.9,152.2 L764.1,166.6 
		L764.3,139.6 L764.6,141.9 L764.8,145.3 L765.0,144.8 L765.2,144.5 L765.4,144.5 L765.6,141.9 L765.8,146.2 
		L766.1,145.3 L766.3,143.0 L766.5,144.8 L766.7,143.0 L766.9,143.9 L767.1,142.8 L767.4,141.9 L767.6,141.9 
		L767.8,142.2 L768.0,143.9 L768.2,143.0 L768.4,146.2 L768.7,140.8 L768.9,144.8 L769.1,144.5 L769.3,143.6 
		L769.5,143.6 L769.7,144.8 L770.0,144.8 L770.2,147.1 L770.4,144.5 L770.6,167.1 L770.8,139.9 L771.0,138.8 
		L771.2,139.1 L771.5,137.0 L771.7,139.1 L771.9,139.3 L772.1,136.5 L772.3,138.8 L772.5,140.5 L772.8,139.1 
		L773.0,138.8 L773.2,138.2 L773.4,136.8 L773.6,139.9 L773.8,142.2 L774.1,141.3 L774.3,134.5 L774.5,139.9 
		L774.7,137.3 L774.9,139.3 L775.1,135.9 L775.4,137.9 L775.6,135.3 L775.8,135.9 L776.0,137.3 L776.2,140.8 
		L776.4,141.6 L776.7,141.0 L776.9,136.8 L777.1,162.3 L777.3,136.5 L777.5,133.3 L777.7,132.7 L777.9,135.6 
		L778.2,134.7 L778.4,131.3 L778.6,130.4 L778.8,133.0 L779.0,132.4 L779.2,133.3 L779.5,131.9 L779.7,133.3 
		L779.9,133.9 L780.1,129.9 L780.3,130.4 L780.5,133.0 L780.8,132.4 L781.0,132.7 L781.2,132.4 L781.4,130.2 
		L781.6,132.2 L781.8,130.7 L782.1,132.4 L782.3,133.6 L782.5,131.3 L782.7,131.6 L782.9,134.2 L783.1,128.4 
		L783.3,133.3 L783.6,131.3 L783.8,219.9 L784.0,203.6 L784.2,204.4 L784.4,204.4 L784.6,203.3 L784.9,203.0 
		L785.1,205.9 L785.3,203.0 L785.5,203.3 L785.7,205.0 L785.9,205.3 L786.2,202.7 L786.4,204.4 L786.6,202.1 
		L786.8,204.7 L787.0,204.1 L787.2,202.4 L787.5,205.9 L787.7,203.8 L787.9,203.8 L788.1,203.0 L788.3,202.7 
		L788.5,203.0 L788.8,204.7 L789.0,204.4 L789.2,203.0 L789.4,205.6 L789.6,206.4 L789.8,200.4 L790.0,201.5 
		L790.3,204.7 L790.5,201.3 L790.7,194.7 L790.9,198.7 L791.1,197.3 L791.3,195.0 L791.6,198.4 L791.8,199.0 
		L792.0,198.1 L792.2,199.8 L792.4,198.4 L792.6,200.4 L792.9,198.4 L793.1,199.2 L793.3,198.7 L793.5,197.0 
		L793.7,195.3 L793.9,195.3 L794.2,197.3 L794.4,198.1 L794.6,199.0 L794.8,200.1 L795.0,198.1 L795.2,197.0 
		L795.4,197.0 L795.7,196.7 L795.9,197.3 L796.1,195.8 L796.3,199.8 L796.5,198.1 L796.7,206.1 L797.0,193.0 
		L797.2,191.8 L797.4,192.7 L797.6,193.8 L797.8,193.8 L798.0,190.4 L798.3,193.5 L798.5,190.7 L798.7,191.2 
		L798.9,193.5 L799.1,194.7 L799.3,195.3 L799.6,194.1 L799.8,195.3 L800.0,194.1 L800.2,194.1 L800.4,193.2 
		L800.6,192.4 L800.9,192.1 L801.1,192.1 L801.3,189.5 L801.5,193.0 L801.7,191.5 L801.9,191.8 L802.1,192.7 
		L802.4,195.3 L802.6,193.8 L802.8,192.7 L803.0,193.8 L803.2,195.3 L803.4,199.5 L803.7,186.9 L803.9,186.9 
		L804.1,186.4 L804.3,188.4 L804.5,189.2 L804.7,185.8 L805.0,186.6 L805.2,188.4 L805.4,194.1 L805.6,186.1 
		L805.8,187.5 L806.0,188.9 L806.3,188.1 L806.5,188.6 L806.7,188.1 L806.9,187.2 L807.1,187.5 L807.3,187.8 
		L807.5,189.2 L807.8,186.4 L808.0,186.4 L808.2,187.8 L808.4,187.8 L808.6,187.8 L808.8,187.5 L809.1,188.4 
		L809.3,188.9 L809.5,186.9 L809.7,189.5 L809.9,194.7 L810.1,177.5 L810.4,181.8 L810.6,182.3 L810.8,179.7 
		L811.0,182.9 L811.2,180.6 L811.4,183.8 L811.7,180.3 L811.9,183.5 L812.1,179.7 L812.3,183.8 L812.5,183.8 
		L812.7,179.5 L813.0,183.2 L813.2,181.2 L813.4,180.0 L813.6,182.0 L813.8,181.2 L814.0,181.8 L814.2,183.5 
		L814.5,184.1 L814.7,182.3 L814.9,181.5 L815.1,182.9 L815.3,184.1 L815.5,180.9 L815.8,185.8 L816.0,180.0 
		L816.2,179.5 L816.4,192.7 L816.6,175.5 L816.8,178.9 L817.1,176.6 L817.3,177.2 L817.5,176.3 L817.7,176.6 
		L817.9,177.5 L818.1,175.5 L818.4,177.8 L818.6,177.2 L818.8,176.9 L819.0,177.8 L819.2,172.9 L819.4,172.6 
		L819.6,175.5 L819.9,173.2 L820.1,176.0 L820.3,177.8 L820.5,176.9 L820.7,177.5 L820.9,175.2 L821.2,176.0 
		L821.4,179.7 L821.6,176.0 L821.8,178.3 L822.0,174.9 L822.2,178.9 L822.5,174.3 L822.7,176.3 L822.9,187.5 
		L823.1,174.9 L823.3,170.9 L823.5,168.6 L823.8,168.9 L824.0,168.3 L824.2,164.3 L824.4,169.4 L824.6,168.6 
		L824.8,167.4 L825.1,169.4 L825.3,174.3 L825.5,172.0 L825.7,169.2 L825.9,167.4 L826.1,167.7 L826.3,165.1 
		L826.6,172.0 L826.8,167.4 L827.0,167.4 L827.2,168.3 L827.4,168.9 L827.6,168.9 L827.9,169.7 L828.1,169.4 
		L828.3,170.9 L828.5,168.0 L828.7,166.0 L828.9,169.4 L829.2,169.2 L829.4,171.2 L829.6,179.5 L829.8,163.4 
		L830.0,161.1 L830.2,160.8 L830.5,165.7 L830.7,164.3 L830.9,163.4 L831.1,160.8 L831.3,161.1 L831.5,165.1 
		L831.7,161.1 L832.0,166.9 L832.2,166.6 L832.4,160.8 L832.6,162.5 L832.8,161.1 L833.0,164.0 L833.3,161.1 
		L833.5,160.8 L833.7,163.7 L833.9,162.3 L834.1,163.7 L834.3,159.7 L834.6,159.1 L834.8,164.0 L835.0,162.8 
		L835.2,160.5 L835.4,162.5 L835.6,163.1 L835.9,161.1 L836.1,178.3 L836.3,158.0 L836.5,158.0 L836.7,159.1 
		L836.9,157.4 L837.2,158.3 L837.4,157.7 L837.6,156.5 L837.8,157.1 L838.0,158.0 L838.2,157.7 L838.4,156.3 
		L838.7,162.5 L838.9,158.0 L839.1,155.4 L839.3,158.3 L839.5,157.1 L839.7,157.4 L840.0,158.8 L840.2,159.1 
		L840.4,157.7 L840.6,156.5 L840.8,156.3 L841.0,157.7 L841.3,159.4 L841.5,158.3 L841.7,157.4 L841.9,159.7 
		L842.1,158.3 L842.3,159.4 L842.6,171.7 L842.8,150.5 L843.0,152.8 L843.2,154.0 L843.4,151.1 L843.6,147.1 
		L843.8,150.5 L844.1,155.1 L844.3,150.2 L844.5,149.9 L844.7,153.7 L844.9,154.2 L845.1,151.4 L845.4,151.1 
		L845.6,152.2 L845.8,152.5 L846.0,150.5 L846.2,152.2 L846.4,152.8 L846.7,151.1 L846.9,153.1 L847.1,150.8 
		L847.3,151.1 L847.5,151.7 L847.7,151.7 L848.0,152.2 L848.2,151.9 L848.4,149.1 L848.6,152.8 L848.8,151.1 
		L849.0,151.9 L849.3,165.7 L849.5,146.5 L849.7,146.8 L849.9,145.9 L850.1,143.9 L850.3,146.8 L850.5,145.1 
		L850.8,145.6 L851.0,146.8 L851.2,154.8 L851.4,145.6 L851.6,145.6 L851.8,147.4 L852.1,145.9 L852.3,148.2 
		L852.5,145.9 L852.7,144.5 L852.9,142.5 L853.1,148.5 L853.4,146.8 L853.6,144.8 L853.8,150.5 L854.0,145.9 
		L854.2,143.9 L854.4,145.9 L854.7,148.2 L854.9,148.8 L855.1,141.3 L855.3,145.9 L855.5,145.1 L855.7,149.4 
		L855.9,139.6 L856.2,140.2 L856.4,139.9 L856.6,135.9 L856.8,141.9 L857.0,142.8 L857.2,142.2 L857.5,139.3 
		L857.7,144.5 L857.9,140.5 L858.1,139.9 L858.3,142.5 L858.5,143.9 L858.8,138.5 L859.0,140.8 L859.2,142.2 
		L859.4,140.2 L859.6,140.8 L859.8,142.2 L860.1,141.3 L860.3,143.6 L860.5,140.2 L860.7,142.2 L860.9,144.2 
		L861.1,142.2 L861.4,143.0 L861.6,142.2 L861.8,141.9 L862.0,143.9 L862.2,171.2 L862.4,208.4 L862.6,205.6 
		L862.9,206.4 L863.1,206.4 L863.3,206.7 L863.5,205.0 L863.7,205.3 L863.9,203.6 L864.2,206.1 L864.4,207.9 
		L864.6,204.1 L864.8,208.1 L865.0,205.0 L865.2,203.3 L865.5,205.3 L865.7,205.6 L865.9,207.3 L866.1,206.4 
		L866.3,203.3 L866.5,205.0 L866.8,206.7 L867.0,205.9 L867.2,203.3 L867.4,205.0 L867.6,206.7 L867.8,205.6 
		L868.0,205.9 L868.3,208.1 L868.5,205.3 L868.7,206.4 L868.9,207.6 L869.1,201.5 L869.3,201.5 L869.6,199.5 
		L869.8,199.2 L870.0,200.4 L870.2,201.0 L870.4,198.1 L870.6,196.7 L870.9,199.8 L871.1,200.4 L871.3,200.4 
		L871.5,200.1 L871.7,198.7 L871.9,199.8 L872.2,199.8 L872.4,201.8 L872.6,199.0 L872.8,200.7 L873.0,202.4 
		L873.2,195.5 L873.5,201.5 L873.7,200.7 L873.9,199.5 L874.1,199.8 L874.3,199.0 L874.5,200.1 L874.7,201.0 
		L875.0,201.3 L875.2,198.4 L875.4,209.0 L875.6,196.7 L875.8,197.6 L876.0,195.3 L876.3,195.5 L876.5,195.5 
		L876.7,194.7 L876.9,197.3 L877.1,195.5 L877.3,198.4 L877.6,196.7 L877.8,195.0 L878.0,193.2 L878.2,196.1 
		L878.4,192.4 L878.6,195.3 L878.9,195.3 L879.1,195.3 L879.3,195.5 L879.5,193.0 L879.7,192.7 L879.9,197.8 
		L880.1,192.4 L880.4,195.5 L880.6,197.6 L880.8,199.8 L881.0,197.3 L881.2,195.8 L881.4,193.5 L881.7,195.5 
		L881.9,204.7 L882.1,187.5 L882.3,191.8 L882.5,189.5 L882.7,192.1 L883.0,189.2 L883.2,188.6 L883.4,193.2 
		L883.6,190.1 L883.8,195.8 L884.0,189.2 L884.3,192.4 L884.5,189.2 L884.7,189.8 L884.9,188.9 L885.1,190.4 
		L885.3,190.1 L885.6,189.2 L885.8,190.1 L886.0,189.2 L886.2,190.9 L886.4,190.4 L886.6,189.5 L886.8,191.2 
		L887.1,190.4 L887.3,191.2 L887.5,190.1 L887.7,189.5 L887.9,189.8 L888.1,190.4 L888.4,187.8 L888.6,197.8 
		L888.8,186.1 L889.0,184.1 L889.2,187.5 L889.4,186.4 L889.7,186.4 L889.9,186.9 L890.1,182.9 L890.3,184.6 
		L890.5,186.4 L890.7,185.8 L891.0,186.9 L891.2,183.5 L891.4,186.4 L891.6,185.8 L891.8,188.4 L892.0,185.8 
		L892.2,182.3 L892.5,181.8 L892.7,183.5 L892.9,187.8 L893.1,185.8 L893.3,186.4 L893.5,187.2 L893.8,184.9 
		L894.0,187.8 L894.2,186.1 L894.4,186.6 L894.6,187.5 L894.8,187.2 L895.1,193.8 L895.3,181.8 L895.5,182.3 
		L895.7,184.1 L895.9,183.5 L896.1,180.6 L896.4,182.6 L896.6,181.2 L896.8,182.3 L897.0,185.5 L897.2,182.6 
		L897.4,182.9 L897.7,181.2 L897.9,182.3 L898.1,180.0 L898.3,177.5 L898.5,184.1 L898.7,182.0 L898.9,178.3 
		L899.2,180.9 L899.4,181.8 L899.6,182.3 L899.8,180.6 L900.0,182.0 L900.2,179.5 L900.5,183.2 L900.7,180.9 
		L900.9,181.2 L901.1,181.5 L901.3,180.9 L901.5,185.8 L901.8,177.2 L902.0,173.5 L902.2,173.5 L902.4,176.9 
		L902.6,175.8 L902.8,176.9 L903.1,174.3 L903.3,173.7 L903.5,173.7 L903.7,174.0 L903.9,176.0 L904.1,174.3 
		L904.3,175.8 L904.6,177.2 L904.8,174.6 L905.0,176.6 L905.2,174.6 L905.4,176.9 L905.6,175.2 L905.9,175.5 
		L906.1,176.6 L906.3,175.5 L906.5,174.9 L906.7,176.0 L906.9,176.9 L907.2,175.8 L907.4,174.9 L907.6,176.9 
		L907.8,209.9 L908.0,176.9 L908.2,182.0 L908.5,169.4 L908.7,170.0 L908.9,168.6 L909.1,169.7 L909.3,169.2 
		L909.5,170.9 L909.8,169.7 L910.0,172.9 L910.2,176.0 L910.4,168.9 L910.6,169.2 L910.8,169.7 L911.0,172.9 
		L911.3,171.2 L911.5,172.0 L911.7,170.3 L911.9,174.0 L912.1,169.7 L912.3,172.6 L912.6,173.7 L912.8,170.3 
		L913.0,172.9 L913.2,171.7 L913.4,170.3 L913.6,170.0 L913.9,172.0 L914.1,170.9 L914.3,171.2 L914.5,172.6 
		L914.7,182.3 L914.9,166.0 L915.2,163.4 L915.4,168.0 L915.6,163.1 L915.8,164.3 '></path>
</g>
<g style="fill:none; color:red; stroke:rgb(255,   0,   0); stroke-width:1.00; stroke-linecap:butt; stroke-linejoin:miter">
</g>
<g style="fill:none; color:black; stroke:currentColor; stroke-width:1.00; stroke-linecap:butt; stroke-linejoin:miter">
	<path d='M76.8,16.6 L76.8,246.0 L915.8,246.0 L915.8,16.6 L76.8,16.6 Z '></path>
</g>
</svg>

