[0.000000] [xbt_cfg/INFO] Configuration change: Set 'surf/precision' to '1e-9'
[0.000000] [xbt_cfg/INFO] Configuration change: Set 'network/model' to 'SMPI'
[0.000000] [xbt_cfg/INFO] Configuration change: Set 'network/TCP-gamma' to '4194304'
[0.000000] [xbt_cfg/INFO] Configuration change: Set 'tracing' to 'yes'
[0.000000] [xbt_cfg/INFO] Configuration change: Set 'smpi/comp-adjustment-file' to '/home/cheinrich/tmp/2016-08-11-smpi-mpi-ratio.csv'
[0.000000] [xbt_cfg/INFO] Configuration change: Set 'tracing/filename' to '/tmp/tracing'
[0.000000] [xbt_cfg/INFO] Configuration change: Set 'tracing/smpi' to '1'
[0.000000] [xbt_cfg/INFO] Configuration change: Set 'tracing/smpi/computing' to 'yes'
[0.000000] [xbt_cfg/INFO] Configuration change: Set 'smpi/trace-call-location' to '1'
[0.000000] [xbt_cfg/INFO] Configuration change: Set 'smpi/privatize-global-variables' to 'yes'
[0.000000] [xbt_cfg/INFO] Configuration change: Set 'plugin' to 'Energy'
[0.000000] [xbt_cfg/INFO] Configuration change: Set 'smpi/or' to '0:3.51809764924934e-06:3.01847204118237e-10;1420:8.16124874852713e-06:2.66840481979518e-10;33500:1.49347740713389e-05:1.97645004617501e-10;65536:5.88893263987424e-05:1.29160163208845e-09;320000:0:0'
[0.000000] [xbt_cfg/INFO] Configuration change: Set 'smpi/os' to '0:3.79946267082783e-06:1.09809596167633e-10;1420:4.06752467953734e-06:8.98782555257323e-11;33500:6.01204627458251e-06:7.10122202865045e-11;65536:7.28270630967833e-05:1.9683266729216e-10;320000:0:0'
[0.000000] [surf_parse/INFO] The custom configuration 'smpi/privatize-global-variables' is already defined by user!
[0.000000] [xbt_cfg/INFO] Configuration change: Set 'smpi/ois' to '0:3.65848336553355e-06:1.33280621516301e-10;1420:3.83673729379869e-06:7.84867337035856e-11;33500:5.57232433176236e-06:6.5668893954931e-11;65536:4.17803219267394e-06:2.37460347640595e-12;320000:4.70677307448713e-06:3.38065421824938e-13'
[0.000000] [xbt_cfg/INFO] Configuration change: Set 'smpi/display-timing' to 'yes'
[0.000000] [surf_parse/INFO] The custom configuration 'surf/precision' is already defined by user!
[0.000000] [xbt_cfg/INFO] Configuration change: Set 'smpi/iprobe' to '3.49479752916953e-07'
[0.000000] [xbt_cfg/INFO] Configuration change: Set 'smpi/wtime' to '4.195637e-08'
[0.000000] [xbt_cfg/INFO] Configuration change: Set 'smpi/lat-factor' to '0:2.12853331297438;1420:5.19380442595492;33500:4.24573375719345;65536:6.9874709829732;320000:6.23567954616888'
[0.000000] [xbt_cfg/INFO] Configuration change: Set 'smpi/send-is-detached-thresh' to '320000'
[0.000000] [xbt_cfg/INFO] Configuration change: Set 'smpi/init' to '0.1'
[0.000000] [xbt_cfg/INFO] Option smpi/running-power has been renamed to smpi/host-speed. Consider switching.
[0.000000] [xbt_cfg/INFO] Configuration change: Set 'smpi/running-power' to '20000'
[0.000000] [xbt_cfg/INFO] Option smpi/running-power has been renamed to smpi/host-speed. Consider switching.
[0.000000] [xbt_cfg/INFO] Configuration change: Set 'smpi/bw-factor' to '0:0.00874688662522859;1420:0.147211715861806;33500:0.107192502175564;65536:0.187807186806016;320000:0.0958499316204859'
[0.000000] [xbt_cfg/INFO] Configuration change: Set 'tracing/precision' to '9'
[0.000000] [xbt_cfg/INFO] Configuration change: Set 'smpi/async-small-thresh' to '65536'
[0.000000] [xbt_cfg/INFO] Configuration change: Set 'smpi/test' to '2.46327639751553e-07'
[0.000000] /home/cheinrich/src/simgrid/src/surf/xml/surfxml_sax_cb.cpp:105: [surf_parse/WARNING] Deprecated unit-less value '20000' for speed of cluster AS_taurus1. Append 'f' or 'flops' to your speed to get flop per second
[15.919155] [smpi_kernel/INFO] Simulated time: 15.9192 seconds. 

The simulation took 7522.1 seconds (after parsing and platform setup)
2380.36 seconds were actual computation of the application
[15.919155] [surf_energy/INFO] Total energy of host taurus-10.lyon.grid5000.fr: 2788.017502 Joules
[15.919155] [surf_energy/INFO] Total energy of host taurus-14.lyon.grid5000.fr: 1494.427253 Joules
[15.919155] [surf_energy/INFO] Total energy of host taurus-2.lyon.grid5000.fr: 2844.687655 Joules
[15.919155] [surf_energy/INFO] Total energy of host taurus-6.lyon.grid5000.fr: 2846.630511 Joules
[15.919155] [surf_energy/INFO] Total energy of host taurus-11.lyon.grid5000.fr: 2784.435297 Joules
[15.919155] [surf_energy/INFO] Total energy of host taurus-15.lyon.grid5000.fr: 1494.427253 Joules
[15.919155] [surf_energy/INFO] Total energy of host taurus-3.lyon.grid5000.fr: 2845.957076 Joules
[15.919155] [surf_energy/INFO] Total energy of host taurus-7.lyon.grid5000.fr: 2792.358907 Joules
[15.919155] [surf_energy/INFO] Total energy of host taurus-12.lyon.grid5000.fr: 2703.030258 Joules
[15.919155] [surf_energy/INFO] Total energy of host taurus-16.lyon.grid5000.fr: 1494.427253 Joules
[15.919155] [surf_energy/INFO] Total energy of host taurus-4.lyon.grid5000.fr: 2845.727717 Joules
[15.919155] [surf_energy/INFO] Total energy of host taurus-8.lyon.grid5000.fr: 2791.790413 Joules
[15.919155] [surf_energy/INFO] Total energy of host taurus-13.lyon.grid5000.fr: 1494.427253 Joules
[15.919155] [surf_energy/INFO] Total energy of host taurus-1.lyon.grid5000.fr: 2756.921009 Joules
[15.919155] [surf_energy/INFO] Total energy of host taurus-5.lyon.grid5000.fr: 2847.895534 Joules
[15.919155] [surf_energy/INFO] Total energy of host taurus-9.lyon.grid5000.fr: 2789.706329 Joules


 NAS Parallel Benchmarks 3.3 -- LU Benchmark

 Size:  162x 162x 162
 Iterations:  250
 Number of processes:   144

 Proc_grid for nprocs =   144:   12 x   12
 Time step    1
 Time step   20
 Time step   40
 Time step   60
 Time step   80
 Time step  100
 Time step  120
 Time step  140
 Time step  160
 Time step  180
 Time step  200
 Time step  220
 Time step  240
 Time step  250

 Verification being performed for class C
 Accuracy setting for epsilon =  0.1000000000000E-07
 Comparison of RMS-norms of residual
           1   0.1037669803235E+05 0.1037669803235E+05 0.1752955899723E-15
           2   0.8922124588010E+03 0.8922124588010E+03 0.1019370098233E-14
           3   0.2562388145827E+04 0.2562388145827E+04 0.7098805099097E-15
           4   0.2191943438578E+04 0.2191943438578E+04 0.0000000000000E+00
           5   0.1780780572611E+05 0.1780780572611E+05 0.1225747471546E-14
 Comparison of RMS-norms of solution error
           1   0.2159863997169E+03 0.2159863997169E+03 0.2631805471794E-15
           2   0.1557895592399E+02 0.1557895592399E+02 0.1596319796586E-14
           3   0.5413188630772E+02 0.5413188630772E+02 0.1312614032552E-14
           4   0.4822626431540E+02 0.4822626431540E+02 0.4420056659042E-15
           5   0.4559029100433E+03 0.4559029100433E+03 0.2119613846163E-14
 Comparison of surface integral
               0.6664045535722E+02 0.6664045535722E+02 0.6397399885262E-15
 Verification Successful


 LU Benchmark Completed.
 Class           =                        C
 Size            =            162x 162x 162
 Iterations      =                      250
 Time in seconds =                    15.45
 Total processes =                      144
 Compiled procs  =                      144
 Mop/s total     =                131952.70
 Mop/s/process   =                   916.34
 Operation type  =           floating point
 Verification    =               SUCCESSFUL
 Version         =                    3.3.1
 Compile date    =              05 Oct 2016

 Compile options:
    MPIF77       = smpiff
    FLINK        = $(MPIF77)
    FMPI_LIB     = -lm -L/home/cheinrich/local/lib -lsimgrid
    FMPI_INC     = -I/home/cheinrich/local/include/smpi -I/hom...
    FFLAGS       = -O2 -trace-call-location
    FLINKFLAGS   = -O2
    RAND         = (none)


 Please send feedbacks and/or the results of this run to:

 NPB Development Team 
 Internet: npb@nas.nasa.gov


