Sat Nov 26 06:05:56 2016<stdout>:
Sat Nov 26 06:05:56 2016<stdout>: NAS Parallel Benchmarks 3.3 -- EP Benchmark
Sat Nov 26 06:05:56 2016<stdout>:
Sat Nov 26 06:05:56 2016<stdout>: Number of random numbers generated:      8589934592
Sat Nov 26 06:05:56 2016<stdout>: Number of active processes:                       1
Sat Nov 26 06:05:56 2016<stdout>:
Sat Nov 26 06:16:05 2016<stdout>:EP Benchmark Results:
Sat Nov 26 06:16:05 2016<stdout>:
Sat Nov 26 06:16:05 2016<stdout>:CPU Time =  609.0832
Sat Nov 26 06:16:05 2016<stdout>:N = 2^   32
Sat Nov 26 06:16:05 2016<stdout>:No. Gaussian Pairs =    3373275903.
Sat Nov 26 06:16:05 2016<stdout>:Sums =     4.764367927994629D+04   -8.084072988037116D+04
Sat Nov 26 06:16:05 2016<stdout>:Counts:
Sat Nov 26 06:16:05 2016<stdout>:  0    1572172634.
Sat Nov 26 06:16:05 2016<stdout>:  1    1501108549.
Sat Nov 26 06:16:05 2016<stdout>:  2     281805648.
Sat Nov 26 06:16:05 2016<stdout>:  3      17761221.
Sat Nov 26 06:16:05 2016<stdout>:  4        424017.
Sat Nov 26 06:16:05 2016<stdout>:  5          3821.
Sat Nov 26 06:16:05 2016<stdout>:  6            13.
Sat Nov 26 06:16:05 2016<stdout>:  7             0.
Sat Nov 26 06:16:05 2016<stdout>:  8             0.
Sat Nov 26 06:16:05 2016<stdout>:  9             0.
Sat Nov 26 06:16:05 2016<stdout>:
Sat Nov 26 06:16:05 2016<stdout>:
Sat Nov 26 06:16:05 2016<stdout>: EP Benchmark Completed.
Sat Nov 26 06:16:05 2016<stdout>: Class           =                        C
Sat Nov 26 06:16:05 2016<stdout>: Size            =               8589934592
Sat Nov 26 06:16:05 2016<stdout>: Iterations      =                        0
Sat Nov 26 06:16:05 2016<stdout>: Time in seconds =                   609.08
Sat Nov 26 06:16:05 2016<stdout>: Total processes =                        1
Sat Nov 26 06:16:05 2016<stdout>: Compiled procs  =                        1
Sat Nov 26 06:16:05 2016<stdout>: Mop/s total     =                    14.10
Sat Nov 26 06:16:05 2016<stdout>: Mop/s/process   =                    14.10
Sat Nov 26 06:16:05 2016<stdout>: Operation type  = Random numbers generated
Sat Nov 26 06:16:05 2016<stdout>: Verification    =               SUCCESSFUL
Sat Nov 26 06:16:05 2016<stdout>: Version         =                    3.3.1
Sat Nov 26 06:16:05 2016<stdout>: Compile date    =              21 Nov 2016
Sat Nov 26 06:16:05 2016<stdout>:
Sat Nov 26 06:16:05 2016<stdout>: Compile options:
Sat Nov 26 06:16:05 2016<stdout>:    MPIF77       = mpif77
Sat Nov 26 06:16:05 2016<stdout>:    FLINK        = $(MPIF77)
Sat Nov 26 06:16:05 2016<stdout>:    FMPI_LIB     = -L/usr/lib -lmpi -lmpif77
Sat Nov 26 06:16:05 2016<stdout>:    FMPI_INC     = -I/usr/include
Sat Nov 26 06:16:05 2016<stdout>:    FFLAGS       = -O2 -fsecond-underscore
Sat Nov 26 06:16:05 2016<stdout>:    FLINKFLAGS   = -O2
Sat Nov 26 06:16:05 2016<stdout>:    RAND         = randi8
Sat Nov 26 06:16:05 2016<stdout>:
Sat Nov 26 06:16:05 2016<stdout>:
Sat Nov 26 06:16:05 2016<stdout>: Please send feedbacks and/or the results of this run to:
Sat Nov 26 06:16:05 2016<stdout>:
Sat Nov 26 06:16:05 2016<stdout>: NPB Development Team 
Sat Nov 26 06:16:05 2016<stdout>: Internet: npb@nas.nasa.gov
Sat Nov 26 06:16:05 2016<stdout>:
Sat Nov 26 06:16:05 2016<stdout>:
