[taurus-1.lyon.grid5000.fr:16542] System has detected external process binding to cores 0001
Sun Nov 20 05:05:37 2016<stderr>:[taurus-5.lyon.grid5000.fr:06946] MCW rank 3 bound to socket 0[core 0]: [B]
Sun Nov 20 05:05:37 2016<stderr>:[taurus-7.lyon.grid5000.fr:45623] MCW rank 1 bound to socket 0[core 0]: [B]
Sun Nov 20 05:05:37 2016<stderr>:[taurus-8.lyon.grid5000.fr:24178] MCW rank 0 bound to socket 0[core 0]: [B]
Sun Nov 20 05:05:37 2016<stderr>:[taurus-14.lyon.grid5000.fr:39639] MCW rank 7 bound to socket 0[core 0]: [B]
Sun Nov 20 05:05:37 2016<stderr>:[taurus-3.lyon.grid5000.fr:39782] MCW rank 5 bound to socket 0[core 0]: [B]
Sun Nov 20 05:05:37 2016<stderr>:[taurus-4.lyon.grid5000.fr:39760] MCW rank 4 bound to socket 0[core 0]: [B]
Sun Nov 20 05:05:37 2016<stderr>:[taurus-6.lyon.grid5000.fr:06847] MCW rank 2 bound to socket 0[core 0]: [B]
Sun Nov 20 05:05:37 2016<stderr>:[taurus-16.lyon.grid5000.fr:39667] MCW rank 6 bound to socket 0[core 0]: [B]
