Sun Oct  2 11:17:11 2016<stdout>:
Sun Oct  2 11:17:11 2016<stdout>:
Sun Oct  2 11:17:11 2016<stdout>: NAS Parallel Benchmarks 3.3 -- LU Benchmark
Sun Oct  2 11:17:11 2016<stdout>:
Sun Oct  2 11:17:11 2016<stdout>: Size:  162x 162x 162
Sun Oct  2 11:17:11 2016<stdout>: Iterations:  250
Sun Oct  2 11:17:11 2016<stdout>: Number of processes:    64
Sun Oct  2 11:17:11 2016<stdout>:
Sun Oct  2 11:17:12 2016<stdout>: Time step    1
Sun Oct  2 11:17:14 2016<stdout>: Time step   20
Sun Oct  2 11:17:16 2016<stdout>: Time step   40
Sun Oct  2 11:17:18 2016<stdout>: Time step   60
Sun Oct  2 11:17:20 2016<stdout>: Time step   80
Sun Oct  2 11:17:22 2016<stdout>: Time step  100
Sun Oct  2 11:17:24 2016<stdout>: Time step  120
Sun Oct  2 11:17:27 2016<stdout>: Time step  140
Sun Oct  2 11:17:29 2016<stdout>: Time step  160
Sun Oct  2 11:17:31 2016<stdout>: Time step  180
Sun Oct  2 11:17:33 2016<stdout>: Time step  200
Sun Oct  2 11:17:35 2016<stdout>: Time step  220
Sun Oct  2 11:17:37 2016<stdout>: Time step  240
Sun Oct  2 11:17:38 2016<stdout>: Time step  250
Sun Oct  2 11:17:39 2016<stdout>:
Sun Oct  2 11:17:39 2016<stdout>: Verification being performed for class C
Sun Oct  2 11:17:39 2016<stdout>: Accuracy setting for epsilon =  0.1000000000000E-07
Sun Oct  2 11:17:39 2016<stdout>: Comparison of RMS-norms of residual
Sun Oct  2 11:17:39 2016<stdout>:           1   0.1037669803235E+05 0.1037669803235E+05 0.1051773539834E-14
Sun Oct  2 11:17:39 2016<stdout>:           2   0.8922124588010E+03 0.8922124588010E+03 0.1783897671908E-14
Sun Oct  2 11:17:39 2016<stdout>:           3   0.2562388145827E+04 0.2562388145827E+04 0.1242290892342E-14
Sun Oct  2 11:17:39 2016<stdout>:           4   0.2191943438578E+04 0.2191943438578E+04 0.4149261727131E-15
Sun Oct  2 11:17:39 2016<stdout>:           5   0.1780780572611E+05 0.1780780572611E+05 0.1634329962061E-14
Sun Oct  2 11:17:39 2016<stdout>: Comparison of RMS-norms of solution error
Sun Oct  2 11:17:39 2016<stdout>:           1   0.2159863997169E+03 0.2159863997169E+03 0.2631805471794E-15
Sun Oct  2 11:17:39 2016<stdout>:           2   0.1557895592399E+02 0.1557895592399E+02 0.1140228426133E-14
Sun Oct  2 11:17:39 2016<stdout>:           3   0.5413188630772E+02 0.5413188630772E+02 0.1837659645572E-14
Sun Oct  2 11:17:39 2016<stdout>:           4   0.4822626431540E+02 0.4822626431540E+02 0.1473352219681E-15
Sun Oct  2 11:17:39 2016<stdout>:           5   0.4559029100433E+03 0.4559029100433E+03 0.1870247511320E-14
Sun Oct  2 11:17:39 2016<stdout>: Comparison of surface integral
Sun Oct  2 11:17:39 2016<stdout>:               0.6664045535722E+02 0.6664045535722E+02 0.6397399885262E-15
Sun Oct  2 11:17:39 2016<stdout>: Verification Successful
Sun Oct  2 11:17:39 2016<stdout>:
Sun Oct  2 11:17:39 2016<stdout>:
Sun Oct  2 11:17:39 2016<stdout>: LU Benchmark Completed.
Sun Oct  2 11:17:39 2016<stdout>: Class           =                        C
Sun Oct  2 11:17:39 2016<stdout>: Size            =            162x 162x 162
Sun Oct  2 11:17:39 2016<stdout>: Iterations      =                      250
Sun Oct  2 11:17:39 2016<stdout>: Time in seconds =                    26.86
Sun Oct  2 11:17:39 2016<stdout>: Total processes =                       64
Sun Oct  2 11:17:39 2016<stdout>: Compiled procs  =                       64
Sun Oct  2 11:17:39 2016<stdout>: Mop/s total     =                 75901.77
Sun Oct  2 11:17:39 2016<stdout>: Mop/s/process   =                  1185.97
Sun Oct  2 11:17:39 2016<stdout>: Operation type  =           floating point
Sun Oct  2 11:17:39 2016<stdout>: Verification    =               SUCCESSFUL
Sun Oct  2 11:17:39 2016<stdout>: Version         =                    3.3.1
Sun Oct  2 11:17:39 2016<stdout>: Compile date    =              02 Oct 2016
Sun Oct  2 11:17:39 2016<stdout>:
Sun Oct  2 11:17:39 2016<stdout>: Compile options:
Sun Oct  2 11:17:39 2016<stdout>:    MPIF77       = mpif77
Sun Oct  2 11:17:39 2016<stdout>:    FLINK        = $(MPIF77)
Sun Oct  2 11:17:39 2016<stdout>:    FMPI_LIB     = -L/usr/lib -lmpi -lmpif77
Sun Oct  2 11:17:39 2016<stdout>:    FMPI_INC     = -I/usr/include
Sun Oct  2 11:17:39 2016<stdout>:    FFLAGS       = -O2 -fsecond-underscore
Sun Oct  2 11:17:39 2016<stdout>:    FLINKFLAGS   = -O2
Sun Oct  2 11:17:39 2016<stdout>:    RAND         = (none)
Sun Oct  2 11:17:39 2016<stdout>:
Sun Oct  2 11:17:39 2016<stdout>:
Sun Oct  2 11:17:39 2016<stdout>: Please send feedbacks and/or the results of this run to:
Sun Oct  2 11:17:39 2016<stdout>:
Sun Oct  2 11:17:39 2016<stdout>: NPB Development Team 
Sun Oct  2 11:17:39 2016<stdout>: Internet: npb@nas.nasa.gov
Sun Oct  2 11:17:39 2016<stdout>:
Sun Oct  2 11:17:39 2016<stdout>:
