Fri Nov  4 23:32:08 2016<stdout>:
Fri Nov  4 23:32:08 2016<stdout>:
Fri Nov  4 23:32:08 2016<stdout>: NAS Parallel Benchmarks 3.3 -- LU Benchmark
Fri Nov  4 23:32:08 2016<stdout>:
Fri Nov  4 23:32:08 2016<stdout>: Size:  162x 162x 162
Fri Nov  4 23:32:08 2016<stdout>: Iterations:  250
Fri Nov  4 23:32:08 2016<stdout>: Number of processes:     1
Fri Nov  4 23:32:08 2016<stdout>:
Fri Nov  4 23:32:30 2016<stdout>: Time step    1
Fri Nov  4 23:34:54 2016<stdout>: Time step   20
Fri Nov  4 23:37:26 2016<stdout>: Time step   40
Fri Nov  4 23:39:58 2016<stdout>: Time step   60
Fri Nov  4 23:42:30 2016<stdout>: Time step   80
Fri Nov  4 23:45:02 2016<stdout>: Time step  100
Fri Nov  4 23:47:33 2016<stdout>: Time step  120
Fri Nov  4 23:50:05 2016<stdout>: Time step  140
Fri Nov  4 23:52:37 2016<stdout>: Time step  160
Fri Nov  4 23:55:09 2016<stdout>: Time step  180
Fri Nov  4 23:57:40 2016<stdout>: Time step  200
Sat Nov  5 00:00:12 2016<stdout>: Time step  220
Sat Nov  5 00:02:44 2016<stdout>: Time step  240
Sat Nov  5 00:04:00 2016<stdout>: Time step  250
Sat Nov  5 00:04:08 2016<stdout>:
Sat Nov  5 00:04:08 2016<stdout>: Verification being performed for class C
Sat Nov  5 00:04:08 2016<stdout>: Accuracy setting for epsilon =  0.1000000000000E-07
Sat Nov  5 00:04:08 2016<stdout>: Comparison of RMS-norms of residual
Sat Nov  5 00:04:08 2016<stdout>:           1   0.1037669803235E+05 0.1037669803235E+05 0.3330616209474E-14
Sat Nov  5 00:04:08 2016<stdout>:           2   0.8922124588010E+03 0.8922124588010E+03 0.7517854474470E-14
Sat Nov  5 00:04:08 2016<stdout>:           3   0.2562388145827E+04 0.2562388145827E+04 0.1419761019819E-13
Sat Nov  5 00:04:08 2016<stdout>:           4   0.2191943438578E+04 0.2191943438578E+04 0.7676134195193E-14
Sat Nov  5 00:04:08 2016<stdout>:           5   0.1780780572611E+05 0.1780780572611E+05 0.3350376422225E-13
Sat Nov  5 00:04:08 2016<stdout>: Comparison of RMS-norms of solution error
Sat Nov  5 00:04:08 2016<stdout>:           1   0.2159863997170E+03 0.2159863997169E+03 0.2105444377435E-13
Sat Nov  5 00:04:08 2016<stdout>:           2   0.1557895592399E+02 0.1557895592399E+02 0.1334067258576E-13
Sat Nov  5 00:04:08 2016<stdout>:           3   0.5413188630772E+02 0.5413188630772E+02 0.2625228065103E-14
Sat Nov  5 00:04:08 2016<stdout>:           4   0.4822626431540E+02 0.4822626431540E+02 0.1768022663617E-14
Sat Nov  5 00:04:08 2016<stdout>:           5   0.4559029100433E+03 0.4559029100433E+03 0.3715558389157E-13
Sat Nov  5 00:04:08 2016<stdout>: Comparison of surface integral
Sat Nov  5 00:04:08 2016<stdout>:               0.6664045535722E+02 0.6664045535722E+02 0.2132466628421E-15
Sat Nov  5 00:04:08 2016<stdout>: Verification Successful
Sat Nov  5 00:04:08 2016<stdout>:
Sat Nov  5 00:04:08 2016<stdout>:
Sat Nov  5 00:04:08 2016<stdout>: LU Benchmark Completed.
Sat Nov  5 00:04:08 2016<stdout>: Class           =                        C
Sat Nov  5 00:04:08 2016<stdout>: Size            =            162x 162x 162
Sat Nov  5 00:04:08 2016<stdout>: Iterations      =                      250
Sat Nov  5 00:04:08 2016<stdout>: Time in seconds =                  1897.37
Sat Nov  5 00:04:08 2016<stdout>: Total processes =                        1
Sat Nov  5 00:04:08 2016<stdout>: Compiled procs  =                        1
Sat Nov  5 00:04:08 2016<stdout>: Mop/s total     =                  1074.64
Sat Nov  5 00:04:08 2016<stdout>: Mop/s/process   =                  1074.64
Sat Nov  5 00:04:08 2016<stdout>: Operation type  =           floating point
Sat Nov  5 00:04:08 2016<stdout>: Verification    =               SUCCESSFUL
Sat Nov  5 00:04:08 2016<stdout>: Version         =                    3.3.1
Sat Nov  5 00:04:08 2016<stdout>: Compile date    =              17 Oct 2016
Sat Nov  5 00:04:08 2016<stdout>:
Sat Nov  5 00:04:08 2016<stdout>: Compile options:
Sat Nov  5 00:04:08 2016<stdout>:    MPIF77       = mpif77
Sat Nov  5 00:04:08 2016<stdout>:    FLINK        = $(MPIF77)
Sat Nov  5 00:04:08 2016<stdout>:    FMPI_LIB     = -L/usr/lib -lmpi -lmpif77
Sat Nov  5 00:04:08 2016<stdout>:    FMPI_INC     = -I/usr/include
Sat Nov  5 00:04:08 2016<stdout>:    FFLAGS       = -O2 -fsecond-underscore
Sat Nov  5 00:04:08 2016<stdout>:    FLINKFLAGS   = -O2
Sat Nov  5 00:04:08 2016<stdout>:    RAND         = (none)
Sat Nov  5 00:04:08 2016<stdout>:
Sat Nov  5 00:04:08 2016<stdout>:
Sat Nov  5 00:04:08 2016<stdout>: Please send feedbacks and/or the results of this run to:
Sat Nov  5 00:04:08 2016<stdout>:
Sat Nov  5 00:04:08 2016<stdout>: NPB Development Team 
Sat Nov  5 00:04:08 2016<stdout>: Internet: npb@nas.nasa.gov
Sat Nov  5 00:04:08 2016<stdout>:
Sat Nov  5 00:04:08 2016<stdout>:
