Sun Nov 20 03:27:14 2016<stdout>:
Sun Nov 20 03:27:14 2016<stdout>:
Sun Nov 20 03:27:14 2016<stdout>: NAS Parallel Benchmarks 3.3 -- LU Benchmark
Sun Nov 20 03:27:14 2016<stdout>:
Sun Nov 20 03:27:14 2016<stdout>: Size:  162x 162x 162
Sun Nov 20 03:27:14 2016<stdout>: Iterations:  250
Sun Nov 20 03:27:14 2016<stdout>: Number of processes:    12
Sun Nov 20 03:27:14 2016<stdout>:
Sun Nov 20 03:27:14 2016<stdout>: Proc_grid for nprocs =    12:    4 x    3
Sun Nov 20 03:27:15 2016<stdout>: Time step    1
Sun Nov 20 03:27:23 2016<stdout>: Time step   20
Sun Nov 20 03:27:32 2016<stdout>: Time step   40
Sun Nov 20 03:27:40 2016<stdout>: Time step   60
Sun Nov 20 03:27:49 2016<stdout>: Time step   80
Sun Nov 20 03:27:57 2016<stdout>: Time step  100
Sun Nov 20 03:28:06 2016<stdout>: Time step  120
Sun Nov 20 03:28:14 2016<stdout>: Time step  140
Sun Nov 20 03:28:23 2016<stdout>: Time step  160
Sun Nov 20 03:28:31 2016<stdout>: Time step  180
Sun Nov 20 03:28:40 2016<stdout>: Time step  200
Sun Nov 20 03:28:48 2016<stdout>: Time step  220
Sun Nov 20 03:28:57 2016<stdout>: Time step  240
Sun Nov 20 03:29:01 2016<stdout>: Time step  250
Sun Nov 20 03:29:01 2016<stdout>:
Sun Nov 20 03:29:01 2016<stdout>: Verification being performed for class C
Sun Nov 20 03:29:01 2016<stdout>: Accuracy setting for epsilon =  0.1000000000000E-07
Sun Nov 20 03:29:01 2016<stdout>: Comparison of RMS-norms of residual
Sun Nov 20 03:29:01 2016<stdout>:           1   0.1037669803235E+05 0.1037669803235E+05 0.1752955899723E-15
Sun Nov 20 03:29:01 2016<stdout>:           2   0.8922124588010E+03 0.8922124588010E+03 0.4204901655212E-14
Sun Nov 20 03:29:01 2016<stdout>:           3   0.2562388145827E+04 0.2562388145827E+04 0.1064820764864E-14
Sun Nov 20 03:29:01 2016<stdout>:           4   0.2191943438578E+04 0.2191943438578E+04 0.1659704690852E-14
Sun Nov 20 03:29:01 2016<stdout>:           5   0.1780780572611E+05 0.1780780572611E+05 0.1634329962061E-14
Sun Nov 20 03:29:01 2016<stdout>: Comparison of RMS-norms of solution error
Sun Nov 20 03:29:01 2016<stdout>:           1   0.2159863997169E+03 0.2159863997169E+03 0.1315902735897E-14
Sun Nov 20 03:29:01 2016<stdout>:           2   0.1557895592399E+02 0.1557895592399E+02 0.2622525380106E-14
Sun Nov 20 03:29:01 2016<stdout>:           3   0.5413188630772E+02 0.5413188630772E+02 0.1181352629297E-14
Sun Nov 20 03:29:01 2016<stdout>:           4   0.4822626431540E+02 0.4822626431540E+02 0.1768022663617E-14
Sun Nov 20 03:29:01 2016<stdout>:           5   0.4559029100433E+03 0.4559029100433E+03 0.2119613846163E-14
Sun Nov 20 03:29:01 2016<stdout>: Comparison of surface integral
Sun Nov 20 03:29:01 2016<stdout>:               0.6664045535722E+02 0.6664045535722E+02 0.6397399885262E-15
Sun Nov 20 03:29:01 2016<stdout>: Verification Successful
Sun Nov 20 03:29:01 2016<stdout>:
Sun Nov 20 03:29:01 2016<stdout>:
Sun Nov 20 03:29:01 2016<stdout>: LU Benchmark Completed.
Sun Nov 20 03:29:01 2016<stdout>: Class           =                        C
Sun Nov 20 03:29:01 2016<stdout>: Size            =            162x 162x 162
Sun Nov 20 03:29:01 2016<stdout>: Iterations      =                      250
Sun Nov 20 03:29:01 2016<stdout>: Time in seconds =                   105.86
Sun Nov 20 03:29:01 2016<stdout>: Total processes =                       12
Sun Nov 20 03:29:01 2016<stdout>: Compiled procs  =                       12
Sun Nov 20 03:29:01 2016<stdout>: Mop/s total     =                 19260.85
Sun Nov 20 03:29:01 2016<stdout>: Mop/s/process   =                  1605.07
Sun Nov 20 03:29:01 2016<stdout>: Operation type  =           floating point
Sun Nov 20 03:29:01 2016<stdout>: Verification    =               SUCCESSFUL
Sun Nov 20 03:29:01 2016<stdout>: Version         =                    3.3.1
Sun Nov 20 03:29:01 2016<stdout>: Compile date    =              20 Nov 2016
Sun Nov 20 03:29:01 2016<stdout>:
Sun Nov 20 03:29:01 2016<stdout>: Compile options:
Sun Nov 20 03:29:01 2016<stdout>:    MPIF77       = mpif77
Sun Nov 20 03:29:01 2016<stdout>:    FLINK        = $(MPIF77)
Sun Nov 20 03:29:01 2016<stdout>:    FMPI_LIB     = -L/usr/lib -lmpi -lmpif77
Sun Nov 20 03:29:01 2016<stdout>:    FMPI_INC     = -I/usr/include
Sun Nov 20 03:29:01 2016<stdout>:    FFLAGS       = -O2 -fsecond-underscore
Sun Nov 20 03:29:01 2016<stdout>:    FLINKFLAGS   = -O2
Sun Nov 20 03:29:01 2016<stdout>:    RAND         = (none)
Sun Nov 20 03:29:01 2016<stdout>:
Sun Nov 20 03:29:01 2016<stdout>:
Sun Nov 20 03:29:01 2016<stdout>: Please send feedbacks and/or the results of this run to:
Sun Nov 20 03:29:01 2016<stdout>:
Sun Nov 20 03:29:01 2016<stdout>: NPB Development Team 
Sun Nov 20 03:29:01 2016<stdout>: Internet: npb@nas.nasa.gov
Sun Nov 20 03:29:01 2016<stdout>:
Sun Nov 20 03:29:01 2016<stdout>:
