[flyon.lyon.grid5000.fr:30449] System has detected external process binding to cores 0001
Mon Nov 21 02:09:32 2016<stderr>:[taurus-8.lyon.grid5000.fr:41289] MCW rank 1 bound to socket 0[core 1]: [. B][. .]
Mon Nov 21 02:09:32 2016<stderr>:[taurus-5.lyon.grid5000.fr:21071] MCW rank 12 bound to socket 0[core 0]: [B .][. .]
Mon Nov 21 02:09:32 2016<stderr>:[taurus-8.lyon.grid5000.fr:41289] MCW rank 2 bound to socket 1[core 0]: [. .][B .]
Mon Nov 21 02:09:32 2016<stderr>:[taurus-5.lyon.grid5000.fr:21071] MCW rank 13 bound to socket 0[core 1]: [. B][. .]
Mon Nov 21 02:09:32 2016<stderr>:[taurus-8.lyon.grid5000.fr:41289] MCW rank 3 bound to socket 1[core 1]: [. .][. B]
Mon Nov 21 02:09:32 2016<stderr>:[taurus-5.lyon.grid5000.fr:21071] MCW rank 14 bound to socket 1[core 0]: [. .][B .]
Mon Nov 21 02:09:32 2016<stderr>:[taurus-5.lyon.grid5000.fr:21071] MCW rank 15 bound to socket 1[core 1]: [. .][. B]
Mon Nov 21 02:09:32 2016<stderr>:[taurus-8.lyon.grid5000.fr:41289] MCW rank 0 bound to socket 0[core 0]: [B .][. .]
Mon Nov 21 02:09:32 2016<stderr>:[taurus-14.lyon.grid5000.fr:02292] MCW rank 28 bound to socket 0[core 0]: [B .][. .]
Mon Nov 21 02:09:32 2016<stderr>:[taurus-14.lyon.grid5000.fr:02292] MCW rank 29 bound to socket 0[core 1]: [. B][. .]
Mon Nov 21 02:09:32 2016<stderr>:[taurus-14.lyon.grid5000.fr:02292] MCW rank 30 bound to socket 1[core 0]: [. .][B .]
Mon Nov 21 02:09:32 2016<stderr>:[taurus-14.lyon.grid5000.fr:02292] MCW rank 31 bound to socket 1[core 1]: [. .][. B]
Mon Nov 21 02:09:32 2016<stderr>:[taurus-7.lyon.grid5000.fr:11113] MCW rank 4 bound to socket 0[core 0]: [B .][. .]
Mon Nov 21 02:09:32 2016<stderr>:[taurus-7.lyon.grid5000.fr:11113] MCW rank 5 bound to socket 0[core 1]: [. B][. .]
Mon Nov 21 02:09:32 2016<stderr>:[taurus-7.lyon.grid5000.fr:11113] MCW rank 6 bound to socket 1[core 0]: [. .][B .]
Mon Nov 21 02:09:32 2016<stderr>:[taurus-7.lyon.grid5000.fr:11113] MCW rank 7 bound to socket 1[core 1]: [. .][. B]
Mon Nov 21 02:09:32 2016<stderr>:[taurus-6.lyon.grid5000.fr:21015] MCW rank 9 bound to socket 0[core 1]: [. B][. .]
Mon Nov 21 02:09:32 2016<stderr>:[taurus-6.lyon.grid5000.fr:21015] MCW rank 10 bound to socket 1[core 0]: [. .][B .]
Mon Nov 21 02:09:32 2016<stderr>:[taurus-6.lyon.grid5000.fr:21015] MCW rank 11 bound to socket 1[core 1]: [. .][. B]
Mon Nov 21 02:09:32 2016<stderr>:[taurus-6.lyon.grid5000.fr:21015] MCW rank 8 bound to socket 0[core 0]: [B .][. .]
Mon Nov 21 02:09:32 2016<stderr>:[taurus-4.lyon.grid5000.fr:02489] MCW rank 18 bound to socket 1[core 0]: [. .][B .]
Mon Nov 21 02:09:32 2016<stderr>:[taurus-4.lyon.grid5000.fr:02489] MCW rank 19 bound to socket 1[core 1]: [. .][. B]
Mon Nov 21 02:09:32 2016<stderr>:[taurus-4.lyon.grid5000.fr:02489] MCW rank 16 bound to socket 0[core 0]: [B .][. .]
Mon Nov 21 02:09:32 2016<stderr>:[taurus-4.lyon.grid5000.fr:02489] MCW rank 17 bound to socket 0[core 1]: [. B][. .]
Mon Nov 21 02:09:32 2016<stderr>:[taurus-3.lyon.grid5000.fr:02359] MCW rank 22 bound to socket 1[core 0]: [. .][B .]
Mon Nov 21 02:09:32 2016<stderr>:[taurus-3.lyon.grid5000.fr:02359] MCW rank 23 bound to socket 1[core 1]: [. .][. B]
Mon Nov 21 02:09:32 2016<stderr>:[taurus-3.lyon.grid5000.fr:02359] MCW rank 20 bound to socket 0[core 0]: [B .][. .]
Mon Nov 21 02:09:32 2016<stderr>:[taurus-3.lyon.grid5000.fr:02359] MCW rank 21 bound to socket 0[core 1]: [. B][. .]
Mon Nov 21 02:09:32 2016<stderr>:[taurus-16.lyon.grid5000.fr:02160] MCW rank 26 bound to socket 1[core 0]: [. .][B .]
Mon Nov 21 02:09:32 2016<stderr>:[taurus-16.lyon.grid5000.fr:02160] MCW rank 27 bound to socket 1[core 1]: [. .][. B]
Mon Nov 21 02:09:32 2016<stderr>:[taurus-16.lyon.grid5000.fr:02160] MCW rank 24 bound to socket 0[core 0]: [B .][. .]
Mon Nov 21 02:09:32 2016<stderr>:[taurus-16.lyon.grid5000.fr:02160] MCW rank 25 bound to socket 0[core 1]: [. B][. .]
