Fri Nov 25 23:45:50 2016<stdout>:
Fri Nov 25 23:45:50 2016<stdout>: NAS Parallel Benchmarks 3.3 -- EP Benchmark
Fri Nov 25 23:45:50 2016<stdout>:
Fri Nov 25 23:45:50 2016<stdout>: Number of random numbers generated:      8589934592
Fri Nov 25 23:45:50 2016<stdout>: Number of active processes:                       1
Fri Nov 25 23:45:50 2016<stdout>:
Fri Nov 25 23:58:15 2016<stdout>:EP Benchmark Results:
Fri Nov 25 23:58:15 2016<stdout>:
Fri Nov 25 23:58:15 2016<stdout>:CPU Time =  744.4790
Fri Nov 25 23:58:15 2016<stdout>:N = 2^   32
Fri Nov 25 23:58:15 2016<stdout>:No. Gaussian Pairs =    3373275903.
Fri Nov 25 23:58:15 2016<stdout>:Sums =     4.764367927994629D+04   -8.084072988037116D+04
Fri Nov 25 23:58:15 2016<stdout>:Counts:
Fri Nov 25 23:58:15 2016<stdout>:  0    1572172634.
Fri Nov 25 23:58:15 2016<stdout>:  1    1501108549.
Fri Nov 25 23:58:15 2016<stdout>:  2     281805648.
Fri Nov 25 23:58:15 2016<stdout>:  3      17761221.
Fri Nov 25 23:58:15 2016<stdout>:  4        424017.
Fri Nov 25 23:58:15 2016<stdout>:  5          3821.
Fri Nov 25 23:58:15 2016<stdout>:  6            13.
Fri Nov 25 23:58:15 2016<stdout>:  7             0.
Fri Nov 25 23:58:15 2016<stdout>:  8             0.
Fri Nov 25 23:58:15 2016<stdout>:  9             0.
Fri Nov 25 23:58:15 2016<stdout>:
Fri Nov 25 23:58:15 2016<stdout>:
Fri Nov 25 23:58:15 2016<stdout>: EP Benchmark Completed.
Fri Nov 25 23:58:15 2016<stdout>: Class           =                        C
Fri Nov 25 23:58:15 2016<stdout>: Size            =               8589934592
Fri Nov 25 23:58:15 2016<stdout>: Iterations      =                        0
Fri Nov 25 23:58:15 2016<stdout>: Time in seconds =                   744.48
Fri Nov 25 23:58:15 2016<stdout>: Total processes =                        1
Fri Nov 25 23:58:15 2016<stdout>: Compiled procs  =                        1
Fri Nov 25 23:58:15 2016<stdout>: Mop/s total     =                    11.54
Fri Nov 25 23:58:15 2016<stdout>: Mop/s/process   =                    11.54
Fri Nov 25 23:58:15 2016<stdout>: Operation type  = Random numbers generated
Fri Nov 25 23:58:15 2016<stdout>: Verification    =               SUCCESSFUL
Fri Nov 25 23:58:15 2016<stdout>: Version         =                    3.3.1
Fri Nov 25 23:58:15 2016<stdout>: Compile date    =              21 Nov 2016
Fri Nov 25 23:58:15 2016<stdout>:
Fri Nov 25 23:58:15 2016<stdout>: Compile options:
Fri Nov 25 23:58:15 2016<stdout>:    MPIF77       = mpif77
Fri Nov 25 23:58:15 2016<stdout>:    FLINK        = $(MPIF77)
Fri Nov 25 23:58:15 2016<stdout>:    FMPI_LIB     = -L/usr/lib -lmpi -lmpif77
Fri Nov 25 23:58:15 2016<stdout>:    FMPI_INC     = -I/usr/include
Fri Nov 25 23:58:15 2016<stdout>:    FFLAGS       = -O2 -fsecond-underscore
Fri Nov 25 23:58:15 2016<stdout>:    FLINKFLAGS   = -O2
Fri Nov 25 23:58:15 2016<stdout>:    RAND         = randi8
Fri Nov 25 23:58:15 2016<stdout>:
Fri Nov 25 23:58:15 2016<stdout>:
Fri Nov 25 23:58:15 2016<stdout>: Please send feedbacks and/or the results of this run to:
Fri Nov 25 23:58:15 2016<stdout>:
Fri Nov 25 23:58:15 2016<stdout>: NPB Development Team 
Fri Nov 25 23:58:15 2016<stdout>: Internet: npb@nas.nasa.gov
Fri Nov 25 23:58:15 2016<stdout>:
Fri Nov 25 23:58:15 2016<stdout>:
