--------------------------------------------------------------------------
A deprecated MCA parameter value was specified in the environment or
on the command line.  Deprecated MCA parameters should be avoided;
they may disappear in future releases.

  Deprecated parameter: plm_rsh_agent
--------------------------------------------------------------------------
Sun Oct  2 09:00:05 2016<stddiag>:--------------------------------------------------------------------------
Sun Oct  2 09:00:05 2016<stddiag>:A deprecated MCA parameter value was specified in the environment or
Sun Oct  2 09:00:05 2016<stddiag>:on the command line.  Deprecated MCA parameters should be avoided;
Sun Oct  2 09:00:05 2016<stddiag>:they may disappear in future releases.
Sun Oct  2 09:00:05 2016<stddiag>:
Sun Oct  2 09:00:05 2016<stddiag>:  Deprecated parameter: plm_rsh_agent
Sun Oct  2 09:00:05 2016<stddiag>:--------------------------------------------------------------------------
Sun Oct  2 09:00:05 2016<stddiag>:--------------------------------------------------------------------------
Sun Oct  2 09:00:05 2016<stddiag>:A deprecated MCA parameter value was specified in the environment or
Sun Oct  2 09:00:05 2016<stddiag>:on the command line.  Deprecated MCA parameters should be avoided;
Sun Oct  2 09:00:05 2016<stddiag>:they may disappear in future releases.
Sun Oct  2 09:00:05 2016<stddiag>:
Sun Oct  2 09:00:05 2016<stddiag>:  Deprecated parameter: plm_rsh_agent
Sun Oct  2 09:00:05 2016<stddiag>:--------------------------------------------------------------------------
Sun Oct  2 09:00:05 2016<stddiag>:--------------------------------------------------------------------------
Sun Oct  2 09:00:05 2016<stddiag>:A deprecated MCA parameter value was specified in the environment or
Sun Oct  2 09:00:05 2016<stddiag>:on the command line.  Deprecated MCA parameters should be avoided;
Sun Oct  2 09:00:05 2016<stddiag>:they may disappear in future releases.
Sun Oct  2 09:00:05 2016<stddiag>:
Sun Oct  2 09:00:05 2016<stddiag>:  Deprecated parameter: plm_rsh_agent
Sun Oct  2 09:00:05 2016<stddiag>:--------------------------------------------------------------------------
Sun Oct  2 09:00:05 2016<stddiag>:--------------------------------------------------------------------------
Sun Oct  2 09:00:05 2016<stddiag>:A deprecated MCA parameter value was specified in the environment or
Sun Oct  2 09:00:05 2016<stddiag>:on the command line.  Deprecated MCA parameters should be avoided;
Sun Oct  2 09:00:05 2016<stddiag>:they may disappear in future releases.
Sun Oct  2 09:00:05 2016<stddiag>:
Sun Oct  2 09:00:05 2016<stddiag>:  Deprecated parameter: plm_rsh_agent
Sun Oct  2 09:00:05 2016<stddiag>:--------------------------------------------------------------------------
