[flyon.lyon.grid5000.fr:16015] System has detected external process binding to cores 0001
Sat Nov 19 21:04:55 2016<stderr>:[taurus-5.lyon.grid5000.fr:43147] MCW rank 3 bound to socket 0[core 0]: [B]
Sat Nov 19 21:04:55 2016<stderr>:[taurus-14.lyon.grid5000.fr:31066] MCW rank 7 bound to socket 0[core 0]: [B]
Sat Nov 19 21:04:55 2016<stderr>:[taurus-8.lyon.grid5000.fr:07617] MCW rank 0 bound to socket 0[core 0]: [B]
Sat Nov 19 21:04:55 2016<stderr>:[taurus-7.lyon.grid5000.fr:32972] MCW rank 1 bound to socket 0[core 0]: [B]
Sat Nov 19 21:04:55 2016<stderr>:[taurus-1.lyon.grid5000.fr:20147] MCW rank 11 bound to socket 0[core 0]: [B]
Sat Nov 19 21:04:55 2016<stderr>:[taurus-4.lyon.grid5000.fr:31084] MCW rank 4 bound to socket 0[core 0]: [B]
Sat Nov 19 21:04:55 2016<stderr>:[taurus-6.lyon.grid5000.fr:43078] MCW rank 2 bound to socket 0[core 0]: [B]
Sat Nov 19 21:04:55 2016<stderr>:[taurus-13.lyon.grid5000.fr:19174] MCW rank 8 bound to socket 0[core 0]: [B]
Sat Nov 19 21:04:55 2016<stderr>:[taurus-3.lyon.grid5000.fr:31217] MCW rank 5 bound to socket 0[core 0]: [B]
Sat Nov 19 21:04:55 2016<stderr>:[taurus-11.lyon.grid5000.fr:19142] MCW rank 9 bound to socket 0[core 0]: [B]
Sat Nov 19 21:04:55 2016<stderr>:[taurus-16.lyon.grid5000.fr:31087] MCW rank 6 bound to socket 0[core 0]: [B]
Sat Nov 19 21:04:55 2016<stderr>:[taurus-10.lyon.grid5000.fr:19110] MCW rank 10 bound to socket 0[core 0]: [B]
