Sun Nov 20 01:18:03 2016<stdout>:
Sun Nov 20 01:18:03 2016<stdout>:
Sun Nov 20 01:18:03 2016<stdout>: NAS Parallel Benchmarks 3.3 -- LU Benchmark
Sun Nov 20 01:18:03 2016<stdout>:
Sun Nov 20 01:18:03 2016<stdout>: Size:  162x 162x 162
Sun Nov 20 01:18:03 2016<stdout>: Iterations:  250
Sun Nov 20 01:18:03 2016<stdout>: Number of processes:    32
Sun Nov 20 01:18:03 2016<stdout>:
Sun Nov 20 01:18:04 2016<stdout>: Time step    1
Sun Nov 20 01:18:08 2016<stdout>: Time step   20
Sun Nov 20 01:18:13 2016<stdout>: Time step   40
Sun Nov 20 01:18:18 2016<stdout>: Time step   60
Sun Nov 20 01:18:23 2016<stdout>: Time step   80
Sun Nov 20 01:18:28 2016<stdout>: Time step  100
Sun Nov 20 01:18:33 2016<stdout>: Time step  120
Sun Nov 20 01:18:38 2016<stdout>: Time step  140
Sun Nov 20 01:18:43 2016<stdout>: Time step  160
Sun Nov 20 01:18:48 2016<stdout>: Time step  180
Sun Nov 20 01:18:53 2016<stdout>: Time step  200
Sun Nov 20 01:18:58 2016<stdout>: Time step  220
Sun Nov 20 01:19:03 2016<stdout>: Time step  240
Sun Nov 20 01:19:05 2016<stdout>: Time step  250
Sun Nov 20 01:19:05 2016<stdout>:
Sun Nov 20 01:19:05 2016<stdout>: Verification being performed for class C
Sun Nov 20 01:19:05 2016<stdout>: Accuracy setting for epsilon =  0.1000000000000E-07
Sun Nov 20 01:19:05 2016<stdout>: Comparison of RMS-norms of residual
Sun Nov 20 01:19:05 2016<stdout>:           1   0.1037669803235E+05 0.1037669803235E+05 0.5258867699169E-15
Sun Nov 20 01:19:05 2016<stdout>:           2   0.8922124588010E+03 0.8922124588010E+03 0.2548425245583E-15
Sun Nov 20 01:19:05 2016<stdout>:           3   0.2562388145827E+04 0.2562388145827E+04 0.3549402549548E-15
Sun Nov 20 01:19:05 2016<stdout>:           4   0.2191943438578E+04 0.2191943438578E+04 0.1037315431783E-14
Sun Nov 20 01:19:05 2016<stdout>:           5   0.1780780572611E+05 0.1780780572611E+05 0.2042912452576E-15
Sun Nov 20 01:19:05 2016<stdout>: Comparison of RMS-norms of solution error
Sun Nov 20 01:19:05 2016<stdout>:           1   0.2159863997169E+03 0.2159863997169E+03 0.1315902735897E-15
Sun Nov 20 01:19:05 2016<stdout>:           2   0.1557895592399E+02 0.1557895592399E+02 0.0000000000000E+00
Sun Nov 20 01:19:05 2016<stdout>:           3   0.5413188630772E+02 0.5413188630772E+02 0.2625228065103E-15
Sun Nov 20 01:19:05 2016<stdout>:           4   0.4822626431540E+02 0.4822626431540E+02 0.1473352219681E-15
Sun Nov 20 01:19:05 2016<stdout>:           5   0.4559029100433E+03 0.4559029100433E+03 0.0000000000000E+00
Sun Nov 20 01:19:05 2016<stdout>: Comparison of surface integral
Sun Nov 20 01:19:05 2016<stdout>:               0.6664045535722E+02 0.6664045535722E+02 0.1279479977052E-14
Sun Nov 20 01:19:05 2016<stdout>: Verification Successful
Sun Nov 20 01:19:05 2016<stdout>:
Sun Nov 20 01:19:05 2016<stdout>:
Sun Nov 20 01:19:05 2016<stdout>: LU Benchmark Completed.
Sun Nov 20 01:19:05 2016<stdout>: Class           =                        C
Sun Nov 20 01:19:05 2016<stdout>: Size            =            162x 162x 162
Sun Nov 20 01:19:05 2016<stdout>: Iterations      =                      250
Sun Nov 20 01:19:05 2016<stdout>: Time in seconds =                    61.65
Sun Nov 20 01:19:05 2016<stdout>: Total processes =                       32
Sun Nov 20 01:19:05 2016<stdout>: Compiled procs  =                       32
Sun Nov 20 01:19:05 2016<stdout>: Mop/s total     =                 33076.27
Sun Nov 20 01:19:05 2016<stdout>: Mop/s/process   =                  1033.63
Sun Nov 20 01:19:05 2016<stdout>: Operation type  =           floating point
Sun Nov 20 01:19:05 2016<stdout>: Verification    =               SUCCESSFUL
Sun Nov 20 01:19:05 2016<stdout>: Version         =                    3.3.1
Sun Nov 20 01:19:05 2016<stdout>: Compile date    =              20 Nov 2016
Sun Nov 20 01:19:05 2016<stdout>:
Sun Nov 20 01:19:05 2016<stdout>: Compile options:
Sun Nov 20 01:19:05 2016<stdout>:    MPIF77       = mpif77
Sun Nov 20 01:19:05 2016<stdout>:    FLINK        = $(MPIF77)
Sun Nov 20 01:19:05 2016<stdout>:    FMPI_LIB     = -L/usr/lib -lmpi -lmpif77
Sun Nov 20 01:19:05 2016<stdout>:    FMPI_INC     = -I/usr/include
Sun Nov 20 01:19:05 2016<stdout>:    FFLAGS       = -O2 -fsecond-underscore
Sun Nov 20 01:19:05 2016<stdout>:    FLINKFLAGS   = -O2
Sun Nov 20 01:19:05 2016<stdout>:    RAND         = (none)
Sun Nov 20 01:19:05 2016<stdout>:
Sun Nov 20 01:19:05 2016<stdout>:
Sun Nov 20 01:19:05 2016<stdout>: Please send feedbacks and/or the results of this run to:
Sun Nov 20 01:19:05 2016<stdout>:
Sun Nov 20 01:19:05 2016<stdout>: NPB Development Team 
Sun Nov 20 01:19:05 2016<stdout>: Internet: npb@nas.nasa.gov
Sun Nov 20 01:19:05 2016<stdout>:
Sun Nov 20 01:19:05 2016<stdout>:
