[flyon.lyon.grid5000.fr:31999] System has detected external process binding to cores 0001
Mon Nov 21 02:15:15 2016<stderr>:[taurus-8.lyon.grid5000.fr:41874] MCW rank 0 bound to socket 0[core 0]: [B .][. .]
Mon Nov 21 02:15:15 2016<stderr>:[taurus-8.lyon.grid5000.fr:41874] MCW rank 1 bound to socket 0[core 1]: [. B][. .]
Mon Nov 21 02:15:15 2016<stderr>:[taurus-8.lyon.grid5000.fr:41874] MCW rank 2 bound to socket 1[core 0]: [. .][B .]
Mon Nov 21 02:15:15 2016<stderr>:[taurus-8.lyon.grid5000.fr:41874] MCW rank 3 bound to socket 1[core 1]: [. .][. B]
