Possible precedence issue with control flow operator at /usr/bin/taktuk line 940.
taurus-1.lyon.grid5000.fr-9: ~/experiments/2016-10-03--idle-consumption/execute_idle.zsh >| ~/experiments/2016-10-03--idle-consumption/$(hostname)_idle_consumption.output (20353): status > Exited with status 0
taurus-7.lyon.grid5000.fr-4: ~/experiments/2016-10-03--idle-consumption/execute_idle.zsh >| ~/experiments/2016-10-03--idle-consumption/$(hostname)_idle_consumption.output (21049): status > Exited with status 0
taurus-16.lyon.grid5000.fr-15: ~/experiments/2016-10-03--idle-consumption/execute_idle.zsh >| ~/experiments/2016-10-03--idle-consumption/$(hostname)_idle_consumption.output (21274): status > Exited with status 0
taurus-6.lyon.grid5000.fr-6: ~/experiments/2016-10-03--idle-consumption/execute_idle.zsh >| ~/experiments/2016-10-03--idle-consumption/$(hostname)_idle_consumption.output (20910): status > Exited with status 0
taurus-4.lyon.grid5000.fr-3: ~/experiments/2016-10-03--idle-consumption/execute_idle.zsh >| ~/experiments/2016-10-03--idle-consumption/$(hostname)_idle_consumption.output (20731): status > Exited with status 0
taurus-14.lyon.grid5000.fr-14: ~/experiments/2016-10-03--idle-consumption/execute_idle.zsh >| ~/experiments/2016-10-03--idle-consumption/$(hostname)_idle_consumption.output (21039): status > Exited with status 0
taurus-8.lyon.grid5000.fr-17: ~/experiments/2016-10-03--idle-consumption/execute_idle.zsh >| ~/experiments/2016-10-03--idle-consumption/$(hostname)_idle_consumption.output (20903): status > Exited with status 0
taurus-11.lyon.grid5000.fr-11: ~/experiments/2016-10-03--idle-consumption/execute_idle.zsh >| ~/experiments/2016-10-03--idle-consumption/$(hostname)_idle_consumption.output (21354): status > Exited with status 0
taurus-12.lyon.grid5000.fr-12: ~/experiments/2016-10-03--idle-consumption/execute_idle.zsh >| ~/experiments/2016-10-03--idle-consumption/$(hostname)_idle_consumption.output (20791): status > Exited with status 0
taurus-10.lyon.grid5000.fr-10: ~/experiments/2016-10-03--idle-consumption/execute_idle.zsh >| ~/experiments/2016-10-03--idle-consumption/$(hostname)_idle_consumption.output (20414): status > Exited with status 0
orion-2.lyon.grid5000.fr-5: ~/experiments/2016-10-03--idle-consumption/execute_idle.zsh >| ~/experiments/2016-10-03--idle-consumption/$(hostname)_idle_consumption.output (20957): status > Exited with status 0
taurus-13.lyon.grid5000.fr-13: ~/experiments/2016-10-03--idle-consumption/execute_idle.zsh >| ~/experiments/2016-10-03--idle-consumption/$(hostname)_idle_consumption.output (21063): status > Exited with status 0
taurus-5.lyon.grid5000.fr-16: ~/experiments/2016-10-03--idle-consumption/execute_idle.zsh >| ~/experiments/2016-10-03--idle-consumption/$(hostname)_idle_consumption.output (21330): status > Exited with status 0
orion-3.lyon.grid5000.fr-7: ~/experiments/2016-10-03--idle-consumption/execute_idle.zsh >| ~/experiments/2016-10-03--idle-consumption/$(hostname)_idle_consumption.output (21624): status > Exited with status 0
taurus-3.lyon.grid5000.fr-2: ~/experiments/2016-10-03--idle-consumption/execute_idle.zsh >| ~/experiments/2016-10-03--idle-consumption/$(hostname)_idle_consumption.output (21310): status > Exited with status 0
orion-4.lyon.grid5000.fr-8: ~/experiments/2016-10-03--idle-consumption/execute_idle.zsh >| ~/experiments/2016-10-03--idle-consumption/$(hostname)_idle_consumption.output (21572): status > Exited with status 0
orion-1.lyon.grid5000.fr-1: ~/experiments/2016-10-03--idle-consumption/execute_idle.zsh >| ~/experiments/2016-10-03--idle-consumption/$(hostname)_idle_consumption.output (21649): status > Exited with status 0
