time,hostname,power_consumption
1117.721524,taurus-10,117081.329597
1117.721524,taurus-14,105490.557397
1117.721524,taurus-2,106183.544742
1117.721524,taurus-6,102405.645992
1117.721524,taurus-11,104786.392837
1117.721524,taurus-15,106183.544742
1117.721524,taurus-3,103109.810552
1117.721524,taurus-7,104786.392837
1117.721524,taurus-12,119037.342263
1117.721524,taurus-16,105490.557397
1117.721524,taurus-4,103948.101695
1117.721524,taurus-8,136493.215457
1117.721524,taurus-13,106462.975123
1117.721524,taurus-1,106183.544742
1117.721524,taurus-5,102550.949790
1117.721524,taurus-9,106183.544742
