time,hostname,power_consumption
388.680602,taurus-10,40714.293090
388.680602,taurus-14,36683.675244
388.680602,taurus-2,36924.657218
388.680602,taurus-6,35610.916782
388.680602,taurus-11,36438.806465
388.680602,taurus-15,36924.657218
388.680602,taurus-3,35855.785561
388.680602,taurus-7,36438.806465
388.680602,taurus-12,41394.484144
388.680602,taurus-16,36683.675244
388.680602,taurus-4,36147.296013
388.680602,taurus-8,55841.844433
388.680602,taurus-13,37021.827368
388.680602,taurus-1,36924.657218
388.680602,taurus-5,35661.445260
388.680602,taurus-9,36924.657218
