Tue Nov 22 21:20:32 2016<stdout>:
Tue Nov 22 21:20:32 2016<stdout>:
Tue Nov 22 21:20:32 2016<stdout>: NAS Parallel Benchmarks 3.3 -- LU Benchmark
Tue Nov 22 21:20:32 2016<stdout>:
Tue Nov 22 21:20:32 2016<stdout>: Size:  162x 162x 162
Tue Nov 22 21:20:32 2016<stdout>: Iterations:  250
Tue Nov 22 21:20:32 2016<stdout>: Number of processes:    12
Tue Nov 22 21:20:32 2016<stdout>:
Tue Nov 22 21:20:32 2016<stdout>: Proc_grid for nprocs =    12:    4 x    3
Tue Nov 22 21:20:33 2016<stdout>: Time step    1
Tue Nov 22 21:20:41 2016<stdout>: Time step   20
Tue Nov 22 21:20:49 2016<stdout>: Time step   40
Tue Nov 22 21:20:57 2016<stdout>: Time step   60
Tue Nov 22 21:21:05 2016<stdout>: Time step   80
Tue Nov 22 21:21:13 2016<stdout>: Time step  100
Tue Nov 22 21:21:21 2016<stdout>: Time step  120
Tue Nov 22 21:21:29 2016<stdout>: Time step  140
Tue Nov 22 21:21:37 2016<stdout>: Time step  160
Tue Nov 22 21:21:45 2016<stdout>: Time step  180
Tue Nov 22 21:21:53 2016<stdout>: Time step  200
Tue Nov 22 21:22:01 2016<stdout>: Time step  220
Tue Nov 22 21:22:09 2016<stdout>: Time step  240
Tue Nov 22 21:22:13 2016<stdout>: Time step  250
Tue Nov 22 21:22:14 2016<stdout>:
Tue Nov 22 21:22:14 2016<stdout>: Verification being performed for class C
Tue Nov 22 21:22:14 2016<stdout>: Accuracy setting for epsilon =  0.1000000000000E-07
Tue Nov 22 21:22:14 2016<stdout>: Comparison of RMS-norms of residual
Tue Nov 22 21:22:14 2016<stdout>:           1   0.1037669803235E+05 0.1037669803235E+05 0.1752955899723E-15
Tue Nov 22 21:22:14 2016<stdout>:           2   0.8922124588010E+03 0.8922124588010E+03 0.4204901655212E-14
Tue Nov 22 21:22:14 2016<stdout>:           3   0.2562388145827E+04 0.2562388145827E+04 0.1064820764864E-14
Tue Nov 22 21:22:14 2016<stdout>:           4   0.2191943438578E+04 0.2191943438578E+04 0.1659704690852E-14
Tue Nov 22 21:22:14 2016<stdout>:           5   0.1780780572611E+05 0.1780780572611E+05 0.1634329962061E-14
Tue Nov 22 21:22:14 2016<stdout>: Comparison of RMS-norms of solution error
Tue Nov 22 21:22:14 2016<stdout>:           1   0.2159863997169E+03 0.2159863997169E+03 0.1315902735897E-14
Tue Nov 22 21:22:14 2016<stdout>:           2   0.1557895592399E+02 0.1557895592399E+02 0.2622525380106E-14
Tue Nov 22 21:22:14 2016<stdout>:           3   0.5413188630772E+02 0.5413188630772E+02 0.1181352629297E-14
Tue Nov 22 21:22:14 2016<stdout>:           4   0.4822626431540E+02 0.4822626431540E+02 0.1768022663617E-14
Tue Nov 22 21:22:14 2016<stdout>:           5   0.4559029100433E+03 0.4559029100433E+03 0.2119613846163E-14
Tue Nov 22 21:22:14 2016<stdout>: Comparison of surface integral
Tue Nov 22 21:22:14 2016<stdout>:               0.6664045535722E+02 0.6664045535722E+02 0.6397399885262E-15
Tue Nov 22 21:22:14 2016<stdout>: Verification Successful
Tue Nov 22 21:22:14 2016<stdout>:
Tue Nov 22 21:22:14 2016<stdout>:
Tue Nov 22 21:22:14 2016<stdout>: LU Benchmark Completed.
Tue Nov 22 21:22:14 2016<stdout>: Class           =                        C
Tue Nov 22 21:22:14 2016<stdout>: Size            =            162x 162x 162
Tue Nov 22 21:22:14 2016<stdout>: Iterations      =                      250
Tue Nov 22 21:22:14 2016<stdout>: Time in seconds =                   100.53
Tue Nov 22 21:22:14 2016<stdout>: Total processes =                       12
Tue Nov 22 21:22:14 2016<stdout>: Compiled procs  =                       12
Tue Nov 22 21:22:14 2016<stdout>: Mop/s total     =                 20282.99
Tue Nov 22 21:22:14 2016<stdout>: Mop/s/process   =                  1690.25
Tue Nov 22 21:22:14 2016<stdout>: Operation type  =           floating point
Tue Nov 22 21:22:14 2016<stdout>: Verification    =               SUCCESSFUL
Tue Nov 22 21:22:14 2016<stdout>: Version         =                    3.3.1
Tue Nov 22 21:22:14 2016<stdout>: Compile date    =              20 Nov 2016
Tue Nov 22 21:22:14 2016<stdout>:
Tue Nov 22 21:22:14 2016<stdout>: Compile options:
Tue Nov 22 21:22:14 2016<stdout>:    MPIF77       = mpif77
Tue Nov 22 21:22:14 2016<stdout>:    FLINK        = $(MPIF77)
Tue Nov 22 21:22:14 2016<stdout>:    FMPI_LIB     = -L/usr/lib -lmpi -lmpif77
Tue Nov 22 21:22:14 2016<stdout>:    FMPI_INC     = -I/usr/include
Tue Nov 22 21:22:14 2016<stdout>:    FFLAGS       = -O2 -fsecond-underscore
Tue Nov 22 21:22:14 2016<stdout>:    FLINKFLAGS   = -O2
Tue Nov 22 21:22:14 2016<stdout>:    RAND         = (none)
Tue Nov 22 21:22:14 2016<stdout>:
Tue Nov 22 21:22:14 2016<stdout>:
Tue Nov 22 21:22:14 2016<stdout>: Please send feedbacks and/or the results of this run to:
Tue Nov 22 21:22:14 2016<stdout>:
Tue Nov 22 21:22:14 2016<stdout>: NPB Development Team 
Tue Nov 22 21:22:14 2016<stdout>: Internet: npb@nas.nasa.gov
Tue Nov 22 21:22:14 2016<stdout>:
Tue Nov 22 21:22:14 2016<stdout>:
