[flyon.lyon.grid5000.fr:13750] System has detected external process binding to cores 0001
Mon Nov 21 03:30:34 2016<stderr>:[taurus-7.lyon.grid5000.fr:14770] MCW rank 1 bound to socket 0[core 0]: [B]
Mon Nov 21 03:30:34 2016<stderr>:[taurus-5.lyon.grid5000.fr:24700] MCW rank 3 bound to socket 0[core 0]: [B]
Mon Nov 21 03:30:34 2016<stderr>:[taurus-14.lyon.grid5000.fr:04827] MCW rank 7 bound to socket 0[core 0]: [B]
Mon Nov 21 03:30:34 2016<stderr>:[taurus-8.lyon.grid5000.fr:46100] MCW rank 0 bound to socket 0[core 0]: [B]
Mon Nov 21 03:30:34 2016<stderr>:[taurus-1.lyon.grid5000.fr:34314] MCW rank 11 bound to socket 0[core 0]: [B]
Mon Nov 21 03:30:34 2016<stderr>:[taurus-13.lyon.grid5000.fr:33704] MCW rank 8 bound to socket 0[core 0]: [B]
Mon Nov 21 03:30:34 2016<stderr>:[taurus-4.lyon.grid5000.fr:05025] MCW rank 4 bound to socket 0[core 0]: [B]
Mon Nov 21 03:30:34 2016<stderr>:[taurus-11.lyon.grid5000.fr:33617] MCW rank 9 bound to socket 0[core 0]: [B]
Mon Nov 21 03:30:34 2016<stderr>:[taurus-3.lyon.grid5000.fr:04916] MCW rank 5 bound to socket 0[core 0]: [B]
Mon Nov 21 03:30:34 2016<stderr>:[taurus-6.lyon.grid5000.fr:24617] MCW rank 2 bound to socket 0[core 0]: [B]
Mon Nov 21 03:30:34 2016<stderr>:[taurus-16.lyon.grid5000.fr:04714] MCW rank 6 bound to socket 0[core 0]: [B]
Mon Nov 21 03:30:34 2016<stderr>:[taurus-10.lyon.grid5000.fr:33533] MCW rank 10 bound to socket 0[core 0]: [B]
