[taurus-1.lyon.grid5000.fr:22065] System has detected external process binding to cores 0001
Sun Nov 20 08:36:13 2016<stderr>:[taurus-14.lyon.grid5000.fr:40920] MCW rank 7 bound to socket 0[core 0]: [B]
Sun Nov 20 08:36:13 2016<stderr>:[taurus-7.lyon.grid5000.fr:47381] MCW rank 1 bound to socket 0[core 0]: [B]
Sun Nov 20 08:36:13 2016<stderr>:[taurus-5.lyon.grid5000.fr:08691] MCW rank 3 bound to socket 0[core 0]: [B]
Sun Nov 20 08:36:13 2016<stderr>:[taurus-8.lyon.grid5000.fr:26387] MCW rank 0 bound to socket 0[core 0]: [B]
Sun Nov 20 08:36:13 2016<stderr>:[taurus-3.lyon.grid5000.fr:41029] MCW rank 5 bound to socket 0[core 0]: [B]
Sun Nov 20 08:36:13 2016<stderr>:[taurus-6.lyon.grid5000.fr:08622] MCW rank 2 bound to socket 0[core 0]: [B]
Sun Nov 20 08:36:13 2016<stderr>:[taurus-4.lyon.grid5000.fr:41002] MCW rank 4 bound to socket 0[core 0]: [B]
Sun Nov 20 08:36:13 2016<stderr>:[taurus-16.lyon.grid5000.fr:40943] MCW rank 6 bound to socket 0[core 0]: [B]
