time,hostname,power_consumption
16.633828,taurus-10,3125.626462
16.633828,taurus-14,1912.890191
16.633828,taurus-2,1576.055179
16.633828,taurus-6,2867.842895
16.633828,taurus-11,2960.998647
16.633828,taurus-15,1912.890191
16.633828,taurus-3,2891.908723
16.633828,taurus-7,2958.901280
16.633828,taurus-12,3179.121047
16.633828,taurus-16,2989.813443
16.633828,taurus-4,2910.097710
16.633828,taurus-8,2875.639120
16.633828,taurus-13,2962.749674
16.633828,taurus-1,2926.421431
16.633828,taurus-5,2877.700376
16.633828,taurus-9,1912.890191
