Sat Nov 19 22:43:33 2016<stderr>:[taurus-8.lyon.grid5000.fr:13021] MCW rank 4 bound to socket 1[core 0]: [. . . .][B . . .]
Sat Nov 19 22:43:33 2016<stderr>:[taurus-8.lyon.grid5000.fr:13021] MCW rank 5 bound to socket 1[core 1]: [. . . .][. B . .]
Sat Nov 19 22:43:33 2016<stderr>:[taurus-8.lyon.grid5000.fr:13021] MCW rank 6 bound to socket 1[core 2]: [. . . .][. . B .]
Sat Nov 19 22:43:33 2016<stderr>:[taurus-8.lyon.grid5000.fr:13021] MCW rank 7 bound to socket 1[core 3]: [. . . .][. . . B]
Sat Nov 19 22:43:33 2016<stderr>:[taurus-8.lyon.grid5000.fr:13021] MCW rank 0 bound to socket 0[core 0]: [B . . .][. . . .]
Sat Nov 19 22:43:33 2016<stderr>:[taurus-8.lyon.grid5000.fr:13021] MCW rank 1 bound to socket 0[core 1]: [. B . .][. . . .]
Sat Nov 19 22:43:33 2016<stderr>:[taurus-8.lyon.grid5000.fr:13021] MCW rank 2 bound to socket 0[core 2]: [. . B .][. . . .]
Sat Nov 19 22:43:33 2016<stderr>:[taurus-8.lyon.grid5000.fr:13021] MCW rank 3 bound to socket 0[core 3]: [. . . B][. . . .]
