[flyon.lyon.grid5000.fr:21490] System has detected external process binding to cores 0001
Mon Nov 21 04:20:13 2016<stderr>:[taurus-7.lyon.grid5000.fr:15692] MCW rank 1 bound to socket 0[core 0]: [B]
Mon Nov 21 04:20:13 2016<stderr>:[taurus-5.lyon.grid5000.fr:25627] MCW rank 3 bound to socket 0[core 0]: [B]
Mon Nov 21 04:20:13 2016<stderr>:[taurus-8.lyon.grid5000.fr:47325] MCW rank 0 bound to socket 0[core 0]: [B]
Mon Nov 21 04:20:13 2016<stderr>:[taurus-14.lyon.grid5000.fr:05449] MCW rank 7 bound to socket 0[core 0]: [B]
Mon Nov 21 04:20:13 2016<stderr>:[taurus-3.lyon.grid5000.fr:05540] MCW rank 5 bound to socket 0[core 0]: [B]
Mon Nov 21 04:20:13 2016<stderr>:[taurus-11.lyon.grid5000.fr:34002] MCW rank 9 bound to socket 0[core 0]: [B]
Mon Nov 21 04:20:13 2016<stderr>:[taurus-1.lyon.grid5000.fr:34633] MCW rank 11 bound to socket 0[core 0]: [B]
Mon Nov 21 04:20:13 2016<stderr>:[taurus-4.lyon.grid5000.fr:05648] MCW rank 4 bound to socket 0[core 0]: [B]
Mon Nov 21 04:20:13 2016<stderr>:[taurus-13.lyon.grid5000.fr:34046] MCW rank 8 bound to socket 0[core 0]: [B]
Mon Nov 21 04:20:13 2016<stderr>:[taurus-6.lyon.grid5000.fr:25542] MCW rank 2 bound to socket 0[core 0]: [B]
Mon Nov 21 04:20:13 2016<stderr>:[taurus-10.lyon.grid5000.fr:33864] MCW rank 10 bound to socket 0[core 0]: [B]
Mon Nov 21 04:20:13 2016<stderr>:[taurus-16.lyon.grid5000.fr:05336] MCW rank 6 bound to socket 0[core 0]: [B]
