time,hostname,power_consumption
718.801923,taurus-10,82662.221150
718.801923,taurus-14,82662.221150
718.801923,taurus-2,68106.482209
718.801923,taurus-6,82662.221150
718.801923,taurus-11,82662.221150
718.801923,taurus-15,82662.221150
718.801923,taurus-3,82662.221150
718.801923,taurus-7,82662.221150
718.801923,taurus-12,82662.221150
718.801923,taurus-16,82662.221150
718.801923,taurus-4,82662.221150
718.801923,taurus-8,85357.353361
718.801923,taurus-13,82662.221150
718.801923,taurus-1,82662.221150
718.801923,taurus-5,82662.221150
718.801923,taurus-9,82662.221150
