time,hostname,power_consumption
20.053859,taurus-10,2306.193735
20.053859,taurus-14,2306.193735
20.053859,taurus-2,1900.103099
20.053859,taurus-6,3070.417660
20.053859,taurus-11,2306.193735
20.053859,taurus-15,2306.193735
20.053859,taurus-3,3112.951430
20.053859,taurus-7,3132.227150
20.053859,taurus-12,3277.076184
20.053859,taurus-16,3184.712706
20.053859,taurus-4,3118.644125
20.053859,taurus-8,3059.176234
20.053859,taurus-13,2306.193735
20.053859,taurus-1,2306.193735
20.053859,taurus-5,3087.228126
20.053859,taurus-9,2306.193735
