time,hostname,power_consumption
192.017514,taurus-10,22082.014144
192.017514,taurus-14,22082.014144
192.017514,taurus-2,18193.659479
192.017514,taurus-6,22082.014144
192.017514,taurus-11,22082.014144
192.017514,taurus-15,22082.014144
192.017514,taurus-3,22082.014144
192.017514,taurus-7,22082.014144
192.017514,taurus-12,22082.014144
192.017514,taurus-16,22082.014144
192.017514,taurus-4,22082.014144
192.017514,taurus-8,27424.380014
192.017514,taurus-13,22082.014144
192.017514,taurus-1,22082.014144
192.017514,taurus-5,22082.014144
192.017514,taurus-9,22082.014144
