[flyon.lyon.grid5000.fr:19482] System has detected external process binding to cores 0001
Sat Nov 19 17:57:41 2016<stderr>:[taurus-14.lyon.grid5000.fr:29077] MCW rank 7 bound to socket 0[core 0]: [B]
Sat Nov 19 17:57:41 2016<stderr>:[taurus-5.lyon.grid5000.fr:40240] MCW rank 3 bound to socket 0[core 0]: [B]
Sat Nov 19 17:57:41 2016<stderr>:[taurus-7.lyon.grid5000.fr:30080] MCW rank 1 bound to socket 0[core 0]: [B]
Sat Nov 19 17:57:41 2016<stderr>:[taurus-8.lyon.grid5000.fr:03741] MCW rank 0 bound to socket 0[core 0]: [B]
Sat Nov 19 17:57:41 2016<stderr>:[taurus-4.lyon.grid5000.fr:29097] MCW rank 4 bound to socket 0[core 0]: [B]
Sat Nov 19 17:57:41 2016<stderr>:[taurus-6.lyon.grid5000.fr:40218] MCW rank 2 bound to socket 0[core 0]: [B]
Sat Nov 19 17:57:41 2016<stderr>:[taurus-3.lyon.grid5000.fr:29176] MCW rank 5 bound to socket 0[core 0]: [B]
Sat Nov 19 17:57:41 2016<stderr>:[taurus-16.lyon.grid5000.fr:29097] MCW rank 6 bound to socket 0[core 0]: [B]
